<?xml version="1.0" encoding="utf-8"?>
<!-- Generator: Adobe Illustrator 21.1.0, SVG Export Plug-In . SVG Version: 6.00 Build 0)  -->
<svg version="1.1" id="Layer_1" xmlns="http://www.w3.org/2000/svg" xmlns:xlink="http://www.w3.org/1999/xlink" x="0px" y="0px"
	 viewBox="0 0 36 36" style="enable-background:new 0 0 36 36;" xml:space="preserve">
<style type="text/css">
	.st0{fill:#fff;}
	
</style>
<g class="st0">
	<path d="M0,18C0,8.1,8.1,0,18,0c9.9,0,18,8.1,18,18s-8.1,18-18,18C8.1,36,0,27.9,0,18z M1,18c0,9.4,7.6,17,17,17
		c9.4,0,17-7.6,17-17c0-9.4-7.6-17-17-17C8.6,1,1,8.6,1,18z"/>
	<polygon points="15.6,23.4 23.6,18.6 23.6,17.4 15.6,12.6 15.6,14.4 21.5,18 15.6,21.6 	"/>
</g>
</svg>
