{
    "Agencies": [
        {
            "AgencyCode": "AGY22",
            "AgencyFolderName": "nirvanab2c",
            "UserName": "admin.ntravel",
            "Password": "admin.ntravel",
            "Domain": "127.0.0.1"
        }
    ]
}