{
    "Agencies": [
        {
            "AgencyCode": "AGY3200",
            "AgencyFolderName": "SGS_Demo1",
            "UserName": "shibu",
            "Password": "shibu",
            "Domain": "127.0.0.28"
        }
    ]
}