<?xml version="1.0" encoding="UTF-8"?>
<!DOCTYPE svg  PUBLIC '-//W3C//DTD SVG 1.1//EN'  'http://www.w3.org/Graphics/SVG/1.1/DTD/svg11.dtd'>
<svg version="1.1" xmlns="http://www.w3.org/2000/svg">
<defs>
<font id="DINNextLTW23-Bold" horiz-adv-x="556">
<font-face font-family="DIN NEXTTM ARABIC BOLD" font-weight="700" ascent="750" bbox="-46.6667 -207 885 925" cap-height="680" descent="-250" panose-1="2 11 8 3 2 2 3 5 2 3" underline-position="-100" underline-thickness="50" unicode-range="U+0020-00FE" units-per-em="1000" x-height="484"/>
<missing-glyph/>
<glyph glyph-name="space" horiz-adv-x="236" unicode=" "/>
<glyph glyph-name="space" horiz-adv-x="236" unicode=" "/>
<glyph d="M115 199q-10 0 -10 10l-24 461q0 10 10 10h130q10 0 10 -10l-24 -461q0 -10 -10 -10h-82zM86 124q0 10 10 10h120q10 0 10 -10v-114q0 -10 -10 -10h-120q-10 0 -10 10v114z" glyph-name="exclam" horiz-adv-x="312" unicode="!"/>
<glyph d="M227 472q-10 0 -10 10v188q0 10 10 10h79q10 0 10 -10v-188q0 -10 -10 -10h-79zM68 472q-10 0 -10 10v188q0 10 10 10h79q10 0 10 -10v-188q0 -10 -10 -10h-79z" glyph-name="quotedbl" horiz-adv-x="374" unicode='"'/>
<glyph d="M91 195h-63q-10 0 -10 10v79q0 10 10 10h76l14 102h-64q-10 0 -10 10v79q0 10 10 10h78l24 175q2 10 11 10h89q11 0 9 -10l-24 -175h104l24 175q2 10 11 10h89q11 0 9 -10l-24 -175h66q10 0 10 -10v-79q0 -10 -10 -10h-80l-14 -102h68q10 0 10 -10v-79q0 -10 -10 -10h-81 l-25 -185q-2 -10 -11 -10h-89q-11 0 -9 10l25 185h-104l-25 -185q-2 -10 -11 -10h-89q-11 0 -9 10zM317 294l14 102h-104l-14 -102h104z" glyph-name="numbersign" horiz-adv-x="548" unicode="#"/>
<glyph d="M54 63q-9 7 -2 15l68 84q7 8 13 2q22 -18 53 -33.5t67 -19.5v171q-88 14 -138 65t-50 132q0 42 13.5 78t38.5 63.5t59.5 45.5t76.5 23v59q0 10 10 10h46q10 0 10 -10v-59q48 -4 88 -19t71 -35q8 -6 2 -15l-58 -84q-6 -8 -14 -3q-21 13 -43.5 22t-45.5 13v-161 q95 -15 142 -66.5t47 -132.5q0 -88 -50.5 -145t-138.5 -70v-61q0 -10 -10 -10h-46q-10 0 -10 10v58q-60 3 -110.5 23t-88.5 50zM253 563q-23 -9 -36.5 -28t-13.5 -45q0 -24 10.5 -41.5t39.5 -28.5v143zM319 118q51 20 51 83q0 22 -11 39t-40 28v-150z" glyph-name="dollar" unicode="$"/>
<glyph d="M553 681q6 10 16 10h84q5 0 5.5 -3t-1.5 -7l-395 -682q-6 -10 -16 -10h-83q-5 0 -6 3t1 7zM198 330q-48 0 -82 22t-47 60q-3 7 -4.5 14.5t-2.5 18t-1.5 25.5t-0.5 39t0.5 39t1.5 25.5t2.5 17.5t4.5 15q13 38 47 60t82 22t82 -22t47 -60q3 -8 4.5 -15t2.5 -17.5t1.5 -25.5 t0.5 -39t-0.5 -39t-1.5 -25.5t-2.5 -18t-4.5 -14.5q-13 -38 -47 -60t-82 -22zM198 409q27 0 35 23q1 3 2 7t1.5 12t0.5 21.5v36.5v36.5t-0.5 21.5t-1.5 12t-2 7q-8 23 -35 23t-35 -23q-1 -3 -2 -7t-1.5 -12t-0.5 -21.5v-36.5v-36.5t0.5 -21.5t1.5 -12t2 -7q8 -23 35 -23z M487 74q-3 7 -4.5 14.5t-2.5 18t-1.5 25.5t-0.5 38q0 24 0.5 39t1.5 25.5t2.5 17.5t4.5 15q13 38 46.5 60t82.5 22q48 0 82 -22t47 -60q2 -8 4 -15t3 -17.5t1.5 -25.5t0.5 -39q0 -23 -0.5 -38t-1.5 -25.5t-3 -18t-4 -14.5q-13 -38 -47 -60.5t-82 -22.5q-49 0 -82.5 22.5 t-46.5 60.5zM581 94q7 -24 35 -24q27 0 35 24q1 3 2 6.5t1.5 11.5t0.5 21.5v36.5v36.5t-0.5 21.5t-1.5 12t-2 7q-8 23 -35 23t-35 -23q-1 -3 -2 -7t-1.5 -12t-0.5 -21.5v-36.5v-36.5t0.5 -21.5t1.5 -11.5t2 -6.5z" glyph-name="percent" horiz-adv-x="814" unicode="%"/>
<glyph d="M54 172q0 27 6.5 52.5t21.5 50t39 50t59 53.5q-37 47 -55 81t-18 71q0 35 14 64.5t38 51t57 33.5t71 12q40 0 73 -12.5t56 -34.5t35.5 -50.5t12.5 -61.5q0 -23 -6 -43.5t-19.5 -41t-35.5 -41.5t-53 -45l89 -113l66 76q7 8 14 1l69 -58q7 -6 1 -14l-80 -95l18 -22 q9 -12 18 -16.5t21 -4.5h15q10 0 10 -10v-95q0 -10 -10 -10h-42q-36 0 -59 11t-48 44l-8 9q-43 -41 -83 -58t-91 -17q-47 0 -83.5 13.5t-61.5 38t-38 58t-13 73.5zM279 451q37 28 49.5 45.5t12.5 36.5q0 23 -15 38.5t-38 15.5q-24 0 -38.5 -15t-14.5 -39q0 -16 9 -33t35 -49 zM182 183q0 -34 20 -55.5t58 -21.5q24 0 45.5 10.5t49.5 37.5l-104 134q-40 -32 -54.5 -56.5t-14.5 -48.5z" glyph-name="ampersand" horiz-adv-x="648" unicode="&amp;"/>
<glyph d="M68 472q-10 0 -10 10v188q0 10 10 10h79q10 0 10 -10v-188q0 -10 -10 -10h-79v0z" glyph-name="quotesingle" horiz-adv-x="215" unicode="'"/>
<glyph d="M180 -74q-66 91 -97.5 195t-31.5 207t31.5 207t97.5 195q7 10 16 10h72q11 0 6 -10q-44 -91 -67 -195t-23 -207t23.5 -208t66.5 -194q5 -10 -6 -10h-72q-9 0 -16 10z" glyph-name="parenleft" horiz-adv-x="311" unicode="("/>
<glyph d="M37 -74q43 89 66.5 194t23.5 208t-23 207t-67 195q-5 10 6 10h72q9 0 16 -10q66 -91 97.5 -195t31.5 -207t-31.5 -207t-97.5 -195q-7 -10 -16 -10h-72q-11 0 -6 10z" glyph-name="parenright" horiz-adv-x="311" unicode=")"/>
<glyph d="M156 374q-10 0 -10 10l1 80l-69 -41q-9 -5 -14 4l-27 48q-5 9 4 14l69 38l-69 39q-9 5 -4 14l27 48q5 8 14 3l69 -41l-1 80q0 10 10 10h55q10 0 10 -10l-2 -80l69 41q9 5 14 -3l27 -48q5 -9 -3 -14l-70 -39l70 -38q9 -5 4 -14l-28 -48q-5 -9 -14 -4l-69 41l2 -80 q0 -10 -10 -10h-55v0z" glyph-name="asterisk" horiz-adv-x="367" unicode="*"/>
<glyph d="M217 211q0 6 -6 6h-150q-10 0 -10 10v98q0 10 10 10h150q6 0 6 6v152q0 10 10 10h102q10 0 10 -10v-152q0 -6 6 -6h150q10 0 10 -10v-98q0 -10 -10 -10h-150q-6 0 -6 -6v-152q0 -10 -10 -10h-102q-10 0 -10 10v152z" glyph-name="plus" unicode="+"/>
<glyph d="M60 130q0 10 10 10h113q10 0 10 -10v-121q0 -11 -9 -20l-99 -90q-8 -7 -15 -7q-10 0 -10 11v227z" glyph-name="comma" horiz-adv-x="253" unicode=","/>
<glyph d="M60 130q0 10 10 10h119q10 0 10 -10v-120q0 -10 -10 -10h-119q-10 0 -10 10v120z" glyph-name="period" horiz-adv-x="259" unicode="."/>
<glyph d="M262 681q3 10 13 10h109q10 0 7 -10l-218 -682q-3 -10 -13 -10h-108q-10 0 -7 10z" glyph-name="slash" horiz-adv-x="436" unicode="/"/>
<glyph d="M73 128q-4 11 -6.5 24.5t-4.5 36t-3 58.5t-1 93t1 93t3 58.5t4.5 36t6.5 24.5q21 66 72.5 102.5t132.5 36.5t132.5 -36.5t72.5 -102.5q4 -11 6.5 -24.5t4.5 -36t3 -58.5t1 -93t-1 -93t-3 -58.5t-4.5 -36t-6.5 -24.5q-21 -66 -72.5 -102.5t-132.5 -36.5t-132.5 36.5 t-72.5 102.5zM209 153q15 -46 69 -46t69 46q2 7 3.5 16t2.5 28.5t1.5 53t0.5 89.5t-0.5 89.5t-1.5 53t-2.5 28.5t-3.5 16q-15 46 -69 46t-69 -46q-2 -7 -3.5 -16t-2.5 -28.5t-1.5 -53t-0.5 -89.5t0.5 -89.5t1.5 -53t2.5 -28.5t3.5 -16z" glyph-name="zero" unicode="0"/>
<glyph d="M242 522h-2l-108 -74q-11 -7 -11 6v124q0 8 7 14l114 82q7 6 18 6h112q10 0 10 -10v-660q0 -10 -10 -10h-120q-10 0 -10 10v512z" glyph-name="one" unicode="1"/>
<glyph d="M65 103q0 8 5 14l239 284q20 23 30 45.5t10 48.5q0 34 -19.5 56t-54.5 22q-71 0 -80 -80q0 -10 -11 -8l-110 18q-10 2 -8 12q3 35 18 67t42.5 56t66 38.5t87.5 14.5t87.5 -15t65.5 -41t41.5 -61.5t14.5 -76.5q0 -49 -18.5 -88.5t-50.5 -76.5l-179 -211v-2h238 q10 0 10 -10v-99q0 -10 -10 -10h-404q-10 0 -10 10v93z" glyph-name="two" unicode="2"/>
<glyph d="M56 145q-2 10 8 13l110 21q9 1 12 -8q9 -27 31 -45.5t58 -18.5q39 0 61.5 25t22.5 63q0 46 -25.5 71t-69.5 25h-29q-10 0 -10 10v97q0 10 10 10h27q38 0 61 23t23 62q0 36 -20.5 58t-56.5 22q-32 0 -50.5 -17t-26.5 -46q-3 -9 -12 -7l-109 21q-10 2 -8 11q6 34 23 62.5 t44.5 49.5t64 32.5t81.5 11.5q50 0 89 -14t66 -39t41 -59.5t14 -75.5q0 -44 -19.5 -80t-56.5 -60v-2q15 -8 31 -22t29 -34.5t21 -47.5t8 -61q0 -47 -16.5 -85t-46.5 -65t-70.5 -42t-88.5 -15q-87 0 -147 41t-74 115z" glyph-name="three" unicode="3"/>
<glyph d="M51 99q-10 0 -10 10v102q0 8 2 12l204 449q4 8 14 8h127q10 0 7 -10l-204 -447v-3h125q6 0 6 6v147q0 10 10 10h116q10 0 10 -10v-147q0 -6 6 -6h45q10 0 10 -10v-101q0 -10 -10 -10h-45q-6 0 -6 -6v-83q0 -10 -10 -10h-116q-10 0 -10 10v83q0 6 -6 6h-265v0z" glyph-name="four" unicode="4"/>
<glyph d="M71 139q-2 9 8 11l108 21q9 1 12 -8q9 -24 28 -40t51 -16q26 0 44.5 12t26.5 36q5 12 6.5 27.5t1.5 38.5q0 25 -1.5 40t-6.5 27q-8 26 -27 36.5t-44 10.5q-28 0 -44.5 -12t-24.5 -27q-4 -10 -13 -10h-107q-10 0 -10 10v374q0 10 10 10h380q10 0 10 -10v-99q0 -10 -10 -10 h-261q-6 0 -6 -6v-134h3q13 11 38.5 21.5t63.5 10.5q66 0 111 -29t64 -86q7 -21 10.5 -47t3.5 -69q0 -32 -4 -58.5t-11 -47.5q-20 -63 -74 -95t-127 -32q-44 0 -80 11t-63.5 30.5t-44.5 47.5t-21 61z" glyph-name="five" unicode="5"/>
<glyph d="M50 203q0 44 13 84t37 84l165 302q3 7 12 7h127q12 0 7 -10l-144 -263l2 -2q5 2 16.5 4t25.5 2q40 0 75.5 -14.5t62 -41t42 -64.5t15.5 -85q0 -51 -17.5 -91.5t-48 -68.5t-72.5 -42.5t-90 -14.5q-49 0 -90.5 14.5t-72 42t-48 67.5t-17.5 90zM188 201q0 -42 24 -68t66 -26 t66 26t24 68t-24 68.5t-66 26.5t-66 -26.5t-24 -68.5z" glyph-name="six" unicode="6"/>
<glyph d="M349 555v3h-143q-6 0 -6 -6v-71q0 -10 -10 -10h-111q-10 0 -10 10v189q0 10 10 10h407q10 0 10 -10v-104q0 -6 -2 -12l-216 -545q-4 -9 -14 -9h-125q-11 0 -6 11z" glyph-name="seven" unicode="7"/>
<glyph d="M48 196q0 57 24.5 97t56.5 62v2q-24 17 -45 52.5t-21 83.5q0 39 14 75t41.5 63.5t67.5 43.5t92 16t92 -16t67.5 -43.5t41.5 -63.5t14 -75q0 -48 -21 -83.5t-45 -52.5v-2q32 -22 56.5 -62t24.5 -97q0 -47 -17.5 -85t-48 -65t-73 -42t-91.5 -15q-50 0 -92 15t-72.5 42 t-48 65t-17.5 85zM278 414q35 0 56.5 23.5t21.5 55.5q0 33 -21.5 56.5t-56.5 23.5t-56.5 -23.5t-21.5 -56.5q0 -32 21.5 -55.5t56.5 -23.5zM186 202q0 -42 25 -68.5t67 -26.5t67 26.5t25 68.5t-25 68t-67 26t-67 -26t-25 -68z" glyph-name="eight" unicode="8"/>
<glyph d="M289 273l-2 2q-5 -2 -16.5 -4t-25.5 -2q-40 0 -75.5 14.5t-62 41t-42 64.5t-15.5 85q0 51 17.5 91.5t48 68.5t72.5 42.5t90 14.5q49 0 90.5 -14.5t72 -42t48 -67.5t17.5 -90q0 -44 -13 -84t-37 -84l-165 -302q-4 -7 -12 -7h-127q-12 0 -7 10zM278 384q42 0 66 26.5 t24 68.5t-24 68t-66 26t-66 -26t-24 -68t24 -68.5t66 -26.5z" glyph-name="nine" unicode="9"/>
<glyph d="M75 345q-10 0 -10 10v119q0 10 10 10h120q10 0 10 -10v-119q0 -10 -10 -10h-120zM65 130q0 10 10 10h120q10 0 10 -10v-120q0 -10 -10 -10h-120q-10 0 -10 10v120z" glyph-name="colon" horiz-adv-x="270" unicode=":"/>
<glyph d="M75 345q-10 0 -10 10v119q0 10 10 10h120q10 0 10 -10v-119q0 -10 -10 -10h-120zM69 130q0 10 10 10h113q10 0 10 -10v-121q0 -12 -8 -20l-100 -90q-8 -7 -15 -7q-10 0 -10 11v227z" glyph-name="semicolon" horiz-adv-x="270" unicode=";"/>
<glyph d="M61 220q-10 3 -10 14v84q0 11 10 14l434 170q10 3 10 -6v-109q0 -9 -10 -13l-265 -97v-2l265 -97q10 -4 10 -13v-109q0 -9 -10 -6l-434 170v0z" glyph-name="less" unicode="&lt;"/>
<glyph d="M61 322q-10 0 -10 10v98q0 10 10 10h434q10 0 10 -10v-98q0 -10 -10 -10h-434zM61 112q-10 0 -10 10v98q0 10 10 10h434q10 0 10 -10v-98q0 -10 -10 -10h-434z" glyph-name="equal" unicode="="/>
<glyph d="M51 165q0 9 10 13l265 97v2l-265 97q-10 4 -10 13v109q0 9 10 6l434 -170q10 -3 10 -14v-84q0 -11 -10 -14l-434 -170q-10 -3 -10 6v109z" glyph-name="greater" unicode="&gt;"/>
<glyph d="M170 199q-10 0 -10 10v42q0 29 7 47t22 37l70 91q21 25 29.5 43t8.5 37q0 29 -17.5 47.5t-48.5 18.5t-49.5 -18.5t-25.5 -51.5q-3 -10 -13 -9l-108 16q-10 1 -8 12q11 78 65.5 124t142.5 46q45 0 82 -14t63.5 -38t41 -57t14.5 -71t-13.5 -68.5t-39.5 -61.5l-67 -88 q-12 -14 -16 -26.5t-4 -33.5v-24q0 -10 -10 -10h-116zM158 124q0 10 10 10h120q10 0 10 -10v-114q0 -10 -10 -10h-120q-10 0 -10 10v114z" glyph-name="question" horiz-adv-x="473" unicode="?"/>
<glyph d="M43 265q0 90 30 164.5t84 128t129 82.5t166 29t166.5 -29.5t129.5 -82.5t83.5 -126.5t29.5 -162.5q0 -55 -14.5 -95.5t-39 -67t-56.5 -39.5t-68 -13q-48 0 -80 18t-49 47h-1q-16 -29 -47 -46.5t-87 -17.5q-113 0 -143 95q-8 22 -11 47.5t-3 68.5q0 42 3 68t11 47 q15 48 49.5 72t85.5 24q39 0 67 -15t41 -36h1v31q0 9 8 9h96q8 0 8 -9v-243q0 -33 15.5 -48t37.5 -15q28 0 46.5 26t18.5 91q0 68 -20.5 124.5t-59.5 96.5t-94 62t-124 22t-124 -22t-94 -62t-59.5 -97t-20.5 -126q0 -68 20.5 -124t59.5 -95.5t94 -61.5t124 -22 q66 0 114.5 12.5t92.5 34.5q10 5 14 -4l36 -65q5 -8 -4 -13q-54 -32 -115 -47.5t-138 -15.5q-91 0 -166 29.5t-129 82.5t-84 126.5t-30 162.5zM382 198q16 -46 66 -46q51 0 66 46q4 11 5 24.5t1 42.5t-1 42.5t-5 23.5q-15 47 -66 47q-49 0 -66 -47q-3 -10 -4.5 -23.5 t-1.5 -42.5t1.5 -42.5t4.5 -24.5z" glyph-name="at" horiz-adv-x="910" unicode="@"/>
<glyph d="M248 670q3 10 13 10h126q10 0 13 -10l230 -660q3 -10 -7 -10h-130q-10 0 -13 10l-39 119h-238l-38 -119q-3 -10 -13 -10h-131q-10 0 -7 10zM401 254l-77 238h-3l-77 -238h157z" glyph-name="A" horiz-adv-x="644" unicode="A"/>
<glyph d="M65 670q0 10 10 10h265q111 0 164 -50t53 -131q0 -56 -22.5 -91t-56.5 -54v-2q17 -6 33.5 -19.5t29 -33.5t20.5 -45.5t8 -55.5q0 -101 -62.5 -149.5t-173.5 -48.5h-258q-10 0 -10 10v660zM322 402q42 0 65.5 21t23.5 59t-23.5 58.5t-65.5 20.5h-104q-6 0 -6 -6v-147 q0 -6 6 -6h104zM212 125q0 -6 6 -6h112q45 0 68.5 22.5t23.5 62.5q0 39 -23.5 62t-68.5 23h-112q-6 0 -6 -6v-158z" glyph-name="B" horiz-adv-x="610" unicode="B"/>
<glyph d="M66 156q-6 16 -9.5 32.5t-5.5 37t-3 48t-1 66.5t1 66.5t3 48t5.5 36.5t9.5 33q27 84 89.5 125.5t152.5 41.5q87 0 147.5 -39.5t89.5 -111.5q5 -9 -5 -12l-109 -49q-9 -5 -14 5q-14 33 -39.5 55t-68.5 22q-40 0 -65.5 -20t-36.5 -55q-3 -9 -5 -19.5t-3.5 -26.5t-2 -40 t-0.5 -60t0.5 -60t2 -40t3.5 -26.5t5 -19.5q11 -35 36.5 -55t65.5 -20q43 0 68.5 22t39.5 55q5 10 14 5l109 -49q10 -3 5 -12q-29 -72 -89.5 -111.5t-147.5 -39.5q-90 0 -152.5 41.5t-89.5 125.5z" glyph-name="C" horiz-adv-x="575" unicode="C"/>
<glyph d="M65 670q0 10 10 10h253q90 0 150 -38t85 -115q4 -14 7.5 -29.5t6 -36.5t3.5 -50t1 -71t-1 -71t-3.5 -50t-6 -36.5t-7.5 -29.5q-25 -77 -85 -115t-150 -38h-253q-10 0 -10 10v660zM212 137q0 -6 6 -6h77q51 0 82 16.5t44 58.5q3 7 5 16.5t3.5 24.5t2 37.5t0.5 55.5 t-0.5 55t-2 37t-3.5 24.5t-5 17.5q-13 42 -44 58.5t-82 16.5h-77q-6 0 -6 -6v-406z" glyph-name="D" horiz-adv-x="630" unicode="D"/>
<glyph d="M65 670q0 10 10 10h436q10 0 10 -10v-107q0 -10 -10 -10h-293q-6 0 -6 -6v-135q0 -6 6 -6h244q10 0 10 -10v-106q0 -10 -10 -10h-244q-6 0 -6 -6v-141q0 -6 6 -6h293q10 0 10 -10v-107q0 -10 -10 -10h-436q-10 0 -10 10v660z" glyph-name="E" horiz-adv-x="565" unicode="E"/>
<glyph d="M65 670q0 10 10 10h436q10 0 10 -10v-107q0 -10 -10 -10h-293q-6 0 -6 -6v-143q0 -6 6 -6h244q10 0 10 -10v-106q0 -10 -10 -10h-244q-6 0 -6 -6v-256q0 -10 -10 -10h-127q-10 0 -10 10v660z" glyph-name="F" horiz-adv-x="557" unicode="F"/>
<glyph d="M66 154q-6 18 -9.5 35t-5.5 38t-3 48t-1 65t1 65t3 48t5.5 38t9.5 35q26 83 92.5 124t157.5 41q48 0 87 -11t69.5 -30.5t52 -46t33.5 -57.5q5 -10 -4 -15l-107 -45q-11 -3 -14 5q-20 35 -47.5 52.5t-69.5 17.5q-44 0 -71 -20.5t-38 -55.5q-3 -9 -5 -20.5t-3.5 -28t-2 -40 t-0.5 -56.5t0.5 -57t2 -40.5t3.5 -28t5 -20.5q11 -35 38.5 -55t72.5 -20q38 0 68 18t41 52q4 13 6 29t2 38q0 6 -6 6h-92q-10 0 -10 10v96q0 10 10 10h234q10 0 10 -10v-56q0 -45 -4 -85t-13 -68q-26 -82 -91.5 -126t-156.5 -44t-157.5 41t-92.5 124z" glyph-name="G" horiz-adv-x="628" unicode="G"/>
<glyph d="M65 670q0 10 10 10h127q10 0 10 -10v-255q0 -6 6 -6h222q6 0 6 6v255q0 10 10 10h127q10 0 10 -10v-660q0 -10 -10 -10h-127q-10 0 -10 10v262q0 6 -6 6h-222q-6 0 -6 -6v-262q0 -10 -10 -10h-127q-10 0 -10 10v660z" glyph-name="H" horiz-adv-x="658" unicode="H"/>
<glyph d="M65 670q0 10 10 10h127q10 0 10 -10v-660q0 -10 -10 -10h-127q-10 0 -10 10v660z" glyph-name="I" horiz-adv-x="277" unicode="I"/>
<glyph d="M21 76q-5 8 1 14l93 71q7 5 14 -2q13 -15 34.5 -27.5t48.5 -12.5q48 0 74 30t26 88v433q0 10 10 10h127q10 0 10 -10v-426q0 -126 -65.5 -190.5t-182.5 -64.5q-63 0 -114.5 24.5t-75.5 62.5z" glyph-name="J" horiz-adv-x="521" unicode="J"/>
<glyph d="M65 670q0 10 10 10h127q10 0 10 -10v-294l226 295q6 9 17 9h145q5 0 6.5 -4t-2.5 -9l-206 -258l225 -397q7 -12 -6 -12h-147q-10 0 -15 9l-154 286l-89 -112v-173q0 -10 -10 -10h-127q-10 0 -10 10v660z" glyph-name="K" horiz-adv-x="645" unicode="K"/>
<glyph d="M65 670q0 10 10 10h127q10 0 10 -10v-533q0 -6 6 -6h300q10 0 10 -10v-111q0 -10 -10 -10h-443q-10 0 -10 10v660z" glyph-name="L" horiz-adv-x="550" unicode="L"/>
<glyph d="M65 670q0 10 10 10h119q12 0 16 -10l172 -388h4l169 388q4 10 16 10h117q10 0 10 -10v-660q0 -10 -10 -10h-113q-10 0 -10 10v383h-4l-126 -287q-6 -13 -19 -13h-69q-13 0 -19 13l-126 287h-4v-383q0 -10 -10 -10h-113q-10 0 -10 10v660z" glyph-name="M" horiz-adv-x="763" unicode="M"/>
<glyph d="M65 670q0 10 10 10h120q11 0 17 -10l240 -428h5v428q0 10 10 10h113q10 0 10 -10v-660q0 -10 -10 -10h-119q-11 0 -17 10l-241 427h-5v-427q0 -10 -10 -10h-113q-10 0 -10 10v660z" glyph-name="N" horiz-adv-x="655" unicode="N"/>
<glyph d="M314 -11q-89 0 -155.5 41t-92.5 124q-6 18 -9.5 35t-5.5 38t-3 48t-1 65t1 65t3 48t5.5 38t9.5 35q26 82 92.5 123.5t155.5 41.5t155.5 -41.5t92.5 -123.5q6 -18 9.5 -35t5.5 -38t3 -48t1 -65t-1 -65t-3 -48t-5.5 -38t-9.5 -35q-26 -83 -92.5 -124t-155.5 -41zM314 119 q42 0 69 20t38 55q3 9 5 20.5t3.5 28t2 40.5t0.5 57t-0.5 57t-2 40.5t-3.5 28t-5 20.5q-11 35 -38 55t-69 20t-69 -20t-38 -55q-3 -9 -5 -20.5t-3.5 -28t-2 -40.5t-0.5 -57t0.5 -57t2 -40.5t3.5 -28t5 -20.5q11 -35 38 -55t69 -20z" glyph-name="O" horiz-adv-x="628" unicode="O"/>
<glyph d="M75 0q-10 0 -10 10v660q0 10 10 10h264q55 0 99 -16t75 -45t47 -69t16 -89q0 -48 -16.5 -88t-47 -69t-74.5 -45t-99 -16h-121q-6 0 -6 -6v-227q0 -10 -10 -10h-127zM330 370q47 0 73 24.5t26 66.5t-26 67t-73 25h-112q-6 0 -6 -6v-171q0 -6 6 -6h112z" glyph-name="P" horiz-adv-x="605" unicode="P"/>
<glyph d="M536 -49q-3 -3 -7 -3.5t-8 3.5l-69 69q-62 -31 -138 -31q-89 0 -155.5 41t-92.5 124q-6 18 -9.5 35t-5.5 38t-3 48t-1 65t1 65t3 48t5.5 38t9.5 35q26 82 92.5 123.5t155.5 41.5q90 0 155.5 -41t92.5 -124q6 -18 9.5 -35t5.5 -38t3 -48t1 -65t-1 -65t-3 -48t-5.5 -38 t-9.5 -35q-4 -11 -8 -21t-9 -20l71 -70q7 -7 0 -14zM314 118q21 0 36 4l-43 43q-7 7 0 14l80 76q8 7 15 0l27 -27q2 17 3 43.5t1 68.5q0 33 -0.5 57t-2 41t-3.5 28.5t-5 20.5q-11 35 -38.5 55t-69.5 20t-69.5 -20t-38.5 -55q-3 -9 -5 -20.5t-3.5 -28.5t-2 -41t-0.5 -57 t0.5 -57t2 -41t3.5 -28.5t5 -20.5q11 -35 38.5 -55t69.5 -20z" glyph-name="Q" horiz-adv-x="628" unicode="Q"/>
<glyph d="M441 0q-11 0 -15 10l-117 249h-91q-6 0 -6 -6v-243q0 -10 -10 -10h-127q-10 0 -10 10v660q0 10 10 10h271q52 0 94.5 -15.5t73 -43.5t47 -67t16.5 -85q0 -66 -32 -115t-89 -74l134 -268q2 -5 0 -8.5t-7 -3.5h-142zM338 384q42 0 67 23t25 62q0 38 -25 61t-67 23h-120 q-6 0 -6 -6v-157q0 -6 6 -6h120z" glyph-name="R" horiz-adv-x="624" unicode="R"/>
<glyph d="M294 -11q-40 0 -78.5 7.5t-72.5 20t-62.5 29.5t-48.5 36q-8 8 -1 17l76 87q6 8 15 1q34 -27 79 -48.5t99 -21.5t82.5 22.5t28.5 58.5q0 30 -22 49t-83 27l-36 5q-104 14 -159.5 63.5t-55.5 140.5q0 47 17 85.5t48.5 65.5t76 42t99.5 15q68 0 128 -19t103 -52q9 -6 2 -15 l-61 -91q-6 -8 -14 -3q-39 26 -77.5 39t-80.5 13q-45 0 -68 -21t-23 -53q0 -29 23.5 -48t82.5 -27l36 -5q106 -14 160 -63.5t54 -142.5q0 -46 -17 -85.5t-50.5 -68t-83.5 -44.5t-116 -16z" glyph-name="S" horiz-adv-x="595" unicode="S"/>
<glyph d="M215 0q-10 0 -10 10v533q0 6 -6 6h-172q-10 0 -10 10v111q0 10 10 10h503q10 0 10 -10v-111q0 -10 -10 -10h-172q-6 0 -6 -6v-533q0 -10 -10 -10h-127z" glyph-name="T" horiz-adv-x="557" unicode="T"/>
<glyph d="M323 -11q-57 0 -105 17t-82.5 50t-54 82t-19.5 112v420q0 10 10 10h127q10 0 10 -10v-424q0 -61 31 -94t83 -33q51 0 82 33t31 94v424q0 10 10 10h127q10 0 10 -10v-420q0 -63 -19.5 -112t-54 -82t-82 -50t-104.5 -17z" glyph-name="U" horiz-adv-x="645" unicode="U"/>
<glyph d="M240 0q-10 0 -13 10l-216 659q-3 11 9 11h130q10 0 13 -10l136 -446h3l132 446q3 10 13 10h129q11 0 8 -11l-216 -659q-3 -10 -12 -10h-116z" glyph-name="V" horiz-adv-x="595" unicode="V"/>
<glyph d="M565 0q-10 0 -13 10l-118 423h-2l-119 -423q-3 -10 -13 -10h-100q-9 0 -12 10l-176 660q-2 10 8 10h129q10 0 12 -10l98 -427h2l116 427q3 10 13 10h87q9 0 12 -10l120 -427h2l94 427q1 10 12 10h128q10 0 8 -10l-175 -660q-2 -10 -13 -10h-100z" glyph-name="W" horiz-adv-x="865" unicode="W"/>
<glyph d="M437 0q-11 0 -17 10l-121 207h-3l-122 -207q-6 -10 -17 -10h-138q-5 0 -7 3.5t1 8.5l203 339l-189 317q-2 5 -0.5 8.5t6.5 3.5h139q10 0 16 -10l108 -184h3l108 184q6 10 16 10h139q5 0 6.5 -3.5t-0.5 -8.5l-190 -317l204 -339q2 -5 0.5 -8.5t-6.5 -3.5h-139z" glyph-name="X" horiz-adv-x="595" unicode="X"/>
<glyph d="M220 0q-10 0 -10 10v261l-201 399q-4 10 7 10h130q11 0 15 -10l123 -248h3l123 248q4 10 15 10h126q5 0 7 -3t0 -7l-201 -399v-261q0 -10 -10 -10h-127z" glyph-name="Y" horiz-adv-x="568" unicode="Y"/>
<glyph d="M50 0q-10 0 -10 10v110q0 5 3 10l293 417v2h-275q-10 0 -10 10v111q0 10 10 10h435q10 0 10 -10v-110q0 -6 -3 -10l-294 -417v-2h287q10 0 10 -10v-111q0 -10 -10 -10h-446z" glyph-name="Z" horiz-adv-x="546" unicode="Z"/>
<glyph d="M74 -84q-10 0 -10 10v804q0 10 10 10h190q10 0 10 -10v-84q0 -10 -10 -10h-70q-6 0 -6 -6v-604q0 -6 6 -6h70q10 0 10 -10v-84q0 -10 -10 -10h-190z" glyph-name="bracketleft" horiz-adv-x="302" unicode="["/>
<glyph d="M275 -11q-10 0 -13 10l-217 682q-3 10 7 10h108q10 0 13 -10l218 -682q3 -10 -7 -10h-109z" glyph-name="backslash" horiz-adv-x="436" unicode="\"/>
<glyph d="M38 -84q-10 0 -10 10v84q0 10 10 10h70q6 0 6 6v604q0 6 -6 6h-70q-10 0 -10 10v84q0 10 10 10h190q10 0 10 -10v-804q0 -10 -10 -10h-190z" glyph-name="bracketright" horiz-adv-x="302" unicode="]"/>
<glyph d="M390 253q-10 0 -14 10l-97 248h-2l-98 -248q-3 -10 -13 -10h-109q-10 0 -7 10l171 407q5 10 14 10h86q9 0 14 -10l171 -407q3 -10 -7 -10h-109z" glyph-name="asciicircum" unicode="^"/>
<glyph d="M0 -152v88h520v-88h-520z" glyph-name="underscore" horiz-adv-x="520" unicode="_"/>
<glyph d="M236 551q-12 0 -19 10l-99 130q-3 4 -1.5 7t6.5 3h116q12 0 18 -10l76 -130q5 -10 -5 -10h-92z" glyph-name="grave" horiz-adv-x="454" unicode="`"/>
<glyph d="M347 0q-10 0 -10 10v32h-1q-19 -24 -51 -38.5t-82 -14.5q-32 0 -61.5 8.5t-51.5 26.5t-35 46t-13 67q0 80 55.5 118t145.5 38h86q6 0 6 6v18q0 34 -20.5 50t-78.5 16q-37 0 -64 -9t-44 -22q-8 -6 -13 2l-45 79q-5 9 3 14q31 22 75.5 35t104.5 13q59 0 100 -10.5t66.5 -32 t37 -54.5t11.5 -78v-310q0 -10 -10 -10h-111zM245 94q90 0 90 67v33q0 6 -6 6h-68q-86 0 -86 -55q0 -51 70 -51z" glyph-name="a" horiz-adv-x="528" unicode="a"/>
<glyph d="M331 -11q-48 0 -79 15.5t-48 40.5h-1v-35q0 -10 -10 -10h-120q-10 0 -10 10v660q0 10 10 10h120q10 0 10 -10v-231h1q17 25 48 40.5t79 15.5q61 0 103 -29t61 -87q9 -29 13 -59t4 -78q0 -47 -4 -77.5t-13 -59.5q-19 -57 -61 -86.5t-103 -29.5zM286 107q58 0 75 52 q5 14 7 32.5t2 50.5t-2 50.5t-7 32.5q-16 52 -75 52q-58 0 -74 -52q-5 -14 -7 -32.5t-2 -50.5t2 -50.5t7 -32.5q17 -52 74 -52z" glyph-name="b" horiz-adv-x="551" unicode="b"/>
<glyph d="M263 -11q-77 0 -132 34.5t-77 102.5q-8 22 -11.5 50t-3.5 66t3.5 66t11.5 50q22 68 77 102.5t132 34.5q63 0 110 -25.5t73 -65.5q5 -8 -2 -14l-87 -57q-9 -6 -15 2q-16 22 -33.5 32t-43.5 10q-28 0 -47.5 -13t-27.5 -39q-5 -15 -7 -34t-2 -49t2 -49t7 -34q8 -26 27.5 -39 t47.5 -13q26 0 43.5 10t33.5 32q6 8 15 2l87 -57q7 -6 2 -14q-26 -40 -73 -65.5t-110 -25.5z" glyph-name="c" horiz-adv-x="481" unicode="c"/>
<glyph d="M358 0q-10 0 -10 10v35h-1q-17 -25 -48 -40.5t-79 -15.5q-61 0 -103 29.5t-61 86.5q-9 29 -13 59.5t-4 77.5q0 48 4 78t13 59q19 58 61 87t103 29q48 0 79 -15.5t48 -40.5h1v231q0 10 10 10h120q10 0 10 -10v-660q0 -10 -10 -10h-120zM265 107q57 0 74 52q5 14 7 32.5 t2 50.5t-2 50.5t-7 32.5q-16 52 -74 52q-59 0 -75 -52q-5 -14 -7 -32.5t-2 -50.5t2 -50.5t7 -32.5q17 -52 75 -52z" glyph-name="d" horiz-adv-x="551" unicode="d"/>
<glyph d="M270 -11q-83 0 -138 36t-76 102q-8 23 -12.5 50t-4.5 65t4 65.5t12 50.5q21 66 75.5 101.5t132.5 35.5q81 0 134.5 -36t74.5 -100q4 -12 7 -25.5t5 -30.5t3 -39.5t1 -53.5q0 -10 -11 -10h-293q-6 0 -6 -6q1 -15 6 -27q10 -32 36 -48t64 -16q36 0 63 11.5t48 31.5 q9 7 14 0l66 -62q8 -7 1 -14q-35 -37 -87 -59t-119 -22zM344 293q6 0 6 6q0 11 -1.5 19.5t-3.5 16.5q-8 25 -29.5 39t-51.5 14t-51.5 -14t-29.5 -39q-2 -8 -3.5 -16.5t-1.5 -19.5q0 -6 6 -6h160z" glyph-name="e" horiz-adv-x="527" unicode="e"/>
<glyph d="M91 0q-10 0 -10 10v365q0 6 -6 6h-30q-10 0 -10 10v83q0 10 10 10h30q6 0 6 6v23q0 89 41.5 128t128.5 39h55q10 0 10 -10v-94q0 -10 -10 -10h-31q-33 0 -44 -10.5t-11 -41.5v-24q0 -6 6 -6h79q10 0 10 -10v-83q0 -10 -10 -10h-79q-6 0 -6 -6v-365q0 -10 -10 -10h-119z " glyph-name="f" horiz-adv-x="339" unicode="f"/>
<glyph d="M239 -191q-27 0 -54 5.5t-51.5 15t-44.5 23t-33 29.5q-6 8 1 15l71 72q7 7 15 0q23 -20 47 -31t53 -11q51 0 74 26.5t23 80.5v41h-1q-16 -26 -47 -41t-77 -15q-60 0 -101.5 29.5t-60.5 87.5q-8 27 -12 54.5t-4 66.5t4 67t12 54q19 58 60.5 87.5t101.5 29.5q46 0 77 -15 t47 -41h1v35q0 10 10 10h120q10 0 10 -10v-422q0 -243 -241 -243zM259 137q29 0 46.5 13t25.5 39q5 14 7 29.5t2 38.5t-2 38.5t-7 29.5q-8 26 -25.5 39t-46.5 13t-46 -13t-26 -39q-4 -14 -6 -29.5t-2 -38.5t2 -38.5t6 -29.5q9 -26 26 -39t46 -13z" glyph-name="g" horiz-adv-x="543" unicode="g"/>
<glyph d="M364 0q-10 0 -10 10v278q0 40 -18.5 64t-56.5 24q-36 0 -56 -24t-20 -64v-278q0 -10 -10 -10h-120q-10 0 -10 10v660q0 10 10 10h120q10 0 10 -10v-230h1q17 23 47.5 39t77.5 16q40 0 71 -13t52 -37t31.5 -57t10.5 -73v-305q0 -10 -10 -10h-120z" glyph-name="h" horiz-adv-x="553" unicode="h"/>
<glyph d="M73 561q-10 0 -10 10v99q0 10 10 10h120q10 0 10 -10v-99q0 -10 -10 -10h-120zM73 0q-10 0 -10 10v464q0 10 10 10h120q10 0 10 -10v-464q0 -10 -10 -10h-120z" glyph-name="i" horiz-adv-x="266" unicode="i"/>
<glyph d="M73 561q-10 0 -10 10v99q0 10 10 10h120q10 0 10 -10v-99q0 -10 -10 -10h-120zM-11 -180q-10 0 -10 10v98q0 10 10 10h20q29 0 41.5 11.5t12.5 44.5v480q0 10 10 10h120q10 0 10 -10v-479q0 -93 -46.5 -134t-134.5 -41h-33z" glyph-name="j" horiz-adv-x="266" unicode="j"/>
<glyph d="M376 0q-9 0 -15 10l-108 195l-50 -62v-133q0 -10 -10 -10h-120q-10 0 -10 10v660q0 10 10 10h120q10 0 10 -10v-367l139 171q9 10 19 10h128q5 0 6 -3.5t-2 -6.5l-148 -171l169 -293q2 -3 1 -6.5t-6 -3.5h-133z" glyph-name="k" horiz-adv-x="531" unicode="k"/>
<glyph d="M211 -6q-81 0 -115.5 36.5t-34.5 117.5v522q0 10 10 10h120q10 0 10 -10v-511q0 -25 10 -35.5t32 -10.5h21q10 0 10 -10v-99q0 -10 -10 -10h-53z" glyph-name="l" horiz-adv-x="304" unicode="l"/>
<glyph d="M655 0q-10 0 -10 10v278q0 40 -19 64t-57 24q-36 0 -55.5 -24t-19.5 -64v-278q0 -10 -10 -10h-120q-10 0 -10 10v278q0 40 -18.5 64t-56.5 24q-36 0 -56 -24t-20 -64v-278q0 -10 -10 -10h-120q-10 0 -10 10v464q0 10 10 10h120q10 0 10 -10v-34h1q17 23 47.5 39t77.5 16 q87 0 130 -61h1q27 29 64 45t88 16q85 0 129 -50t44 -130v-305q0 -10 -10 -10h-120z" glyph-name="m" horiz-adv-x="844" unicode="m"/>
<glyph d="M364 0q-10 0 -10 10v278q0 40 -18.5 64t-56.5 24q-36 0 -56 -24t-20 -64v-278q0 -10 -10 -10h-120q-10 0 -10 10v464q0 10 10 10h120q10 0 10 -10v-34h1q17 23 47.5 39t77.5 16q40 0 71 -13t52 -37t31.5 -57t10.5 -73v-305q0 -10 -10 -10h-120z" glyph-name="n" horiz-adv-x="553" unicode="n"/>
<glyph d="M265 -11q-77 0 -133 35t-77 101q-8 26 -12 53.5t-4 63.5t4 63.5t12 53.5q21 66 77 101t133 35t133 -35t77 -101q8 -26 12 -53.5t4 -63.5t-4 -63.5t-12 -53.5q-21 -66 -77 -101t-133 -35zM265 107q58 0 75 52q5 17 7 34.5t2 48.5t-2 48.5t-7 34.5q-17 52 -75 52t-75 -52 q-5 -17 -7 -34.5t-2 -48.5t2 -48.5t7 -34.5q17 -52 75 -52z" glyph-name="o" horiz-adv-x="530" unicode="o"/>
<glyph d="M73 -180q-10 0 -10 10v644q0 10 10 10h120q10 0 10 -10v-35h1q17 25 48 40.5t79 15.5q61 0 103 -29t61 -87q9 -29 13 -59t4 -78q0 -47 -4 -77.5t-13 -59.5q-19 -57 -61 -86.5t-103 -29.5q-48 0 -79 15.5t-48 40.5h-1v-215q0 -10 -10 -10h-120zM286 107q58 0 75 52 q5 14 7 32.5t2 50.5t-2 50.5t-7 32.5q-16 52 -75 52q-58 0 -74 -52q-5 -14 -7 -32.5t-2 -50.5t2 -50.5t7 -32.5q17 -52 74 -52z" glyph-name="p" horiz-adv-x="551" unicode="p"/>
<glyph d="M358 -180q-10 0 -10 10v215h-1q-17 -25 -48 -40.5t-79 -15.5q-61 0 -103 29.5t-61 86.5q-9 29 -13 59.5t-4 77.5q0 48 4 78t13 59q19 58 61 87t103 29q48 0 79 -15.5t48 -40.5h1v35q0 10 10 10h120q10 0 10 -10v-644q0 -10 -10 -10h-120zM265 107q57 0 74 52q5 14 7 32.5 t2 50.5t-2 50.5t-7 32.5q-16 52 -74 52q-59 0 -75 -52q-5 -14 -7 -32.5t-2 -50.5t2 -50.5t7 -32.5q17 -52 75 -52z" glyph-name="q" horiz-adv-x="551" unicode="q"/>
<glyph d="M73 0q-10 0 -10 10v464q0 10 10 10h120q10 0 10 -10v-41h1q17 29 49 45.5t77 16.5q24 0 46.5 -7.5t38.5 -21.5q7 -6 3 -14l-56 -102q-5 -6 -14 -2q-36 23 -70 22q-39 -2 -57 -29t-18 -76v-255q0 -10 -10 -10h-120z" glyph-name="r" horiz-adv-x="426" unicode="r"/>
<glyph d="M253 -11q-76 0 -130.5 22.5t-89.5 52.5q-7 7 0 14l65 73q6 6 14 0q32 -25 71 -39t77 -14t56.5 13t18.5 33q0 17 -13.5 27.5t-55.5 14.5l-54 6q-77 8 -117.5 45t-40.5 103q0 72 52 113.5t147 41.5q62 0 112 -17t84 -43q7 -7 1 -15l-56 -69q-6 -7 -14 -2q-25 16 -59 27.5 t-72 11.5q-31 0 -46 -11t-15 -29q0 -17 13 -26.5t54 -13.5l53 -6q86 -8 123.5 -47t37.5 -100q-1 -75 -56.5 -120.5t-159.5 -45.5z" glyph-name="s" horiz-adv-x="505" unicode="s"/>
<glyph d="M227 -6q-84 0 -119 39t-35 122v220q0 6 -6 6h-30q-10 0 -10 10v83q0 10 10 10h30q6 0 6 6v130q0 10 10 10h119q10 0 10 -10v-130q0 -6 6 -6h62q10 0 10 -10v-83q0 -10 -10 -10h-62q-6 0 -6 -6v-214q0 -27 10 -37.5t34 -10.5h24q10 0 10 -10v-99q0 -10 -10 -10h-53z" glyph-name="t" horiz-adv-x="331" unicode="t"/>
<glyph d="M356 0q-10 0 -10 10v35h-1q-19 -25 -48.5 -40.5t-75.5 -15.5q-40 0 -70.5 13.5t-51 37.5t-31 57t-10.5 72v305q0 10 10 10h120q10 0 10 -10v-278q0 -39 18.5 -63.5t55.5 -24.5q36 0 55 24t19 64v278q0 10 10 10h120q10 0 10 -10v-464q0 -10 -10 -10h-120z" glyph-name="u" horiz-adv-x="549" unicode="u"/>
<glyph d="M199 0q-9 0 -12 10l-172 464q-3 10 8 10h126q10 0 13 -10l94 -287h2l90 287q3 10 13 10h124q11 0 8 -10l-172 -464q-3 -10 -12 -10h-110z" glyph-name="v" horiz-adv-x="508" unicode="v"/>
<glyph d="M478 0q-9 0 -12 10l-83 281h-2l-85 -281q-3 -10 -12 -10h-99q-9 0 -12 10l-155 464q-3 10 7 10h123q11 0 14 -10l80 -288h2l83 288q3 10 14 10h84q10 0 13 -10l85 -288h2l76 288q3 10 13 10h123q11 0 8 -10l-155 -464q-3 -10 -12 -10h-100z" glyph-name="w" horiz-adv-x="763" unicode="w"/>
<glyph d="M359 0q-9 0 -15 9l-87 132h-1l-86 -132q-8 -9 -16 -9h-129q-6 0 -7.5 3t0.5 7l163 241l-151 223q-2 4 -0.5 7t7.5 3h130q11 0 17 -9l73 -114h1l74 114q7 9 16 9h129q7 0 8.5 -3t-0.5 -7l-151 -223l163 -241q2 -4 0.5 -7t-8.5 -3h-130z" glyph-name="x" horiz-adv-x="515" unicode="x"/>
<glyph d="M93 -180q-10 0 -10 10v98q0 10 10 10h21q26 0 41.5 11.5t24.5 38.5l13 36l-180 450q-3 10 8 10h128q9 0 12 -10l97 -280h2l90 280q3 10 12 10h124q11 0 8 -10l-196 -515q-15 -40 -31.5 -67t-36.5 -43t-45 -22.5t-58 -6.5h-34z" glyph-name="y" horiz-adv-x="507" unicode="y"/>
<glyph d="M56 0q-10 0 -10 10v90q0 5 3 10l230 257v2h-210q-10 0 -10 10v95q0 10 10 10h365q10 0 10 -10v-95q0 -6 -3 -10l-228 -252v-2h221q10 0 10 -10v-95q0 -10 -10 -10h-378z" glyph-name="z" horiz-adv-x="490" unicode="z"/>
<glyph d="M252 -84q-62 0 -94 31.5t-32 91.5v153q0 42 -16.5 61.5t-52.5 19.5q-10 0 -10 10v94q0 10 10 10q36 0 52.5 19.5t16.5 61.5v149q0 60 32 91.5t94 31.5h67q10 0 10 -10v-84q0 -10 -10 -10h-28q-42 0 -42 -43v-137q0 -57 -16.5 -84t-55.5 -41v-2q39 -14 55.5 -41.5 t16.5 -84.5v-140q0 -43 42 -43h28q10 0 10 -10v-84q0 -10 -10 -10h-67z" glyph-name="braceleft" horiz-adv-x="357" unicode="{"/>
<glyph d="M118 -84q-10 0 -10 10v804q0 10 10 10h99q10 0 10 -10v-804q0 -10 -10 -10h-99z" glyph-name="bar" horiz-adv-x="335" unicode="|"/>
<glyph d="M38 -84q-10 0 -10 10v84q0 10 10 10h28q42 0 42 43v140q0 57 16.5 84.5t55.5 41.5v2q-39 14 -55.5 41t-16.5 84v137q0 43 -42 43h-28q-10 0 -10 10v84q0 10 10 10h67q62 0 94 -31.5t32 -91.5v-149q0 -42 16.5 -61.5t52.5 -19.5q10 0 10 -10v-94q0 -10 -10 -10 q-36 0 -52.5 -19.5t-16.5 -61.5v-153q0 -60 -32 -91.5t-94 -31.5h-67z" glyph-name="braceright" horiz-adv-x="357" unicode="}"/>
<glyph d="M510 296q-21 -47 -58.5 -76t-85.5 -29q-32 0 -55.5 9t-49.5 26q-19 12 -33.5 18.5t-31.5 6.5q-21 0 -36 -11.5t-29 -37.5q-5 -9 -15 -2l-67 41q-7 5 -3 14q21 47 58.5 76t85.5 29q32 0 55.5 -9t49.5 -26q19 -12 33.5 -18.5t31.5 -6.5q21 0 36 11.5t29 37.5q5 9 15 2 l67 -41q7 -4 3 -14z" glyph-name="asciitilde" unicode="~"/>
<glyph d="M197 285q10 0 10 -10l24 -461q0 -10 -10 -10h-130q-10 0 -10 10l24 461q0 10 10 10h82zM226 360q0 -10 -10 -10h-120q-10 0 -10 10v114q0 10 10 10h120q10 0 10 -10v-114z" glyph-name="exclamdown" horiz-adv-x="312" unicode="¡"/>
<glyph d="M329 494q54 -6 94 -30.5t63 -59.5q5 -9 -2 -14l-87 -57q-9 -7 -15 2q-11 16 -23.5 25.5t-29.5 13.5v-264q17 4 29.5 13.5t23.5 26.5q6 8 15 1l87 -57q5 -2 4.5 -6t-2.5 -7q-23 -36 -62.5 -60.5t-94.5 -29.5v-79q0 -10 -10 -10h-45q-10 0 -10 10v79q-67 7 -113 41t-65 94 q-8 22 -11.5 50t-3.5 66t3.5 66t11.5 50q20 60 65.5 94t112.5 42v78q0 10 10 10h45q10 0 10 -10v-78zM213 242q0 -29 2 -48.5t7 -33.5q11 -37 42 -47v258q-32 -12 -42 -46q-5 -15 -7 -34t-2 -49z" glyph-name="cent" unicode="¢"/>
<glyph d="M92 0q-10 0 -10 10v97q0 7 5 12q8 7 14 14.5t10.5 17t7 22.5t2.5 32v58q0 6 -6 6h-41q-10 0 -10 10v79q0 10 10 10h41q6 0 6 6v122q0 94 51 144.5t139 50.5q76 0 122.5 -38.5t57.5 -98.5q2 -9 -9 -11l-109 -24q-10 0 -11 9q-4 19 -16 32t-34 13q-25 0 -37.5 -16.5 t-12.5 -44.5v-138q0 -6 6 -6h121q10 0 10 -10v-79q0 -10 -10 -10h-121q-6 0 -6 -6v-43q0 -35 -6.5 -59t-19.5 -40v-2h245q10 0 10 -10v-99q0 -10 -10 -10h-389z" glyph-name="sterling" unicode="£"/>
<glyph d="M451 65q-7 -7 -14 0l-60 60q-45 -25 -99 -25q-55 0 -100 25l-59 -59q-7 -7 -14 0l-68 69q-7 7 0 14l59 59q-23 43 -23 97q0 26 6.5 50.5t17.5 46.5l-60 60q-6 6 0 14l68 69q7 7 14 0l59 -60q47 25 100 25q54 0 99 -25l60 60q7 7 14 0l68 -69q7 -7 0 -14l-60 -60 q25 -45 25 -97q0 -27 -6.5 -51.5t-17.5 -45.5l60 -60q7 -7 0 -14zM278 203q43 0 71 29t28 73t-28 73t-71 29t-70.5 -29t-27.5 -73t27.5 -73t70.5 -29z" glyph-name="currency" unicode="¤"/>
<glyph d="M218 0q-10 0 -10 10v115q0 6 -6 6h-116q-10 0 -10 10v62q0 10 10 10h116q6 0 6 6v34q0 6 -6 6h-116q-10 0 -10 10v62q0 10 10 10h92v2l-148 327q-4 10 7 10h128q9 0 14 -10l100 -258h3l98 258q3 10 14 10h125q11 0 7 -10l-148 -327v-2h92q10 0 10 -10v-62q0 -10 -10 -10 h-116q-6 0 -6 -6v-34q0 -6 6 -6h116q10 0 10 -10v-62q0 -10 -10 -10h-116q-6 0 -6 -6v-115q0 -10 -10 -10h-120z" glyph-name="yen" unicode="¥"/>
<glyph d="M118 388q-10 0 -10 10v332q0 10 10 10h99q10 0 10 -10v-332q0 -10 -10 -10h-99zM118 -84q-10 0 -10 10v336q0 10 10 10h99q10 0 10 -10v-336q0 -10 -10 -10h-99z" glyph-name="brokenbar" horiz-adv-x="335" unicode="¦"/>
<glyph d="M276 -191q-45 0 -79 11t-57 30.5t-36 45.5t-16 55q-2 9 6 11l104 18q8 2 10 -7q3 -25 18 -41.5t47 -16.5t48.5 15.5t16.5 41.5q0 32 -23 52t-86 36q-156 40 -156 191q0 52 24 91.5t64 61.5v1q-35 23 -49.5 53t-14.5 72q0 33 13 62t37.5 51t58.5 35t76 13q45 0 79 -12 t57 -32.5t35 -46.5t14 -53q1 -9 -7 -10l-102 -18q-10 -2 -10 8q-4 25 -19 41.5t-44 16.5t-45 -15t-16 -41q0 -32 23.5 -51t81.5 -34q156 -42 156 -191q0 -53 -26 -93.5t-62 -59.5v-1q37 -23 52 -53.5t15 -78.5q0 -33 -13 -62t-37.5 -50t-59.5 -33.5t-78 -12.5zM279 168 q36 0 57.5 22t21.5 62t-21.5 62t-57.5 22t-57.5 -22t-21.5 -62t21.5 -62t57.5 -22z" glyph-name="section" horiz-adv-x="558" unicode="§"/>
<glyph d="M281 561q-10 0 -10 10v99q0 10 10 10h93q10 0 10 -10v-99q0 -10 -10 -10h-93zM81 561q-10 0 -10 10v99q0 10 10 10h92q10 0 10 -10v-99q0 -10 -10 -10h-92z" glyph-name="dieresis" horiz-adv-x="454" unicode="¨"/>
<glyph d="M405 -11q-75 0 -139 26.5t-111 74t-74 111.5t-27 139t27 139t74 111t111 74t139 27t139.5 -27t111.5 -74t74 -111t27 -139t-27 -139t-74 -111.5t-111.5 -74t-139.5 -26.5zM405 69q58 0 107 20.5t85 56.5t56 85.5t20 108.5q0 58 -20 108t-56 86t-85 56.5t-107 20.5 q-57 0 -106 -20.5t-85 -56.5t-56 -86t-20 -108q0 -59 20 -108.5t56 -85.5t85 -56.5t106 -20.5zM415 144q-62 0 -106 27.5t-62 82.5q-5 14 -7.5 33.5t-2.5 52.5t2.5 52.5t7.5 34.5q18 54 62 82t106 28q48 0 85.5 -19.5t57.5 -49.5q6 -8 -3 -14l-65 -42q-3 -3 -7 -2t-6 4 q-13 17 -26.5 24.5t-33.5 7.5q-23 0 -40 -11.5t-24 -33.5q-3 -8 -4.5 -20t-1.5 -41q0 -28 1.5 -40.5t4.5 -20.5q7 -21 24 -32.5t40 -11.5q20 0 33.5 7.5t26.5 23.5q5 9 13 3l65 -43q9 -5 3 -13q-20 -31 -57.5 -50t-85.5 -19z" glyph-name="copyright" horiz-adv-x="811" unicode="©"/>
<glyph d="M229 392q-10 0 -10 10v13h-1q-12 -13 -31.5 -20.5t-50.5 -7.5q-20 0 -38.5 5t-32.5 15.5t-22.5 27t-8.5 39.5q0 48 33.5 72t95.5 24h49q6 0 6 6v6q0 14 -12.5 21t-45.5 7q-20 0 -37.5 -5t-28.5 -11q-9 -5 -14 3l-30 51q-5 9 4 14q44 26 118 26q79 0 111.5 -25t32.5 -80 v-181q0 -10 -10 -10h-77zM165 458q53 0 53 35v8q0 6 -6 6h-42q-40 0 -40 -25q0 -24 35 -24z" glyph-name="ordfeminine" horiz-adv-x="356" unicode="ª"/>
<glyph d="M272 257q-7 7 0 14l220 219q3 3 6.5 2t3.5 -6v-117q0 -6 -2 -10t-8 -10l-82 -81q-4 -4 0 -8l82 -81q6 -6 8 -10t2 -10v-117q0 -5 -3.5 -6t-6.5 2zM28 257q-7 7 0 14l220 219q3 3 6.5 2t3.5 -6v-117q0 -6 -2 -10t-8 -10l-82 -81q-4 -4 0 -8l82 -81q10 -10 10 -20v-117 q0 -5 -3.5 -6t-6.5 2z" glyph-name="guillemotleft" horiz-adv-x="563" unicode="«"/>
<glyph d="M393 84q-10 0 -10 10v117q0 6 -6 6h-316q-10 0 -10 10v98q0 10 10 10h434q10 0 10 -10v-231q0 -10 -10 -10h-102z" glyph-name="logicalnot" unicode="¬"/>
<glyph d="M220 301q-41 0 -76 14.5t-61 40.5t-40.5 61t-14.5 76q0 40 14.5 75t40.5 61t61 40.5t76 14.5t76 -14.5t61 -40.5t40.5 -61t14.5 -75q0 -41 -14.5 -76t-40.5 -61t-61 -40.5t-76 -14.5zM220 341q32 0 59.5 11t47.5 31.5t31 48.5t11 61t-11 60.5t-31 48t-47.5 31.5t-59.5 11 t-59.5 -11t-47.5 -31.5t-31 -48t-11 -60.5t11 -61t31 -48.5t47.5 -31.5t59.5 -11zM145 388q-7 0 -7 7v198q0 7 7 7h88q38 0 59 -18t21 -50q0 -43 -39 -60l40 -77q3 -7 -5 -7h-45q-7 0 -10 7l-34 70h-22q-4 0 -4 -5v-65q0 -7 -7 -7h-42zM230 510q28 0 28 22t-28 22h-32 q-4 0 -4 -4v-36q0 -4 4 -4h32z" glyph-name="registered" horiz-adv-x="440" unicode="®"/>
<glyph d="M85 575q-10 0 -10 10v75q0 10 10 10h283q10 0 10 -10v-75q0 -10 -10 -10h-283z" glyph-name="macron" horiz-adv-x="454" unicode="¯"/>
<glyph d="M219 387q-33 0 -61 11.5t-48.5 32t-32 48.5t-11.5 61t11.5 60.5t32 48t48.5 32t61 11.5t61 -11.5t48.5 -32t32 -48t11.5 -60.5t-11.5 -61t-32 -48.5t-48.5 -32t-61 -11.5zM219 467q31 0 50 20.5t19 52.5t-19 52t-50 20t-50 -20t-19 -52t19 -52.5t50 -20.5z" glyph-name="degree" horiz-adv-x="438" unicode="°"/>
<glyph d="M227 170q-10 0 -10 10v151q0 6 -6 6h-150q-10 0 -10 10v98q0 10 10 10h150q6 0 6 6v151q0 10 10 10h102q10 0 10 -10v-151q0 -6 6 -6h150q10 0 10 -10v-98q0 -10 -10 -10h-150q-6 0 -6 -6v-151q0 -10 -10 -10h-102zM61 0q-10 0 -10 10v98q0 10 10 10h434q10 0 10 -10v-98 q0 -10 -10 -10h-434z" glyph-name="plusminus" unicode="±"/>
<glyph d="M48 430q-10 0 -10 10v66q0 10 8 17l144 147q11 11 18 23.5t7 26.5q0 17 -9.5 27t-27.5 10q-35 0 -41 -38q-2 -11 -11 -9l-79 13q-10 2 -8 11q1 19 11 38.5t27.5 35.5t43.5 26t61 10q60 0 98.5 -33.5t38.5 -89.5q0 -32 -12.5 -56t-36.5 -47l-96 -98v-1h135q10 0 10 -10 v-69q0 -10 -10 -10h-261z" glyph-name="uni00B2" horiz-adv-x="358" unicode="²"/>
<glyph d="M181 422q-57 0 -97 24t-50 73q-2 11 7 12l77 15q9 1 13 -7q6 -13 17.5 -21.5t28.5 -8.5q20 0 32 11.5t12 30.5q0 43 -50 43h-17q-10 0 -10 10v66q0 10 10 10h14q20 0 32 9.5t12 28.5q0 39 -39 39q-16 0 -25.5 -7t-14.5 -18q-4 -9 -13 -7l-75 14q-9 1 -7 11q9 40 44 67 t95 27q67 0 103 -32.5t36 -83.5q0 -22 -9.5 -43.5t-32.5 -38.5v-1q18 -8 34.5 -32t16.5 -62q0 -59 -39 -94t-105 -35z" glyph-name="uni00B3" horiz-adv-x="358" unicode="³"/>
<glyph d="M126 551q-11 0 -6 10l77 130q6 10 18 10h115q5 0 6.5 -3t-1.5 -7l-99 -130q-8 -10 -19 -10h-91z" glyph-name="acute" horiz-adv-x="454" unicode="´"/>
<glyph d="M361 0q-10 0 -10 10v37h-1q-12 -20 -35.5 -36t-56.5 -18q-20 -1 -33 3.5t-21 11.5h-1v-178q0 -10 -10 -10h-120q-10 0 -10 10v644q0 10 10 10h120q10 0 10 -10v-278q0 -41 18.5 -64.5t55.5 -23.5t55.5 23.5t18.5 64.5v278q0 10 10 10h120q10 0 10 -10v-464q0 -10 -10 -10 h-120z" glyph-name="mu" horiz-adv-x="554" unicode="µ"/>
<glyph d="M473 -180q-10 0 -10 10v740q0 6 -6 6h-69q-6 0 -6 -6v-740q0 -10 -10 -10h-96q-10 0 -10 10v408q-45 3 -83 20.5t-65 47t-42 68.5t-15 85q0 47 16 87.5t46 70t73.5 46.5t99.5 17h273q10 0 10 -10v-840q0 -10 -10 -10h-96z" glyph-name="paragraph" horiz-adv-x="657" unicode="¶"/>
<glyph d="M70 195q-10 0 -10 10v119q0 10 10 10h119q10 0 10 -10v-119q0 -10 -10 -10h-119z" glyph-name="periodcentered" horiz-adv-x="259" unicode="·"/>
<glyph d="M152 -160q-10 0 -7 10l61 150q4 10 14 10h84q10 0 7 -10l-46 -150q-3 -10 -16 -10h-97z" glyph-name="cedilla" horiz-adv-x="454" unicode="¸"/>
<glyph d="M161 430q-10 0 -10 10v282h-2l-64 -40q-4 -2 -7 0t-3 7v84q0 10 9 15l62 41q10 7 17 7h84q10 0 10 -10v-386q0 -10 -10 -10h-86z" glyph-name="uni00B9" horiz-adv-x="358" unicode="¹"/>
<glyph d="M186 384q-113 0 -142 88q-5 13 -7 28t-2 36t2 36t7 28q29 88 142 88t142 -88q5 -13 7 -28t2 -36t-2 -36t-7 -28q-29 -88 -142 -88zM186 468q32 0 42 28q5 13 5 40t-5 40q-10 28 -42 28t-42 -28q-5 -13 -5 -40t5 -40q10 -28 42 -28z" glyph-name="ordmasculine" horiz-adv-x="372" unicode="º"/>
<glyph d="M315 38q-3 -3 -6.5 -2t-3.5 6v117q0 10 10 20l82 81q4 4 0 8l-82 81q-6 6 -8 10t-2 10v117q0 5 3.5 6t6.5 -2l220 -219q7 -7 0 -14zM71 38q-3 -3 -6.5 -2t-3.5 6v117q0 10 10 20l82 81q4 4 0 8l-82 81q-6 6 -8 10t-2 10v117q0 5 3.5 6t6.5 -2l221 -219q7 -7 0 -14z" glyph-name="guillemotright" horiz-adv-x="563" unicode="»"/>
<glyph d="M173 274q-10 0 -10 10v282h-2l-64 -40q-4 -2 -7 0t-3 7v84q0 10 9 15l62 41q10 7 17 7h84q10 0 10 -10v-386q0 -10 -10 -10h-86zM666 0q-10 0 -10 10v40q0 6 -6 6h-164q-10 0 -10 10v69q0 5 1.5 8.5t3.5 8.5l115 244q5 10 14 10h91q11 0 6 -10l-117 -251v-1h60q6 0 6 6 v69q0 10 10 10h79q10 0 10 -10v-69q0 -6 6 -6h15q10 0 10 -10v-68q0 -10 -10 -10h-15q-6 0 -6 -6v-40q0 -10 -10 -10h-79zM179 -11q-5 0 -6 3t1 7l395 682q6 10 16 10h84q5 0 6 -3t-1 -7l-395 -682q-6 -10 -16 -10h-84z" glyph-name="onequarter" horiz-adv-x="873" unicode="¼"/>
<glyph d="M173 274q-10 0 -10 10v282h-2l-64 -40q-4 -2 -7 0t-3 7v84q0 10 9 15l62 41q10 7 17 7h84q10 0 10 -10v-386q0 -10 -10 -10h-86zM548 0q-10 0 -10 10v66q0 10 8 17l144 147q11 11 18 23.5t7 26.5q0 17 -9.5 27t-27.5 10q-35 0 -41 -38q-2 -11 -11 -9l-79 13q-10 2 -8 11 q1 19 11 38.5t27.5 35.5t43.5 26t61 10q60 0 98.5 -33.5t38.5 -89.5q0 -32 -12.5 -56t-36.5 -47l-96 -98v-1h135q10 0 10 -10v-69q0 -10 -10 -10h-261zM179 -11q-5 0 -6 3t1 7l395 682q6 10 16 10h84q5 0 6 -3t-1 -7l-395 -682q-6 -10 -16 -10h-84z" glyph-name="onehalf" horiz-adv-x="907" unicode="½"/>
<glyph d="M733 0q-10 0 -10 10v40q0 6 -6 6h-164q-10 0 -10 10v69q0 5 1.5 8.5t3.5 8.5l115 244q5 10 14 10h91q11 0 6 -10l-117 -251v-1h60q6 0 6 6v69q0 10 10 10h79q10 0 10 -10v-69q0 -6 6 -6h15q10 0 10 -10v-68q0 -10 -10 -10h-15q-6 0 -6 -6v-40q0 -10 -10 -10h-79zM248 -11 q-5 0 -6 3t1 7l395 682q6 10 16 10h84q5 0 6 -3t-1 -7l-395 -682q-6 -10 -16 -10h-84zM235 266q-57 0 -97 24t-50 73q-2 11 7 12l77 15q9 1 13 -7q6 -13 17.5 -21.5t28.5 -8.5q20 0 32 11.5t12 30.5q0 43 -50 43h-17q-10 0 -10 10v66q0 10 10 10h14q20 0 32 9.5t12 28.5 q0 39 -39 39q-16 0 -25.5 -7t-14.5 -18q-4 -9 -13 -7l-75 14q-9 1 -7 11q9 40 44 67t95 27q67 0 103 -32.5t36 -83.5q0 -22 -9.5 -43.5t-32.5 -38.5v-1q18 -8 34.5 -32t16.5 -62q0 -59 -39 -94t-105 -35z" glyph-name="threequarters" horiz-adv-x="941" unicode="¾"/>
<glyph d="M305 285q10 0 10 -10v-42q0 -29 -7 -47t-22 -37l-70 -91q-21 -25 -29.5 -43t-8.5 -37q0 -29 17.5 -47.5t48.5 -18.5t49.5 18.5t25.5 51.5q3 10 13 9l108 -16q10 -1 8 -12q-11 -78 -65.5 -124t-142.5 -46q-45 0 -82 14t-63.5 38t-41 57t-14.5 71t13.5 68.5t39.5 61.5 l67 88q12 14 16 26.5t4 33.5v24q0 10 10 10h116zM317 360q0 -10 -10 -10h-120q-10 0 -10 10v114q0 10 10 10h120q10 0 10 -10v-114z" glyph-name="questiondown" horiz-adv-x="473" unicode="¿"/>
<glyph d="M248 670q3 10 13 10h126q10 0 13 -10l230 -660q3 -10 -7 -10h-130q-10 0 -13 10l-39 119h-238l-38 -119q-3 -10 -13 -10h-131q-10 0 -7 10zM401 254l-77 238h-3l-77 -238h157zM277 754q-10 0 -19 9l-123 116q-4 4 -2 7t7 3h120q11 0 19 -10l95 -115q3 -4 2 -7t-6 -3h-93z " glyph-name="Agrave" horiz-adv-x="644" unicode="À"/>
<glyph d="M248 670q3 10 13 10h126q10 0 13 -10l230 -660q3 -10 -7 -10h-130q-10 0 -13 10l-39 119h-238l-38 -119q-3 -10 -13 -10h-131q-10 0 -7 10zM401 254l-77 238h-3l-77 -238h157zM276 754q-5 0 -6 3t2 7l95 115q8 10 19 10h120q5 0 7 -3t-2 -7l-123 -116q-9 -9 -19 -9h-93z " glyph-name="Aacute" horiz-adv-x="644" unicode="Á"/>
<glyph d="M248 670q3 10 13 10h126q10 0 13 -10l230 -660q3 -10 -7 -10h-130q-10 0 -13 10l-39 119h-238l-38 -119q-3 -10 -13 -10h-131q-10 0 -7 10zM401 254l-77 238h-3l-77 -238h157zM397 747q-8 0 -12 2t-10 8l-53 54h-2l-52 -54q-6 -6 -10 -8t-12 -2h-80q-5 0 -6 3t2 7 l103 131q7 10 19 10h75q11 0 18 -10l104 -131q3 -4 2 -7t-6 -3h-80z" glyph-name="Acircumflex" horiz-adv-x="644" unicode="Â"/>
<glyph d="M248 670q3 10 13 10h126q10 0 13 -10l230 -660q3 -10 -7 -10h-130q-10 0 -13 10l-39 119h-238l-38 -119q-3 -10 -13 -10h-131q-10 0 -7 10zM401 254l-77 238h-3l-77 -238h157zM385 748q-23 0 -40 6t-35 15q-14 8 -27.5 13t-30.5 5q-22 0 -38 -9t-33 -22q-4 -3 -6.5 -2 t-2.5 4v72q0 12 8 21q16 16 35 25.5t42 9.5t40 -6t35 -15q15 -8 28 -13t30 -5q22 0 38 9t33 22q4 3 7 2t3 -4v-72q0 -12 -9 -21q-15 -16 -34.5 -25.5t-42.5 -9.5z" glyph-name="Atilde" horiz-adv-x="644" unicode="Ã"/>
<glyph d="M248 670q3 10 13 10h126q10 0 13 -10l230 -660q3 -10 -7 -10h-130q-10 0 -13 10l-39 119h-238l-38 -119q-3 -10 -13 -10h-131q-10 0 -7 10zM401 254l-77 238h-3l-77 -238h157zM378 760q-10 0 -10 10v98q0 10 10 10h90q10 0 10 -10v-98q0 -10 -10 -10h-90zM175 760 q-10 0 -10 10v98q0 10 10 10h90q10 0 10 -10v-98q0 -10 -10 -10h-90z" glyph-name="Adieresis" horiz-adv-x="644" unicode="Ä"/>
<glyph d="M248 670q3 10 13 10h126q10 0 13 -10l230 -660q3 -10 -7 -10h-130q-10 0 -13 10l-39 119h-238l-38 -119q-3 -10 -13 -10h-131q-10 0 -7 10zM401 254l-77 238h-3l-77 -238h157zM322 712q-46 0 -76.5 30.5t-30.5 76.5t30.5 76t76.5 30t76.5 -30t30.5 -76t-30.5 -76.5 t-76.5 -30.5zM322 771q20 0 33 13.5t13 34.5q0 20 -13 34t-33 14t-33.5 -14t-13.5 -34q0 -21 13.5 -34.5t33.5 -13.5z" glyph-name="Aring" horiz-adv-x="644" unicode="Å"/>
<glyph d="M439 0q-10 0 -10 10v113q0 6 -6 6h-192l-55 -119q-4 -10 -14 -10h-141q-11 0 -6 10l317 660q5 10 14 10h529q10 0 10 -10v-107q0 -10 -10 -10h-293q-6 0 -6 -6v-135q0 -6 6 -6h244q10 0 10 -10v-106q0 -10 -10 -10h-244q-6 0 -6 -6v-141q0 -6 6 -6h293q10 0 10 -10v-107 q0 -10 -10 -10h-436zM288 254h135q6 0 6 6v293h-3z" glyph-name="AE" horiz-adv-x="929" unicode="Æ"/>
<glyph d="M201 -160q-10 0 -7 10l58 144q-71 13 -117 51.5t-69 110.5q-6 16 -9.5 32.5t-5.5 37t-3 48t-1 66.5t1 66.5t3 48t5.5 36.5t9.5 33q27 84 89.5 125.5t152.5 41.5q87 0 147.5 -39.5t89.5 -111.5q5 -9 -5 -12l-109 -49q-9 -5 -14 5q-14 33 -39.5 55t-68.5 22 q-40 0 -65.5 -20t-36.5 -55q-3 -9 -5 -19.5t-3.5 -26.5t-2 -40t-0.5 -60t0.5 -60t2 -40t3.5 -26.5t5 -19.5q11 -35 36.5 -55t65.5 -20q43 0 68.5 22t39.5 55q5 10 14 5l109 -49q10 -3 5 -12q-24 -60 -71 -98t-116 -49l-44 -143q-3 -10 -16 -10h-97z" glyph-name="Ccedilla" horiz-adv-x="575" unicode="Ç"/>
<glyph d="M267 754q-10 0 -19 9l-123 116q-4 4 -2 7t7 3h120q11 0 19 -10l95 -115q3 -4 2 -7t-6 -3h-93zM65 670q0 10 10 10h436q10 0 10 -10v-107q0 -10 -10 -10h-293q-6 0 -6 -6v-135q0 -6 6 -6h244q10 0 10 -10v-106q0 -10 -10 -10h-244q-6 0 -6 -6v-141q0 -6 6 -6h293 q10 0 10 -10v-107q0 -10 -10 -10h-436q-10 0 -10 10v660z" glyph-name="Egrave" horiz-adv-x="565" unicode="È"/>
<glyph d="M214 754q-5 0 -6 3t2 7l95 115q8 10 19 10h120q5 0 7 -3t-2 -7l-123 -116q-9 -9 -19 -9h-93zM65 670q0 10 10 10h436q10 0 10 -10v-107q0 -10 -10 -10h-293q-6 0 -6 -6v-135q0 -6 6 -6h244q10 0 10 -10v-106q0 -10 -10 -10h-244q-6 0 -6 -6v-141q0 -6 6 -6h293 q10 0 10 -10v-107q0 -10 -10 -10h-436q-10 0 -10 10v660z" glyph-name="Eacute" horiz-adv-x="565" unicode="É"/>
<glyph d="M65 670q0 10 10 10h436q10 0 10 -10v-107q0 -10 -10 -10h-293q-6 0 -6 -6v-135q0 -6 6 -6h244q10 0 10 -10v-106q0 -10 -10 -10h-244q-6 0 -6 -6v-141q0 -6 6 -6h293q10 0 10 -10v-107q0 -10 -10 -10h-436q-10 0 -10 10v660zM369 747q-8 0 -12 2t-10 8l-53 54h-2l-52 -54 q-6 -6 -10 -8t-12 -2h-80q-5 0 -6 3t2 7l103 131q7 10 19 10h75q11 0 18 -10l104 -131q3 -4 2 -7t-6 -3h-80z" glyph-name="Ecircumflex" horiz-adv-x="565" unicode="Ê"/>
<glyph d="M349 760q-10 0 -10 10v98q0 10 10 10h90q10 0 10 -10v-98q0 -10 -10 -10h-90zM146 760q-10 0 -10 10v98q0 10 10 10h90q10 0 10 -10v-98q0 -10 -10 -10h-90zM65 670q0 10 10 10h436q10 0 10 -10v-107q0 -10 -10 -10h-293q-6 0 -6 -6v-135q0 -6 6 -6h244q10 0 10 -10v-106 q0 -10 -10 -10h-244q-6 0 -6 -6v-141q0 -6 6 -6h293q10 0 10 -10v-107q0 -10 -10 -10h-436q-10 0 -10 10v660z" glyph-name="Edieresis" horiz-adv-x="565" unicode="Ë"/>
<glyph d="M65 670q0 10 10 10h127q10 0 10 -10v-660q0 -10 -10 -10h-127q-10 0 -10 10v660zM98 754q-10 0 -19 9l-123 116q-4 4 -2 7t7 3h120q11 0 19 -10l95 -115q3 -4 2 -7t-6 -3h-93z" glyph-name="Igrave" horiz-adv-x="277" unicode="Ì"/>
<glyph d="M65 670q0 10 10 10h127q10 0 10 -10v-660q0 -10 -10 -10h-127q-10 0 -10 10v660zM90 754q-5 0 -6 3t2 7l95 115q8 10 19 10h120q5 0 7 -3t-2 -7l-123 -116q-9 -9 -19 -9h-93z" glyph-name="Iacute" horiz-adv-x="277" unicode="Í"/>
<glyph d="M65 670q0 10 10 10h127q10 0 10 -10v-660q0 -10 -10 -10h-127q-10 0 -10 10v660zM214 747q-8 0 -12 2t-10 8l-53 54h-2l-52 -54q-6 -6 -10 -8t-12 -2h-80q-5 0 -6 3t2 7l103 131q7 10 19 10h75q11 0 18 -10l104 -131q3 -4 2 -7t-6 -3h-80z" glyph-name="Icircumflex" horiz-adv-x="277" unicode="Î"/>
<glyph d="M65 670q0 10 10 10h127q10 0 10 -10v-660q0 -10 -10 -10h-127q-10 0 -10 10v660zM195 760q-10 0 -10 10v98q0 10 10 10h90q10 0 10 -10v-98q0 -10 -10 -10h-90zM-8 760q-10 0 -10 10v98q0 10 10 10h90q10 0 10 -10v-98q0 -10 -10 -10h-90z" glyph-name="Idieresis" horiz-adv-x="277" unicode="Ï"/>
<glyph d="M75 0q-10 0 -10 10v273q0 6 -6 6h-25q-10 0 -10 10v88q0 10 10 10h25q6 0 6 6v267q0 10 10 10h253q90 0 150 -38t85 -115q4 -14 7.5 -29.5t6 -36.5t3.5 -50t1 -71t-1 -71t-3.5 -50t-6 -36.5t-7.5 -29.5q-25 -77 -85 -115t-150 -38h-253zM295 131q51 0 82 16.5t44 58.5 q3 7 5 16.5t3.5 24.5t2 37.5t0.5 55.5t-0.5 55t-2 37t-3.5 24.5t-5 17.5q-13 42 -44 58.5t-82 16.5h-77q-6 0 -6 -6v-140q0 -6 6 -6h83q10 0 10 -10v-88q0 -10 -10 -10h-83q-6 0 -6 -6v-146q0 -6 6 -6h77z" glyph-name="Eth" horiz-adv-x="628" unicode="Ð"/>
<glyph d="M391 748q-23 0 -40 6t-35 15q-14 8 -27.5 13t-30.5 5q-22 0 -38 -9t-33 -22q-4 -3 -6.5 -2t-2.5 4v72q0 12 8 21q16 16 35 25.5t42 9.5t40 -6t35 -15q15 -8 28 -13t30 -5q22 0 38 9t33 22q4 3 7 2t3 -4v-72q0 -12 -9 -21q-15 -16 -34.5 -25.5t-42.5 -9.5zM65 670 q0 10 10 10h120q11 0 17 -10l240 -428h5v428q0 10 10 10h113q10 0 10 -10v-660q0 -10 -10 -10h-119q-11 0 -17 10l-241 427h-5v-427q0 -10 -10 -10h-113q-10 0 -10 10v660z" glyph-name="Ntilde" horiz-adv-x="655" unicode="Ñ"/>
<glyph d="M283 754q-10 0 -19 9l-123 116q-4 4 -2 7t7 3h120q11 0 19 -10l95 -115q3 -4 2 -7t-6 -3h-93zM314 -11q-89 0 -155.5 41t-92.5 124q-6 18 -9.5 35t-5.5 38t-3 48t-1 65t1 65t3 48t5.5 38t9.5 35q26 82 92.5 123.5t155.5 41.5t155.5 -41.5t92.5 -123.5q6 -18 9.5 -35 t5.5 -38t3 -48t1 -65t-1 -65t-3 -48t-5.5 -38t-9.5 -35q-26 -83 -92.5 -124t-155.5 -41zM314 119q42 0 69 20t38 55q3 9 5 20.5t3.5 28t2 40.5t0.5 57t-0.5 57t-2 40.5t-3.5 28t-5 20.5q-11 35 -38 55t-69 20t-69 -20t-38 -55q-3 -9 -5 -20.5t-3.5 -28t-2 -40.5t-0.5 -57 t0.5 -57t2 -40.5t3.5 -28t5 -20.5q11 -35 38 -55t69 -20z" glyph-name="Ograve" horiz-adv-x="628" unicode="Ò"/>
<glyph d="M251 754q-5 0 -6 3t2 7l95 115q8 10 19 10h120q5 0 7 -3t-2 -7l-123 -116q-9 -9 -19 -9h-93zM314 -11q-89 0 -155.5 41t-92.5 124q-6 18 -9.5 35t-5.5 38t-3 48t-1 65t1 65t3 48t5.5 38t9.5 35q26 82 92.5 123.5t155.5 41.5t155.5 -41.5t92.5 -123.5q6 -18 9.5 -35 t5.5 -38t3 -48t1 -65t-1 -65t-3 -48t-5.5 -38t-9.5 -35q-26 -83 -92.5 -124t-155.5 -41zM314 119q42 0 69 20t38 55q3 9 5 20.5t3.5 28t2 40.5t0.5 57t-0.5 57t-2 40.5t-3.5 28t-5 20.5q-11 35 -38 55t-69 20t-69 -20t-38 -55q-3 -9 -5 -20.5t-3.5 -28t-2 -40.5t-0.5 -57 t0.5 -57t2 -40.5t3.5 -28t5 -20.5q11 -35 38 -55t69 -20z" glyph-name="Oacute" horiz-adv-x="628" unicode="Ó"/>
<glyph d="M314 -11q-89 0 -155.5 41t-92.5 124q-6 18 -9.5 35t-5.5 38t-3 48t-1 65t1 65t3 48t5.5 38t9.5 35q26 82 92.5 123.5t155.5 41.5t155.5 -41.5t92.5 -123.5q6 -18 9.5 -35t5.5 -38t3 -48t1 -65t-1 -65t-3 -48t-5.5 -38t-9.5 -35q-26 -83 -92.5 -124t-155.5 -41zM314 119 q42 0 69 20t38 55q3 9 5 20.5t3.5 28t2 40.5t0.5 57t-0.5 57t-2 40.5t-3.5 28t-5 20.5q-11 35 -38 55t-69 20t-69 -20t-38 -55q-3 -9 -5 -20.5t-3.5 -28t-2 -40.5t-0.5 -57t0.5 -57t2 -40.5t3.5 -28t5 -20.5q11 -35 38 -55t69 -20zM389 747q-8 0 -12 2t-10 8l-53 54h-2 l-52 -54q-6 -6 -10 -8t-12 -2h-80q-5 0 -6 3t2 7l103 131q7 10 19 10h75q11 0 18 -10l104 -131q3 -4 2 -7t-6 -3h-80z" glyph-name="Ocircumflex" horiz-adv-x="628" unicode="Ô"/>
<glyph d="M377 748q-23 0 -40 6t-35 15q-14 8 -27.5 13t-30.5 5q-22 0 -38 -9t-33 -22q-4 -3 -6.5 -2t-2.5 4v72q0 12 8 21q16 16 35 25.5t42 9.5t40 -6t35 -15q15 -8 28 -13t30 -5q22 0 38 9t33 22q4 3 7 2t3 -4v-72q0 -12 -9 -21q-15 -16 -34.5 -25.5t-42.5 -9.5zM314 -11 q-89 0 -155.5 41t-92.5 124q-6 18 -9.5 35t-5.5 38t-3 48t-1 65t1 65t3 48t5.5 38t9.5 35q26 82 92.5 123.5t155.5 41.5t155.5 -41.5t92.5 -123.5q6 -18 9.5 -35t5.5 -38t3 -48t1 -65t-1 -65t-3 -48t-5.5 -38t-9.5 -35q-26 -83 -92.5 -124t-155.5 -41zM314 119q42 0 69 20 t38 55q3 9 5 20.5t3.5 28t2 40.5t0.5 57t-0.5 57t-2 40.5t-3.5 28t-5 20.5q-11 35 -38 55t-69 20t-69 -20t-38 -55q-3 -9 -5 -20.5t-3.5 -28t-2 -40.5t-0.5 -57t0.5 -57t2 -40.5t3.5 -28t5 -20.5q11 -35 38 -55t69 -20z" glyph-name="Otilde" horiz-adv-x="628" unicode="Õ"/>
<glyph d="M370 760q-10 0 -10 10v98q0 10 10 10h90q10 0 10 -10v-98q0 -10 -10 -10h-90zM167 760q-10 0 -10 10v98q0 10 10 10h90q10 0 10 -10v-98q0 -10 -10 -10h-90zM314 -11q-89 0 -155.5 41t-92.5 124q-6 18 -9.5 35t-5.5 38t-3 48t-1 65t1 65t3 48t5.5 38t9.5 35 q26 82 92.5 123.5t155.5 41.5t155.5 -41.5t92.5 -123.5q6 -18 9.5 -35t5.5 -38t3 -48t1 -65t-1 -65t-3 -48t-5.5 -38t-9.5 -35q-26 -83 -92.5 -124t-155.5 -41zM314 119q42 0 69 20t38 55q3 9 5 20.5t3.5 28t2 40.5t0.5 57t-0.5 57t-2 40.5t-3.5 28t-5 20.5q-11 35 -38 55 t-69 20t-69 -20t-38 -55q-3 -9 -5 -20.5t-3.5 -28t-2 -40.5t-0.5 -57t0.5 -57t2 -40.5t3.5 -28t5 -20.5q11 -35 38 -55t69 -20z" glyph-name="Odieresis" horiz-adv-x="628" unicode="Ö"/>
<glyph d="M413 74q-7 -9 -14 0l-117 116q-4 4 -8 0l-118 -116q-7 -9 -14 0l-67 67q-7 7 0 14l117 117q4 4 0 8l-117 117q-7 7 0 14l68 68q7 7 14 0l117 -117q4 -5 9 0l116 117q7 7 14 0l67 -67q6 -8 0 -14l-116 -117q-5 -5 0 -9l116 -117q7 -7 0 -14z" glyph-name="multiply" unicode="×"/>
<glyph d="M50 -30q-5 0 -6 3t1 7l61 97q-13 17 -23 35.5t-17 41.5q-6 18 -9.5 35t-5.5 38t-3 48t-1 65t1 65t3 48t5.5 38t9.5 35q26 82 92.5 123.5t155.5 41.5q87 0 149 -38l30 48q5 9 15 9h70q5 0 6 -3t-1 -7l-61 -98q24 -30 40 -76q6 -18 9.5 -35t5.5 -38t3 -48t1 -65t-1 -65 t-3 -48t-5.5 -38t-9.5 -35q-26 -83 -92.5 -124t-155.5 -41q-88 0 -149 37l-30 -47q-5 -9 -15 -9h-70zM194 340q0 -48 1.5 -75t3.5 -44l189 317q-30 24 -74 24q-42 0 -69.5 -20.5t-39.5 -55.5q-3 -10 -5 -21t-3.5 -27.5t-2 -40t-0.5 -57.5zM314 118q42 0 69.5 20.5t39.5 55.5 q3 10 5 21t3.5 27.5t2 39.5t0.5 58q0 46 -1.5 73t-3.5 44l-189 -316q29 -23 74 -23z" glyph-name="Oslash" horiz-adv-x="628" unicode="Ø"/>
<glyph d="M290 754q-10 0 -19 9l-123 116q-4 4 -2 7t7 3h120q11 0 19 -10l95 -115q3 -4 2 -7t-6 -3h-93zM323 -11q-57 0 -105 17t-82.5 50t-54 82t-19.5 112v420q0 10 10 10h127q10 0 10 -10v-424q0 -61 31 -94t83 -33q51 0 82 33t31 94v424q0 10 10 10h127q10 0 10 -10v-420 q0 -63 -19.5 -112t-54 -82t-82 -50t-104.5 -17z" glyph-name="Ugrave" horiz-adv-x="645" unicode="Ù"/>
<glyph d="M264 754q-5 0 -6 3t2 7l95 115q8 10 19 10h120q5 0 7 -3t-2 -7l-123 -116q-9 -9 -19 -9h-93zM323 -11q-57 0 -105 17t-82.5 50t-54 82t-19.5 112v420q0 10 10 10h127q10 0 10 -10v-424q0 -61 31 -94t83 -33q51 0 82 33t31 94v424q0 10 10 10h127q10 0 10 -10v-420 q0 -63 -19.5 -112t-54 -82t-82 -50t-104.5 -17z" glyph-name="Uacute" horiz-adv-x="645" unicode="Ú"/>
<glyph d="M323 -11q-57 0 -105 17t-82.5 50t-54 82t-19.5 112v420q0 10 10 10h127q10 0 10 -10v-424q0 -61 31 -94t83 -33q51 0 82 33t31 94v424q0 10 10 10h127q10 0 10 -10v-420q0 -63 -19.5 -112t-54 -82t-82 -50t-104.5 -17zM397 747q-8 0 -12 2t-10 8l-53 54h-2l-52 -54 q-6 -6 -10 -8t-12 -2h-80q-5 0 -6 3t2 7l103 131q7 10 19 10h75q11 0 18 -10l104 -131q3 -4 2 -7t-6 -3h-80z" glyph-name="Ucircumflex" horiz-adv-x="645" unicode="Û"/>
<glyph d="M379 760q-10 0 -10 10v98q0 10 10 10h90q10 0 10 -10v-98q0 -10 -10 -10h-90zM176 760q-10 0 -10 10v98q0 10 10 10h90q10 0 10 -10v-98q0 -10 -10 -10h-90zM323 -11q-57 0 -105 17t-82.5 50t-54 82t-19.5 112v420q0 10 10 10h127q10 0 10 -10v-424q0 -61 31 -94t83 -33 q51 0 82 33t31 94v424q0 10 10 10h127q10 0 10 -10v-420q0 -63 -19.5 -112t-54 -82t-82 -50t-104.5 -17z" glyph-name="Udieresis" horiz-adv-x="645" unicode="Ü"/>
<glyph d="M220 0q-10 0 -10 10v261l-201 399q-4 10 7 10h130q11 0 15 -10l123 -248h3l123 248q4 10 15 10h126q5 0 7 -3t0 -7l-201 -399v-261q0 -10 -10 -10h-127zM232 754q-5 0 -6 3t2 7l95 115q8 10 19 10h120q5 0 7 -3t-2 -7l-123 -116q-9 -9 -19 -9h-93z" glyph-name="Yacute" horiz-adv-x="568" unicode="Ý"/>
<glyph d="M75 0q-10 0 -10 10v660q0 10 10 10h127q10 0 10 -10v-92q0 -6 6 -6h121q55 0 99 -16t75 -45t47 -69t16 -89q0 -48 -16.5 -88.5t-47 -69t-74.5 -44.5t-99 -16h-121q-6 0 -6 -6v-119q0 -10 -10 -10h-127zM330 262q47 0 73 24.5t26 66.5t-26 67t-73 25h-112q-6 0 -6 -6v-171 q0 -6 6 -6h112z" glyph-name="Thorn" horiz-adv-x="605" unicode="Þ"/>
<glyph d="M286 -4q-10 0 -10 10v95q0 10 10 10h25q26 0 41 8.5t23 30.5q1 3 2 8t1.5 13t0.5 21.5v33.5q0 39 -1 55t-4 25q-14 44 -73 44h-14q-10 0 -10 10v94q0 10 10 10h24q59 0 59 55q0 57 -79 57q-47 0 -67.5 -21t-20.5 -67v-478q0 -10 -10 -10h-120q-10 0 -10 10v475 q0 97 53 151.5t173 54.5q106 0 163 -43.5t57 -123.5q0 -73 -56 -112v-2q19 -11 32.5 -26.5t21.5 -40.5q3 -9 5 -19t3.5 -23.5t2.5 -32t1 -43.5q0 -29 -1 -49.5t-2.5 -35t-4 -25t-5.5 -20.5q-17 -54 -62.5 -76.5t-122.5 -22.5h-35z" glyph-name="germandbls" horiz-adv-x="562" unicode="ß"/>
<glyph d="M347 0q-10 0 -10 10v32h-1q-19 -24 -51 -38.5t-82 -14.5q-32 0 -61.5 8.5t-51.5 26.5t-35 46t-13 67q0 80 55.5 118t145.5 38h86q6 0 6 6v18q0 34 -20.5 50t-78.5 16q-37 0 -64 -9t-44 -22q-8 -6 -13 2l-45 79q-5 9 3 14q31 22 75.5 35t104.5 13q59 0 100 -10.5t66.5 -32 t37 -54.5t11.5 -78v-310q0 -10 -10 -10h-111zM245 94q90 0 90 67v33q0 6 -6 6h-68q-86 0 -86 -55q0 -51 70 -51zM250 551q-12 0 -19 10l-99 130q-3 4 -1.5 7t6.5 3h116q12 0 18 -10l76 -130q5 -10 -5 -10h-92z" glyph-name="agrave" horiz-adv-x="528" unicode="à"/>
<glyph d="M347 0q-10 0 -10 10v32h-1q-19 -24 -51 -38.5t-82 -14.5q-32 0 -61.5 8.5t-51.5 26.5t-35 46t-13 67q0 80 55.5 118t145.5 38h86q6 0 6 6v18q0 34 -20.5 50t-78.5 16q-37 0 -64 -9t-44 -22q-8 -6 -13 2l-45 79q-5 9 3 14q31 22 75.5 35t104.5 13q59 0 100 -10.5t66.5 -32 t37 -54.5t11.5 -78v-310q0 -10 -10 -10h-111zM245 94q90 0 90 67v33q0 6 -6 6h-68q-86 0 -86 -55q0 -51 70 -51zM207 551q-11 0 -6 10l77 130q6 10 18 10h115q5 0 6.5 -3t-1.5 -7l-99 -130q-8 -10 -19 -10h-91z" glyph-name="aacute" horiz-adv-x="528" unicode="á"/>
<glyph d="M347 0q-10 0 -10 10v32h-1q-19 -24 -51 -38.5t-82 -14.5q-32 0 -61.5 8.5t-51.5 26.5t-35 46t-13 67q0 80 55.5 118t145.5 38h86q6 0 6 6v18q0 34 -20.5 50t-78.5 16q-37 0 -64 -9t-44 -22q-8 -6 -13 2l-45 79q-5 9 3 14q31 22 75.5 35t104.5 13q59 0 100 -10.5t66.5 -32 t37 -54.5t11.5 -78v-310q0 -10 -10 -10h-111zM245 94q90 0 90 67v33q0 6 -6 6h-68q-86 0 -86 -55q0 -51 70 -51zM338 550q-12 0 -22 10l-52 54h-2l-53 -54q-6 -6 -10 -8t-12 -2h-79q-5 0 -6.5 3t1.5 7l104 131q7 10 18 10h75q12 0 19 -10l103 -131q3 -4 2 -7t-6 -3h-80z" glyph-name="acircumflex" horiz-adv-x="528" unicode="â"/>
<glyph d="M347 0q-10 0 -10 10v32h-1q-19 -24 -51 -38.5t-82 -14.5q-32 0 -61.5 8.5t-51.5 26.5t-35 46t-13 67q0 80 55.5 118t145.5 38h86q6 0 6 6v18q0 34 -20.5 50t-78.5 16q-37 0 -64 -9t-44 -22q-8 -6 -13 2l-45 79q-5 9 3 14q31 22 75.5 35t104.5 13q59 0 100 -10.5t66.5 -32 t37 -54.5t11.5 -78v-310q0 -10 -10 -10h-111zM245 94q90 0 90 67v33q0 6 -6 6h-68q-86 0 -86 -55q0 -51 70 -51zM327 552q-23 0 -40 6.5t-35 15.5q-14 8 -27.5 13t-30.5 5q-22 0 -38 -9t-33 -23q-9 -7 -9 3v72q0 11 8 20q16 16 35 26t42 10t40 -6.5t35 -15.5q15 -8 28 -13 t30 -5q22 0 38 9t33 23q4 3 7 2t3 -5v-72q0 -11 -9 -20q-15 -16 -34.5 -26t-42.5 -10z" glyph-name="atilde" horiz-adv-x="528" unicode="ã"/>
<glyph d="M347 0q-10 0 -10 10v32h-1q-19 -24 -51 -38.5t-82 -14.5q-32 0 -61.5 8.5t-51.5 26.5t-35 46t-13 67q0 80 55.5 118t145.5 38h86q6 0 6 6v18q0 34 -20.5 50t-78.5 16q-37 0 -64 -9t-44 -22q-8 -6 -13 2l-45 79q-5 9 3 14q31 22 75.5 35t104.5 13q59 0 100 -10.5t66.5 -32 t37 -54.5t11.5 -78v-310q0 -10 -10 -10h-111zM245 94q90 0 90 67v33q0 6 -6 6h-68q-86 0 -86 -55q0 -51 70 -51zM317 561q-10 0 -10 10v99q0 10 10 10h93q10 0 10 -10v-99q0 -10 -10 -10h-93zM117 561q-10 0 -10 10v99q0 10 10 10h92q10 0 10 -10v-99q0 -10 -10 -10h-92z " glyph-name="adieresis" horiz-adv-x="528" unicode="ä"/>
<glyph d="M347 0q-10 0 -10 10v32h-1q-19 -24 -51 -38.5t-82 -14.5q-32 0 -61.5 8.5t-51.5 26.5t-35 46t-13 67q0 80 55.5 118t145.5 38h86q6 0 6 6v18q0 34 -20.5 50t-78.5 16q-37 0 -64 -9t-44 -22q-8 -6 -13 2l-45 79q-5 9 3 14q31 22 75.5 35t104.5 13q59 0 100 -10.5t66.5 -32 t37 -54.5t11.5 -78v-310q0 -10 -10 -10h-111zM245 94q90 0 90 67v33q0 6 -6 6h-68q-86 0 -86 -55q0 -51 70 -51zM266 524q-46 0 -76.5 30t-30.5 76q0 47 30.5 77t76.5 30t76.5 -30t30.5 -77q0 -46 -30.5 -76t-76.5 -30zM266 582q20 0 33 14t13 34q0 21 -13 35t-33 14 t-33.5 -14t-13.5 -35q0 -20 13.5 -34t33.5 -14z" glyph-name="aring" horiz-adv-x="528" unicode="å"/>
<glyph d="M560 -11q-55 0 -97.5 19.5t-68.5 51.5h-1q-25 -38 -70.5 -54.5t-110.5 -16.5q-37 0 -68 9t-53.5 27t-35.5 46t-13 66q0 80 55.5 118t145.5 38h86q6 0 6 6v19q0 34 -20.5 49.5t-78.5 15.5q-37 0 -64 -9t-44 -22q-8 -6 -13 2l-45 79q-5 9 3 14q31 22 75.5 35t104.5 13 q54 0 96 -11.5t66 -33.5h2q23 20 58 32.5t77 12.5q81 0 134.5 -36t74.5 -100q4 -12 7 -25.5t5 -30.5t3 -39.5t1 -53.5q0 -10 -11 -10h-293q-6 0 -6 -6q0 -5 2 -13t4 -14q21 -64 101 -64q35 0 62.5 12t47.5 31q8 6 14 0l66 -62q8 -7 1 -14q-35 -37 -87 -59t-118 -22zM633 293 q6 0 6 6q0 11 -1.5 19.5t-3.5 16.5q-8 25 -29.5 39t-51.5 14q-32 0 -52.5 -14.5t-28.5 -38.5q-3 -9 -4 -17t-1 -19q0 -6 6 -6h160zM245 94q90 0 90 67v33q0 6 -6 6h-68q-86 0 -86 -55q0 -51 70 -51z" glyph-name="ae" horiz-adv-x="816" unicode="æ"/>
<glyph d="M151 -160q-10 0 -7 10l58 144q-56 14 -93.5 45.5t-54.5 86.5q-8 22 -11.5 50t-3.5 66t3.5 66t11.5 50q22 68 77 102.5t132 34.5q63 0 110 -25.5t73 -65.5q5 -8 -2 -14l-87 -57q-9 -6 -15 2q-16 22 -33.5 32t-43.5 10q-28 0 -47.5 -13t-27.5 -39q-5 -15 -7 -34t-2 -49 t2 -49t7 -34q8 -26 27.5 -39t47.5 -13q26 0 43.5 10t33.5 32q6 8 15 2l87 -57q7 -6 2 -14q-21 -32 -57 -55.5t-81 -31.5l-44 -143q-3 -10 -16 -10h-97z" glyph-name="ccedilla" horiz-adv-x="481" unicode="ç"/>
<glyph d="M270 -11q-83 0 -138 36t-76 102q-8 23 -12.5 50t-4.5 65t4 65.5t12 50.5q21 66 75.5 101.5t132.5 35.5q81 0 134.5 -36t74.5 -100q4 -12 7 -25.5t5 -30.5t3 -39.5t1 -53.5q0 -10 -11 -10h-293q-6 0 -6 -6q1 -15 6 -27q10 -32 36 -48t64 -16q36 0 63 11.5t48 31.5 q9 7 14 0l66 -62q8 -7 1 -14q-35 -37 -87 -59t-119 -22zM344 293q6 0 6 6q0 11 -1.5 19.5t-3.5 16.5q-8 25 -29.5 39t-51.5 14t-51.5 -14t-29.5 -39q-2 -8 -3.5 -16.5t-1.5 -19.5q0 -6 6 -6h160zM236 551q-12 0 -19 10l-99 130q-3 4 -1.5 7t6.5 3h116q12 0 18 -10l76 -130 q5 -10 -5 -10h-92z" glyph-name="egrave" horiz-adv-x="527" unicode="è"/>
<glyph d="M204 551q-11 0 -6 10l77 130q6 10 18 10h115q5 0 6.5 -3t-1.5 -7l-99 -130q-8 -10 -19 -10h-91zM270 -11q-83 0 -138 36t-76 102q-8 23 -12.5 50t-4.5 65t4 65.5t12 50.5q21 66 75.5 101.5t132.5 35.5q81 0 134.5 -36t74.5 -100q4 -12 7 -25.5t5 -30.5t3 -39.5t1 -53.5 q0 -10 -11 -10h-293q-6 0 -6 -6q1 -15 6 -27q10 -32 36 -48t64 -16q36 0 63 11.5t48 31.5q9 7 14 0l66 -62q8 -7 1 -14q-35 -37 -87 -59t-119 -22zM344 293q6 0 6 6q0 11 -1.5 19.5t-3.5 16.5q-8 25 -29.5 39t-51.5 14t-51.5 -14t-29.5 -39q-2 -8 -3.5 -16.5t-1.5 -19.5 q0 -6 6 -6h160z" glyph-name="eacute" horiz-adv-x="527" unicode="é"/>
<glyph d="M338 550q-12 0 -22 10l-52 54h-2l-53 -54q-6 -6 -10 -8t-12 -2h-79q-5 0 -6.5 3t1.5 7l104 131q7 10 18 10h75q12 0 19 -10l103 -131q3 -4 2 -7t-6 -3h-80zM270 -11q-83 0 -138 36t-76 102q-8 23 -12.5 50t-4.5 65t4 65.5t12 50.5q21 66 75.5 101.5t132.5 35.5 q81 0 134.5 -36t74.5 -100q4 -12 7 -25.5t5 -30.5t3 -39.5t1 -53.5q0 -10 -11 -10h-293q-6 0 -6 -6q1 -15 6 -27q10 -32 36 -48t64 -16q36 0 63 11.5t48 31.5q9 7 14 0l66 -62q8 -7 1 -14q-35 -37 -87 -59t-119 -22zM344 293q6 0 6 6q0 11 -1.5 19.5t-3.5 16.5 q-8 25 -29.5 39t-51.5 14t-51.5 -14t-29.5 -39q-2 -8 -3.5 -16.5t-1.5 -19.5q0 -6 6 -6h160z" glyph-name="ecircumflex" horiz-adv-x="527" unicode="ê"/>
<glyph d="M316 561q-10 0 -10 10v99q0 10 10 10h93q10 0 10 -10v-99q0 -10 -10 -10h-93zM116 561q-10 0 -10 10v99q0 10 10 10h92q10 0 10 -10v-99q0 -10 -10 -10h-92zM270 -11q-83 0 -138 36t-76 102q-8 23 -12.5 50t-4.5 65t4 65.5t12 50.5q21 66 75.5 101.5t132.5 35.5 q81 0 134.5 -36t74.5 -100q4 -12 7 -25.5t5 -30.5t3 -39.5t1 -53.5q0 -10 -11 -10h-293q-6 0 -6 -6q1 -15 6 -27q10 -32 36 -48t64 -16q36 0 63 11.5t48 31.5q9 7 14 0l66 -62q8 -7 1 -14q-35 -37 -87 -59t-119 -22zM344 293q6 0 6 6q0 11 -1.5 19.5t-3.5 16.5 q-8 25 -29.5 39t-51.5 14t-51.5 -14t-29.5 -39q-2 -8 -3.5 -16.5t-1.5 -19.5q0 -6 6 -6h160z" glyph-name="edieresis" horiz-adv-x="527" unicode="ë"/>
<glyph d="M73 0q-10 0 -10 10v464q0 10 10 10h120q10 0 10 -10v-464q0 -10 -10 -10h-120zM91 551q-12 0 -19 10l-99 130q-3 4 -1.5 7t6.5 3h116q12 0 18 -10l76 -130q5 -10 -5 -10h-92z" glyph-name="igrave" horiz-adv-x="266" unicode="ì"/>
<glyph d="M84 551q-11 0 -6 10l77 130q6 10 18 10h115q5 0 6.5 -3t-1.5 -7l-99 -130q-8 -10 -19 -10h-91zM73 0q-10 0 -10 10v464q0 10 10 10h120q10 0 10 -10v-464q0 -10 -10 -10h-120z" glyph-name="iacute" horiz-adv-x="266" unicode="í"/>
<glyph d="M208 550q-12 0 -22 10l-52 54h-2l-53 -54q-6 -6 -10 -8t-12 -2h-79q-5 0 -6.5 3t1.5 7l104 131q7 10 18 10h75q12 0 19 -10l103 -131q3 -4 2 -7t-6 -3h-80zM73 0q-10 0 -10 10v464q0 10 10 10h120q10 0 10 -10v-464q0 -10 -10 -10h-120z" glyph-name="icircumflex" horiz-adv-x="266" unicode="î"/>
<glyph d="M187 561q-10 0 -10 10v99q0 10 10 10h93q10 0 10 -10v-99q0 -10 -10 -10h-93zM-13 561q-10 0 -10 10v99q0 10 10 10h92q10 0 10 -10v-99q0 -10 -10 -10h-92zM73 0q-10 0 -10 10v464q0 10 10 10h120q10 0 10 -10v-464q0 -10 -10 -10h-120z" glyph-name="idieresis" horiz-adv-x="266" unicode="ï"/>
<glyph d="M355 552l20 -28q30 -41 51.5 -77.5t36 -71t21.5 -69t7 -71.5q0 -36 -3.5 -61.5t-10.5 -45.5q-22 -66 -77.5 -102.5t-133.5 -36.5q-81 0 -135.5 35.5t-75.5 99.5q-7 21 -11 46.5t-4 51.5t3.5 53t10.5 49q19 59 63.5 92.5t106.5 33.5q22 0 37 -4t27 -12h2l-59 81l-94 -28 q-9 -2 -12 7l-20 65q-3 10 7 13l64 19l-57 79q-2 4 -0.5 7t6.5 3h123q12 0 19 -10l31 -43l90 27q10 3 13 -6l20 -65q3 -10 -7 -13zM266 104q29 0 50 14t29 41q10 27 10 67q0 19 -2.5 35.5t-7.5 31.5q-17 56 -79 56q-30 0 -51 -14.5t-29 -41.5q-5 -15 -7.5 -31.5t-2.5 -35.5 q0 -40 10 -67q8 -27 29.5 -41t50.5 -14z" glyph-name="eth" horiz-adv-x="530" unicode="ð"/>
<glyph d="M364 0q-10 0 -10 10v278q0 40 -18.5 64t-56.5 24q-36 0 -56 -24t-20 -64v-278q0 -10 -10 -10h-120q-10 0 -10 10v464q0 10 10 10h120q10 0 10 -10v-34h1q17 23 47.5 39t77.5 16q40 0 71 -13t52 -37t31.5 -57t10.5 -73v-305q0 -10 -10 -10h-120zM339 552q-23 0 -40 6.5 t-35 15.5q-14 8 -27.5 13t-30.5 5q-22 0 -38 -9t-33 -23q-9 -7 -9 3v72q0 11 8 20q16 16 35 26t42 10t40 -6.5t35 -15.5q15 -8 28 -13t30 -5q22 0 38 9t33 23q4 3 7 2t3 -5v-72q0 -11 -9 -20q-15 -16 -34.5 -26t-42.5 -10z" glyph-name="ntilde" horiz-adv-x="553" unicode="ñ"/>
<glyph d="M265 -11q-77 0 -133 35t-77 101q-8 26 -12 53.5t-4 63.5t4 63.5t12 53.5q21 66 77 101t133 35t133 -35t77 -101q8 -26 12 -53.5t4 -63.5t-4 -63.5t-12 -53.5q-21 -66 -77 -101t-133 -35zM265 107q58 0 75 52q5 17 7 34.5t2 48.5t-2 48.5t-7 34.5q-17 52 -75 52t-75 -52 q-5 -17 -7 -34.5t-2 -48.5t2 -48.5t7 -34.5q17 -52 75 -52zM232 551q-12 0 -19 10l-99 130q-3 4 -1.5 7t6.5 3h116q12 0 18 -10l76 -130q5 -10 -5 -10h-92z" glyph-name="ograve" horiz-adv-x="530" unicode="ò"/>
<glyph d="M209 551q-11 0 -6 10l77 130q6 10 18 10h115q5 0 6.5 -3t-1.5 -7l-99 -130q-8 -10 -19 -10h-91zM265 -11q-77 0 -133 35t-77 101q-8 26 -12 53.5t-4 63.5t4 63.5t12 53.5q21 66 77 101t133 35t133 -35t77 -101q8 -26 12 -53.5t4 -63.5t-4 -63.5t-12 -53.5 q-21 -66 -77 -101t-133 -35zM265 107q58 0 75 52q5 17 7 34.5t2 48.5t-2 48.5t-7 34.5q-17 52 -75 52t-75 -52q-5 -17 -7 -34.5t-2 -48.5t2 -48.5t7 -34.5q17 -52 75 -52z" glyph-name="oacute" horiz-adv-x="530" unicode="ó"/>
<glyph d="M340 550q-12 0 -22 10l-52 54h-2l-53 -54q-6 -6 -10 -8t-12 -2h-79q-5 0 -6.5 3t1.5 7l104 131q7 10 18 10h75q12 0 19 -10l103 -131q3 -4 2 -7t-6 -3h-80zM265 -11q-77 0 -133 35t-77 101q-8 26 -12 53.5t-4 63.5t4 63.5t12 53.5q21 66 77 101t133 35t133 -35t77 -101 q8 -26 12 -53.5t4 -63.5t-4 -63.5t-12 -53.5q-21 -66 -77 -101t-133 -35zM265 107q58 0 75 52q5 17 7 34.5t2 48.5t-2 48.5t-7 34.5q-17 52 -75 52t-75 -52q-5 -17 -7 -34.5t-2 -48.5t2 -48.5t7 -34.5q17 -52 75 -52z" glyph-name="ocircumflex" horiz-adv-x="530" unicode="ô"/>
<glyph d="M265 -11q-77 0 -133 35t-77 101q-8 26 -12 53.5t-4 63.5t4 63.5t12 53.5q21 66 77 101t133 35t133 -35t77 -101q8 -26 12 -53.5t4 -63.5t-4 -63.5t-12 -53.5q-21 -66 -77 -101t-133 -35zM265 107q58 0 75 52q5 17 7 34.5t2 48.5t-2 48.5t-7 34.5q-17 52 -75 52t-75 -52 q-5 -17 -7 -34.5t-2 -48.5t2 -48.5t7 -34.5q17 -52 75 -52zM328 552q-23 0 -40 6.5t-35 15.5q-14 8 -27.5 13t-30.5 5q-22 0 -38 -9t-33 -23q-9 -7 -9 3v72q0 11 8 20q16 16 35 26t42 10t40 -6.5t35 -15.5q15 -8 28 -13t30 -5q22 0 38 9t33 23q4 3 7 2t3 -5v-72 q0 -11 -9 -20q-15 -16 -34.5 -26t-42.5 -10z" glyph-name="otilde" horiz-adv-x="530" unicode="õ"/>
<glyph d="M318 561q-10 0 -10 10v99q0 10 10 10h93q10 0 10 -10v-99q0 -10 -10 -10h-93zM118 561q-10 0 -10 10v99q0 10 10 10h92q10 0 10 -10v-99q0 -10 -10 -10h-92zM265 -11q-77 0 -133 35t-77 101q-8 26 -12 53.5t-4 63.5t4 63.5t12 53.5q21 66 77 101t133 35t133 -35t77 -101 q8 -26 12 -53.5t4 -63.5t-4 -63.5t-12 -53.5q-21 -66 -77 -101t-133 -35zM265 107q58 0 75 52q5 17 7 34.5t2 48.5t-2 48.5t-7 34.5q-17 52 -75 52t-75 -52q-5 -17 -7 -34.5t-2 -48.5t2 -48.5t7 -34.5q17 -52 75 -52z" glyph-name="odieresis" horiz-adv-x="530" unicode="ö"/>
<glyph d="M278 387q-32 0 -54 22t-22 54t22 54t54 22t54 -22t22 -54t-22 -54t-54 -22zM61 217q-10 0 -10 10v98q0 10 10 10h434q10 0 10 -10v-98q0 -10 -10 -10h-434zM278 13q-32 0 -54 22t-22 54t22 54t54 22t54 -22t22 -54t-22 -54t-54 -22z" glyph-name="divide" unicode="÷"/>
<glyph d="M265 -11q-71 0 -123 29l-28 -38q-7 -10 -19 -10h-51q-5 0 -6 3t2 7l54 75q-13 14 -23 32t-16 38q-8 26 -12 53.5t-4 63.5t4 63.5t12 53.5q21 66 77 101t133 35q72 0 123 -30l29 39q7 10 19 10h50q5 0 6 -3t-1 -7l-56 -76q26 -28 40 -69q8 -26 12 -53.5t4 -63.5t-4 -63.5 t-12 -53.5q-21 -66 -77 -101t-133 -35zM179 242q0 -44 4 -67l131 189q-22 14 -49 14q-28 0 -48.5 -13t-28.5 -39q-5 -17 -7 -35t-2 -49zM265 106q28 0 48.5 13t28.5 39q5 17 7 35t2 49q0 42 -4 65l-130 -188q19 -13 48 -13z" glyph-name="oslash" horiz-adv-x="530" unicode="ø"/>
<glyph d="M356 0q-10 0 -10 10v35h-1q-19 -25 -48.5 -40.5t-75.5 -15.5q-40 0 -70.5 13.5t-51 37.5t-31 57t-10.5 72v305q0 10 10 10h120q10 0 10 -10v-278q0 -39 18.5 -63.5t55.5 -24.5q36 0 55 24t19 64v278q0 10 10 10h120q10 0 10 -10v-464q0 -10 -10 -10h-120zM240 551 q-12 0 -19 10l-99 130q-3 4 -1.5 7t6.5 3h116q12 0 18 -10l76 -130q5 -10 -5 -10h-92z" glyph-name="ugrave" horiz-adv-x="549" unicode="ù"/>
<glyph d="M218 551q-11 0 -6 10l77 130q6 10 18 10h115q5 0 6.5 -3t-1.5 -7l-99 -130q-8 -10 -19 -10h-91zM356 0q-10 0 -10 10v35h-1q-19 -25 -48.5 -40.5t-75.5 -15.5q-40 0 -70.5 13.5t-51 37.5t-31 57t-10.5 72v305q0 10 10 10h120q10 0 10 -10v-278q0 -39 18.5 -63.5 t55.5 -24.5q36 0 55 24t19 64v278q0 10 10 10h120q10 0 10 -10v-464q0 -10 -10 -10h-120z" glyph-name="uacute" horiz-adv-x="549" unicode="ú"/>
<glyph d="M349 550q-12 0 -22 10l-52 54h-2l-53 -54q-6 -6 -10 -8t-12 -2h-79q-5 0 -6.5 3t1.5 7l104 131q7 10 18 10h75q12 0 19 -10l103 -131q3 -4 2 -7t-6 -3h-80zM356 0q-10 0 -10 10v35h-1q-19 -25 -48.5 -40.5t-75.5 -15.5q-40 0 -70.5 13.5t-51 37.5t-31 57t-10.5 72v305 q0 10 10 10h120q10 0 10 -10v-278q0 -39 18.5 -63.5t55.5 -24.5q36 0 55 24t19 64v278q0 10 10 10h120q10 0 10 -10v-464q0 -10 -10 -10h-120z" glyph-name="ucircumflex" horiz-adv-x="549" unicode="û"/>
<glyph d="M328 561q-10 0 -10 10v99q0 10 10 10h93q10 0 10 -10v-99q0 -10 -10 -10h-93zM128 561q-10 0 -10 10v99q0 10 10 10h92q10 0 10 -10v-99q0 -10 -10 -10h-92zM356 0q-10 0 -10 10v35h-1q-19 -25 -48.5 -40.5t-75.5 -15.5q-40 0 -70.5 13.5t-51 37.5t-31 57t-10.5 72v305 q0 10 10 10h120q10 0 10 -10v-278q0 -39 18.5 -63.5t55.5 -24.5q36 0 55 24t19 64v278q0 10 10 10h120q10 0 10 -10v-464q0 -10 -10 -10h-120z" glyph-name="udieresis" horiz-adv-x="549" unicode="ü"/>
<glyph d="M93 -180q-10 0 -10 10v98q0 10 10 10h21q26 0 41.5 11.5t24.5 38.5l13 36l-180 450q-3 10 8 10h128q9 0 12 -10l97 -280h2l90 280q3 10 12 10h124q11 0 8 -10l-196 -515q-15 -40 -31.5 -67t-36.5 -43t-45 -22.5t-58 -6.5h-34zM203 551q-11 0 -6 10l77 130q6 10 18 10h115 q5 0 6.5 -3t-1.5 -7l-99 -130q-8 -10 -19 -10h-91z" glyph-name="yacute" horiz-adv-x="507" unicode="ý"/>
<glyph d="M73 -180q-10 0 -10 10v840q0 10 10 10h120q10 0 10 -10v-231h1q17 25 48 40.5t79 15.5q61 0 103 -29t61 -87q9 -29 13 -59t4 -78q0 -47 -4 -77.5t-13 -59.5q-19 -57 -61 -86.5t-103 -29.5q-48 0 -79 15.5t-48 40.5h-1v-215q0 -10 -10 -10h-120zM286 107q58 0 75 52 q5 14 7 32.5t2 50.5t-2 50.5t-7 32.5q-16 52 -75 52q-58 0 -74 -52q-5 -14 -7 -32.5t-2 -50.5t2 -50.5t7 -32.5q17 -52 74 -52z" glyph-name="thorn" horiz-adv-x="551" unicode="þ"/>
</font>
</defs>
</svg>
