<?xml version="1.0" encoding="UTF-8"?>
<!DOCTYPE svg  PUBLIC '-//W3C//DTD SVG 1.1//EN'  'http://www.w3.org/Graphics/SVG/1.1/DTD/svg11.dtd'>
<svg version="1.1" xmlns="http://www.w3.org/2000/svg">
<defs>
<font id="DINNextLTW23-Heavy" horiz-adv-x="562">
<font-face font-family="DIN NEXTTM ARABIC HEAVY" font-weight="750" ascent="750" bbox="-56 -205 898.692 931" cap-height="680" descent="-250" panose-1="2 11 9 3 2 2 3 5 2 3" underline-position="-100" underline-thickness="50" unicode-range="U+0020-00FE" units-per-em="1000" x-height="487"/>
<missing-glyph/>
<glyph glyph-name="space" horiz-adv-x="238" unicode=" "/>
<glyph glyph-name="space" horiz-adv-x="238" unicode=" "/>
<glyph d="M106 210q-10 0 -10 10l-24 450q0 10 10 10h153q10 0 10 -10l-24 -450q0 -10 -10 -10h-105zM80 136q0 10 10 10h138q10 0 10 -10v-126q0 -10 -10 -10h-138q-10 0 -10 10v126z" glyph-name="exclam" horiz-adv-x="317" unicode="!"/>
<glyph d="M243 455q-10 0 -10 10v205q0 10 10 10h97q10 0 10 -10v-205q0 -10 -10 -10h-97zM66 455q-10 0 -10 10v205q0 10 10 10h97q10 0 10 -10v-205q0 -10 -10 -10h-97z" glyph-name="quotedbl" horiz-adv-x="406" unicode='"'/>
<glyph d="M94 180h-62q-10 0 -10 10v100q0 10 10 10h79l12 89h-65q-10 0 -10 10v100q0 10 10 10h81l22 161q2 10 11 10h116q11 0 9 -10l-22 -161h93l22 161q2 10 11 10h116q11 0 9 -10l-22 -161h63q10 0 10 -10v-100q0 -10 -10 -10h-80l-12 -89h66q10 0 10 -10v-100q0 -10 -10 -10 h-82l-23 -170q-2 -10 -11 -10h-116q-11 0 -9 10l23 170h-93l-23 -170q-2 -10 -11 -10h-116q-11 0 -9 10zM340 300l12 89h-94l-12 -89h94z" glyph-name="numbersign" horiz-adv-x="599" unicode="#"/>
<glyph d="M45 65q-9 7 -2 16l83 101q6 7 13 1q24 -20 57.5 -35t69.5 -15q40 0 62 18.5t22 52.5q0 24 -15.5 39.5t-54.5 20.5l-21 3q-95 12 -148 65t-53 138q0 41 12.5 77t35.5 64.5t55.5 48t73.5 27.5v69q0 10 10 10h83q10 0 10 -10v-67q47 -6 84.5 -21.5t65.5 -33.5q10 -7 2 -16 l-70 -101q-6 -8 -14 -3q-26 17 -51.5 25t-54.5 8q-33 0 -53.5 -17t-20.5 -46q0 -23 15 -38t56 -21l24 -3q100 -14 148.5 -67t48.5 -138q0 -87 -47.5 -146t-132.5 -76v-71q0 -10 -10 -10h-83q-10 0 -10 10v66q-58 5 -106.5 25.5t-83.5 49.5z" glyph-name="dollar" unicode="$"/>
<glyph d="M562 682q6 10 16 10h101q5 0 6 -3t-1 -7l-395 -684q-6 -10 -16 -10h-102q-5 0 -5.5 3t1.5 7zM206 330q-52 0 -87 22.5t-49 62.5q-5 14 -7.5 33.5t-2.5 60.5t2.5 60.5t7.5 33.5q14 40 49 62.5t87 22.5t87 -22.5t48 -62.5q5 -14 8 -33.5t3 -60.5t-3 -60.5t-8 -33.5 q-13 -40 -48 -62.5t-87 -22.5zM206 415q20 0 28 19q1 3 1.5 6.5t1 11t0.5 21v36.5v36t-0.5 21.5t-1 11t-1.5 6.5q-8 19 -28 19q-22 0 -28 -19q-1 -3 -1.5 -6.5t-1 -11t-0.5 -21.5v-36v-36.5t0.5 -21t1 -11t1.5 -6.5q6 -19 28 -19zM508 77q-5 14 -7.5 33t-2.5 61 q0 41 2.5 60.5t7.5 33.5q14 40 48.5 62.5t87.5 22.5q52 0 87 -22.5t48 -62.5q4 -14 7.5 -33.5t3.5 -60.5q0 -42 -3 -61t-8 -33q-13 -40 -48 -62.5t-87 -22.5q-53 0 -87.5 22.5t-48.5 62.5zM616 96q6 -19 28 -19q21 0 27 19q1 3 2 6.5t1.5 11t0.5 21v36.5v35.5t-0.5 21.5 t-1.5 11.5t-2 6.5q-6 18 -27 18q-22 0 -28 -18q-1 -3 -1.5 -6.5t-1 -11.5t-0.5 -21.5v-35.5v-36.5t0.5 -21t1 -11t1.5 -6.5z" glyph-name="percent" horiz-adv-x="850" unicode="%"/>
<glyph d="M45 174q0 27 6.5 52t21.5 49t38.5 48t56.5 50q-19 24 -32 44t-21.5 38t-12.5 35t-4 35q0 36 14.5 67t40 53t60 34.5t75.5 12.5q43 0 78 -12.5t59.5 -35t38 -53t13.5 -65.5q0 -23 -6 -43t-19.5 -40.5t-34.5 -41.5t-52 -45l72 -90l66 74q7 8 14 1l81 -71q8 -6 2 -14 l-80 -93l11 -13q15 -19 38 -19h15q10 0 10 -10v-111q0 -10 -10 -10h-51q-38 0 -62.5 11.5t-51.5 45.5q-44 -38 -84.5 -53.5t-89.5 -15.5q-48 0 -85.5 13.5t-63 38t-38.5 58.5t-13 76zM283 458q29 23 39.5 39t10.5 33q0 20 -12 33t-31 13q-20 0 -32 -13t-12 -33 q0 -14 7.5 -28.5t29.5 -43.5zM197 187q0 -27 16.5 -44.5t45.5 -18.5q20 -1 37.5 7.5t40.5 28.5l-87 110q-32 -26 -42.5 -44.5t-10.5 -38.5z" glyph-name="ampersand" horiz-adv-x="647" unicode="&amp;"/>
<glyph d="M66 455q-10 0 -10 10v205q0 10 10 10h97q10 0 10 -10v-205q0 -10 -10 -10h-97v0z" glyph-name="quotesingle" horiz-adv-x="229" unicode="'"/>
<glyph d="M181 -74q-66 91 -97.5 195t-31.5 207t31.5 207t97.5 195q8 10 15 10h96q5 0 7 -2.5t0 -7.5q-43 -91 -66 -195t-23 -207t23 -207.5t66 -194.5q2 -5 0 -7.5t-7 -2.5h-96q-7 0 -15 10z" glyph-name="parenleft" horiz-adv-x="329" unicode="("/>
<glyph d="M30 -74q43 90 66 194.5t23 207.5t-23 207t-66 195q-2 5 0 7.5t7 2.5h96q7 0 15 -10q66 -91 97.5 -195t31.5 -207t-31.5 -207t-97.5 -195q-8 -10 -15 -10h-96q-5 0 -7 2.5t0 7.5z" glyph-name="parenright" horiz-adv-x="329" unicode=")"/>
<glyph d="M167 355q-10 0 -10 10l1 78l-67 -40q-9 -5 -14 4l-34 59q-5 8 4 13l69 38l-69 39q-9 5 -4 13l34 59q5 9 14 4l67 -41l-1 79q0 10 10 10h68q10 0 10 -10l-2 -79l69 41q8 5 13 -4l34 -59q5 -8 -4 -13l-69 -39l69 -38q9 -5 4 -13l-34 -59q-5 -9 -13 -4l-69 41l2 -79 q0 -10 -10 -10h-68v0z" glyph-name="asterisk" horiz-adv-x="402" unicode="*"/>
<glyph d="M57 206q-10 0 -10 10v120q0 10 10 10h146q6 0 6 6v148q0 10 10 10h124q10 0 10 -10v-148q0 -6 6 -6h146q10 0 10 -10v-120q0 -10 -10 -10h-146q-6 0 -6 -6v-148q0 -10 -10 -10h-124q-10 0 -10 10v148q0 6 -6 6h-146v0z" glyph-name="plus" unicode="+"/>
<glyph d="M52 148q0 10 10 10h131q10 0 10 -10v-131q0 -13 -9 -21l-114 -94q-10 -7 -16 -7q-12 0 -12 11v242z" glyph-name="comma" horiz-adv-x="255" unicode=","/>
<glyph d="M52 148q0 10 10 10h139q10 0 10 -10v-138q0 -10 -10 -10h-139q-10 0 -10 10v138z" glyph-name="period" horiz-adv-x="263" unicode="."/>
<glyph d="M248 682q3 10 13 10h143q10 0 7 -10l-212 -684q-3 -10 -13 -10h-143q-10 0 -7 10z" glyph-name="slash" horiz-adv-x="446" unicode="/"/>
<glyph d="M64 134q-4 12 -7 25.5t-5 35.5t-3 56.5t-1 88.5t1 88.5t3 56.5t5 35.5t7 25.5q23 69 77.5 107.5t139.5 38.5t140 -38.5t78 -107.5q4 -12 6.5 -25.5t4.5 -35.5t3 -56.5t1 -88.5t-1 -88.5t-3 -56.5t-4.5 -35.5t-6.5 -25.5q-23 -69 -78 -107.5t-140 -38.5t-139.5 38.5 t-77.5 107.5zM226 163q12 -37 55 -37q44 0 56 37q2 6 3.5 14t2 26t1 50t0.5 87t-0.5 87t-1 50t-2 26t-3.5 14q-12 37 -56 37q-43 0 -55 -37q-2 -6 -3.5 -14t-2.5 -26t-1.5 -50t-0.5 -87t0.5 -87t1.5 -50t2.5 -26t3.5 -14z" glyph-name="zero" unicode="0"/>
<glyph d="M238 498h-2l-115 -76q-5 -3 -8.5 -1.5t-3.5 7.5v146q0 8 7 14l122 86q7 6 18 6h139q10 0 10 -10v-660q0 -10 -10 -10h-147q-10 0 -10 10v488z" glyph-name="one" unicode="1"/>
<glyph d="M58 122q0 8 5 14l239 268q19 21 28 41t9 43q0 29 -16 47.5t-45 18.5t-46.5 -18t-21.5 -58q0 -11 -11 -9l-132 20q-10 2 -8 12q2 40 19 75t46.5 61t70 40.5t90.5 14.5q49 0 89.5 -15t69.5 -41.5t44.5 -63t15.5 -78.5q0 -54 -19.5 -94.5t-54.5 -77.5l-162 -180v-2h226 q10 0 10 -10v-120q0 -10 -10 -10h-426q-10 0 -10 10v112z" glyph-name="two" unicode="2"/>
<glyph d="M49 156q-2 10 8 12l133 22q10 2 12 -8q8 -25 26 -40.5t49 -15.5q32 0 51 20t19 55q0 38 -21.5 59t-59.5 21h-27q-10 0 -10 10v116q0 10 10 10h25q33 0 52 18.5t19 51.5q0 31 -17.5 49t-46.5 18q-27 0 -43 -15t-22 -40q-2 -10 -11 -8l-133 21q-10 2 -8 12q7 36 24.5 67 t46 53.5t67.5 35t88 12.5q52 0 93 -14.5t69.5 -39.5t43 -59.5t14.5 -74.5q0 -45 -20.5 -80.5t-56.5 -59.5v-2q16 -9 32 -23t29 -34t20.5 -46.5t7.5 -60.5q0 -47 -17 -85.5t-47.5 -66t-73 -43t-93.5 -15.5q-96 0 -157.5 45t-74.5 123z" glyph-name="three" unicode="3"/>
<glyph d="M44 95q-10 0 -10 10v128q0 7 2 11l187 428q3 8 14 8h157q12 0 7 -10l-189 -429v-2h96q6 0 6 6v120q0 10 10 10h140q10 0 10 -10v-120q0 -6 5 -6h39q10 0 10 -10v-124q0 -10 -10 -10h-38q-6 0 -6 -6v-79q0 -10 -10 -10h-140q-10 0 -10 10v79q0 6 -6 6h-264v0z" glyph-name="four" unicode="4"/>
<glyph d="M65 149q0 9 9 12l130 21q10 1 13 -9q7 -20 22 -33.5t44 -13.5q43 0 57 39q7 18 7 57q0 40 -7 58q-7 21 -22 30t-36 9q-22 0 -35 -9t-20 -23q-5 -10 -14 -10h-128q-10 0 -10 10v383q0 10 10 10h396q10 0 10 -10v-120q0 -10 -10 -10h-258q-6 0 -6 -6v-114h2 q14 14 39.5 24.5t65.5 10.5q64 0 109 -27.5t64 -86.5q7 -21 11 -47.5t4 -71.5q0 -31 -4 -56.5t-11 -45.5q-21 -66 -77.5 -99t-135.5 -33q-48 0 -86.5 12t-66.5 33.5t-45 51t-21 64.5z" glyph-name="five" unicode="5"/>
<glyph d="M43 207q0 47 13.5 89t40.5 94l151 283q4 7 12 7h158q12 0 7 -11l-136 -254l1 -1q5 2 13.5 3.5t20.5 1.5q42 0 78 -15t62 -43t41 -66.5t15 -85.5q0 -51 -18 -91.5t-49.5 -69.5t-75.5 -44.5t-96 -15.5t-96 15.5t-75.5 44t-49 69t-17.5 90.5zM204 206q0 -35 21 -57.5 t56 -22.5t56.5 22.5t21.5 57.5t-21.5 58t-56.5 23t-56 -23t-21 -58z" glyph-name="six" unicode="6"/>
<glyph d="M337 532v3h-117q-6 0 -6 -6v-64q0 -10 -10 -10h-136q-10 0 -10 10v205q0 10 10 10h433q10 0 10 -10v-132q0 -4 -2 -10l-207 -518q-4 -10 -14 -10h-153q-5 0 -7.5 3t-0.5 8z" glyph-name="seven" unicode="7"/>
<glyph d="M41 199q0 57 24 95t54 59v2q-23 18 -43 52.5t-20 82.5q0 40 15 76.5t44 64.5t70.5 44.5t95.5 16.5t95.5 -16.5t70.5 -44.5t44 -64.5t15 -76.5q0 -48 -19.5 -82.5t-42.5 -52.5v-2q30 -21 53.5 -59t23.5 -95q0 -49 -18.5 -88t-51 -66.5t-76 -42t-94.5 -14.5t-94.5 14.5 t-76 42t-51 66.5t-18.5 88zM281 420q30 0 48.5 19.5t18.5 47.5t-18.5 47.5t-48.5 19.5t-48 -19.5t-18 -47.5t18 -47.5t48 -19.5zM202 205q0 -35 22 -57t57 -22t57 22t22 57t-22 57.5t-57 22.5t-57 -22.5t-22 -57.5z" glyph-name="eight" unicode="8"/>
<glyph d="M273 265l-2 1q-4 -2 -12.5 -3.5t-20.5 -1.5q-42 0 -78 15t-62 43t-41 66.5t-15 85.5q0 51 18 91.5t49.5 69.5t75.5 44.5t96 15.5t96 -15.5t75.5 -44t49 -69t17.5 -90.5q0 -47 -13.5 -89t-40.5 -94l-151 -283q-4 -7 -13 -7h-157q-13 0 -7 11zM281 393q35 0 56 23t21 58 t-21 57.5t-56 22.5t-56.5 -22.5t-21.5 -57.5t21.5 -58t56.5 -23z" glyph-name="nine" unicode="9"/>
<glyph d="M70 329q-10 0 -10 10v138q0 10 10 10h138q10 0 10 -10v-138q0 -10 -10 -10h-138zM60 148q0 10 10 10h138q10 0 10 -10v-138q0 -10 -10 -10h-138q-10 0 -10 10v138z" glyph-name="colon" horiz-adv-x="278" unicode=":"/>
<glyph d="M70 329q-10 0 -10 10v138q0 10 10 10h138q10 0 10 -10v-138q0 -10 -10 -10h-138zM64 148q0 10 10 10h131q10 0 10 -10v-131q0 -8 -2 -11.5t-7 -8.5l-115 -95q-8 -7 -16 -7q-11 0 -11 11v242z" glyph-name="semicolon" horiz-adv-x="278" unicode=";"/>
<glyph d="M58 211q-10 3 -10 14v102q0 11 10 14l448 167q10 3 10 -6v-129q0 -9 -10 -13l-243 -83v-2l243 -83q10 -4 10 -13v-129q0 -9 -10 -6l-448 167v0z" glyph-name="less" unicode="&lt;"/>
<glyph d="M57 316q-10 0 -10 10v120q0 10 10 10h448q10 0 10 -10v-120q0 -10 -10 -10h-448zM57 96q-10 0 -10 10v120q0 10 10 10h448q10 0 10 -10v-120q0 -10 -10 -10h-448z" glyph-name="equal" unicode="="/>
<glyph d="M47 179q0 9 10 13l244 83v2l-244 83q-10 4 -10 13v129q0 9 10 6l448 -167q10 -3 10 -14v-102q0 -11 -10 -14l-448 -167q-10 -3 -10 6v129z" glyph-name="greater" unicode="&gt;"/>
<glyph d="M165 210q-10 0 -10 10v41q0 27 7 46t24 38l60 71q25 26 34.5 43.5t9.5 36.5q0 24 -15 40t-41 16q-52 0 -65 -61q-2 -10 -11 -8l-129 18q-10 1 -8 11q5 40 22.5 73t45 57t65.5 37t84 13q48 0 88 -15t68 -40.5t43.5 -59.5t15.5 -73q0 -45 -17.5 -77.5t-50.5 -67.5l-53 -64 q-13 -14 -17 -26t-4 -32v-17q0 -10 -10 -10h-136zM155 136q0 10 10 10h138q10 0 10 -10v-126q0 -10 -10 -10h-138q-10 0 -10 10v126z" glyph-name="question" horiz-adv-x="483" unicode="?"/>
<glyph d="M41 262q0 94 31 171.5t86.5 132t133.5 84.5t173 30q94 0 172 -30t134 -84.5t86.5 -130.5t30.5 -168q0 -54 -16 -94.5t-42.5 -67.5t-61 -40t-72.5 -13q-51 0 -86.5 18t-52.5 48h-1q-17 -31 -47 -48.5t-89 -17.5q-112 0 -141 94q-8 22 -11 48.5t-3 70.5t3 70.5t11 49.5 q29 94 130 94q38 0 66 -14t41 -36h1v30q0 9 9 9h118q8 0 8 -9v-237q0 -29 14 -43t34 -14q27 0 43 24.5t16 77.5q0 68 -20.5 123t-58.5 94t-92.5 60.5t-122.5 21.5t-122.5 -21.5t-92.5 -61t-58.5 -96t-20.5 -125.5q0 -67 20.5 -121.5t58.5 -93.5t92.5 -60.5t122.5 -21.5 q60 0 108 13.5t90 36.5q9 6 14 -4l51 -74q5 -8 -3 -14q-54 -35 -119 -53.5t-141 -18.5q-95 0 -173 30t-133.5 84t-86.5 129.5t-31 167.5zM405 203q13 -37 54 -37t53 37q3 9 4 21t1 41t-1 41.5t-4 20.5q-12 38 -53 38q-40 0 -54 -38q-2 -8 -3.5 -20.5t-1.5 -41.5t1.5 -41 t3.5 -21z" glyph-name="at" horiz-adv-x="931" unicode="@"/>
<glyph d="M245 670q3 10 13 10h163q10 0 13 -10l230 -660q3 -10 -7 -10h-165q-10 0 -13 10l-32 105h-221l-32 -105q-3 -10 -13 -10h-164q-10 0 -7 10zM403 261l-63 212h-3l-66 -212h132z" glyph-name="A" horiz-adv-x="674" unicode="A"/>
<glyph d="M55 670q0 10 10 10h277q114 0 168 -50t54 -131q0 -53 -22.5 -89.5t-60.5 -56.5v-2q38 -14 66.5 -54.5t28.5 -100.5q0 -50 -17 -87t-48 -61t-74.5 -36t-97.5 -12h-274q-10 0 -10 10v660zM308 407q81 0 81 70t-81 70h-71q-6 0 -6 -6v-128q0 -6 6 -6h71zM231 139q0 -6 6 -6 h80q83 0 83 77q0 35 -20.5 55.5t-62.5 20.5h-80q-6 0 -6 -6v-141z" glyph-name="B" horiz-adv-x="614" unicode="B"/>
<glyph d="M59 156q-6 17 -9.5 34t-6 37.5t-3.5 47.5t-1 65t1 65t3.5 47.5t6 37.5t9.5 34q27 84 90.5 126t156.5 42q91 0 153 -40.5t91 -114.5q4 -10 -5 -14l-133 -58q-10 -4 -14 6q-14 30 -34 47t-55 17q-63 0 -82 -59q-3 -8 -4.5 -17t-3 -23.5t-2 -37.5t-0.5 -58t0.5 -58t2 -37.5 t3 -23.5t4.5 -17q19 -59 82 -59q35 0 55 17t34 47q4 10 14 6l133 -58q9 -4 5 -14q-29 -74 -91 -114.5t-153 -40.5q-93 0 -156.5 42t-90.5 126z" glyph-name="C" horiz-adv-x="574" unicode="C"/>
<glyph d="M55 670q0 10 10 10h263q91 0 153.5 -38t88.5 -117q5 -17 9 -33t6.5 -37t3.5 -48.5t1 -66.5q0 -38 -1 -65.5t-3.5 -48.5t-6.5 -38t-9 -33q-26 -79 -88.5 -117t-153.5 -38h-263q-10 0 -10 10v660zM231 162q0 -6 6 -6h53q47 0 73.5 14.5t38.5 50.5q2 7 4 16t3.5 22.5t2 32.5 t0.5 48q0 28 -0.5 47.5t-2 33t-3.5 22t-4 16.5q-12 36 -38.5 50.5t-73.5 14.5h-53q-6 0 -6 -6v-356z" glyph-name="D" horiz-adv-x="631" unicode="D"/>
<glyph d="M55 670q0 10 10 10h445q10 0 10 -10v-129q0 -10 -10 -10h-273q-6 0 -6 -6v-103q0 -6 6 -6h224q10 0 10 -10v-126q0 -10 -10 -10h-224q-6 0 -6 -6v-109q0 -6 6 -6h273q10 0 10 -10v-129q0 -10 -10 -10h-445q-10 0 -10 10v660z" glyph-name="E" horiz-adv-x="557" unicode="E"/>
<glyph d="M55 670q0 10 10 10h445q10 0 10 -10v-129q0 -10 -10 -10h-273q-6 0 -6 -6v-112q0 -6 6 -6h224q10 0 10 -10v-126q0 -10 -10 -10h-224q-6 0 -6 -6v-245q0 -10 -10 -10h-156q-10 0 -10 10v660z" glyph-name="F" horiz-adv-x="552" unicode="F"/>
<glyph d="M59 155q-6 19 -10 37.5t-6 39.5t-3 47t-1 61t1 61t3 47t6 39t10 38q27 83 96 125t160 42q94 0 156 -39.5t91 -105.5q5 -11 -5 -16l-130 -55q-10 -5 -15 4q-17 28 -39.5 41.5t-57.5 13.5t-57 -15.5t-31 -44.5q-3 -9 -5 -20t-3 -26.5t-1.5 -37t-0.5 -51.5t0.5 -52t2 -37.5 t3 -26t4.5 -19.5q10 -29 33 -44.5t60 -15.5q33 0 57.5 14t32.5 40q6 18 6 44q0 6 -6 6h-74q-10 0 -10 10v113q0 10 10 10h243q10 0 10 -10v-52q0 -49 -3.5 -87.5t-14.5 -70.5q-27 -85 -94.5 -129.5t-161.5 -44.5q-91 0 -160 42t-96 125z" glyph-name="G" horiz-adv-x="628" unicode="G"/>
<glyph d="M55 670q0 10 10 10h156q10 0 10 -10v-241q0 -6 6 -6h185q6 0 6 6v241q0 10 10 10h156q10 0 10 -10v-660q0 -10 -10 -10h-156q-10 0 -10 10v251q0 6 -6 6h-185q-6 0 -6 -6v-251q0 -10 -10 -10h-156q-10 0 -10 10v660z" glyph-name="H" horiz-adv-x="659" unicode="H"/>
<glyph d="M55 670q0 10 10 10h156q10 0 10 -10v-660q0 -10 -10 -10h-156q-10 0 -10 10v660z" glyph-name="I" horiz-adv-x="286" unicode="I"/>
<glyph d="M18 81q-5 8 1 14l111 88q8 6 14 -2q14 -15 32 -25.5t43 -10.5q86 0 86 100v425q0 10 10 10h156q10 0 10 -10v-411q0 -136 -67.5 -203.5t-192.5 -67.5q-66 0 -121.5 26t-81.5 67z" glyph-name="J" horiz-adv-x="534" unicode="J"/>
<glyph d="M55 670q0 10 10 10h156q10 0 10 -10v-266l195 267q7 9 17 9h176q6 0 7.5 -4t-1.5 -9l-203 -263l215 -393q2 -4 0.5 -7.5t-6.5 -3.5h-179q-12 0 -16 9l-132 256l-73 -97v-158q0 -10 -10 -10h-156q-10 0 -10 10v660z" glyph-name="K" horiz-adv-x="657" unicode="K"/>
<glyph d="M55 670q0 10 10 10h156q10 0 10 -10v-508q0 -6 6 -6h288q10 0 10 -10v-136q0 -10 -10 -10h-460q-10 0 -10 10v660z" glyph-name="L" horiz-adv-x="554" unicode="L"/>
<glyph d="M55 670q0 10 10 10h148q13 0 17 -10l157 -355h4l153 355q4 10 17 10h146q10 0 10 -10v-660q0 -10 -10 -10h-139q-10 0 -10 10v350h-5l-109 -254q-4 -8 -9 -10.5t-10 -2.5h-78q-11 0 -19 13l-109 254h-5v-350q0 -10 -10 -10h-139q-10 0 -10 10v660z" glyph-name="M" horiz-adv-x="772" unicode="M"/>
<glyph d="M55 670q0 10 10 10h147q13 0 17 -10l205 -385h4v385q0 10 10 10h140q10 0 10 -10v-660q0 -10 -10 -10h-147q-13 0 -17 10l-203 384h-6v-384q0 -10 -10 -10h-140q-10 0 -10 10v660z" glyph-name="N" horiz-adv-x="653" unicode="N"/>
<glyph d="M314 -12q-90 0 -159 42t-96 125q-6 19 -10 37.5t-6 39.5t-3 47t-1 61t1 61t3 47t6 39t10 38q27 83 96 125t159 42t159 -42t96 -125q6 -20 10 -38t6.5 -39t3 -47t0.5 -61t-0.5 -61t-3 -47t-6.5 -39.5t-10 -37.5q-27 -83 -96 -125t-159 -42zM314 145q33 0 55.5 15.5 t31.5 44.5q3 9 5 19.5t3 26t1.5 37.5t0.5 52t-0.5 52t-1.5 37.5t-3 26t-5 19.5q-9 29 -31.5 44.5t-55.5 15.5t-55.5 -15.5t-31.5 -44.5q-3 -9 -5 -19.5t-3 -26t-1.5 -37.5t-0.5 -52t0.5 -52t1.5 -37.5t3 -26t5 -19.5q9 -29 31.5 -44.5t55.5 -15.5z" glyph-name="O" horiz-adv-x="628" unicode="O"/>
<glyph d="M65 0q-10 0 -10 10v660q0 10 10 10h272q62 0 109.5 -17t79 -47t47.5 -71.5t16 -90.5t-16 -90.5t-48 -72t-79 -47.5t-109 -17h-100q-6 0 -6 -6v-211q0 -10 -10 -10h-156zM327 376q42 0 64 21.5t22 56.5t-22 56t-64 21h-90q-6 0 -6 -6v-143q0 -6 6 -6h90z" glyph-name="P" horiz-adv-x="612" unicode="P"/>
<glyph d="M531 -53q-8 -7 -15 0l-66 70q-61 -29 -136 -29q-91 0 -159.5 41.5t-95.5 125.5q-6 19 -10 37.5t-6.5 39.5t-3 47t-0.5 61t0.5 61t3 47t6.5 39t10 38q27 84 95.5 125.5t159.5 41.5q90 0 159 -42t96 -125q6 -20 10 -38t6 -39t3 -47t1 -61t-1 -61t-3 -47t-6 -39.5t-10 -37.5 q-2 -5 -3.5 -9t-3.5 -9l74 -76q7 -8 0 -15zM314 144q33 0 55.5 16t31.5 45q3 9 5 19.5t3 26t1.5 37.5t0.5 52t-0.5 52t-1.5 37.5t-3 26t-5 19.5q-9 29 -31.5 45t-55.5 16t-55.5 -16t-32.5 -45q-3 -9 -4.5 -19.5t-2.5 -26t-1.5 -37.5t-0.5 -52t0.5 -52t1.5 -37.5t2.5 -26 t4.5 -19.5q10 -29 32.5 -45t55.5 -16z" glyph-name="Q" horiz-adv-x="628" unicode="Q"/>
<glyph d="M420 0q-11 0 -15 10l-103 232h-65q-6 0 -6 -6v-226q0 -10 -10 -10h-156q-10 0 -10 10v660q0 10 10 10h277q58 0 104 -16t77 -45.5t47.5 -69.5t16.5 -88q0 -64 -29 -113.5t-83 -76.5l125 -259q2 -5 0 -8.5t-7 -3.5h-173zM331 387q38 0 59 19.5t21 52.5t-21 52.5t-59 19.5 h-94q-6 0 -6 -6v-132q0 -6 6 -6h94z" glyph-name="R" horiz-adv-x="629" unicode="R"/>
<glyph d="M300 -12q-42 0 -82.5 8t-77 21.5t-66 31t-48.5 36.5q-9 8 -1 16l90 106q7 8 14 1q31 -27 76.5 -47.5t96.5 -20.5q48 0 72 17.5t24 46.5q0 22 -18 36t-68 21l-36 5q-111 16 -169 67t-58 147q0 48 18 87t51 66.5t79.5 43t104.5 15.5q71 0 134 -20t109 -55q8 -6 2 -15 l-75 -109q-6 -8 -14 -3q-36 24 -74 37.5t-79 13.5q-38 0 -56.5 -16t-18.5 -41q0 -23 19 -37t68 -20l36 -5q112 -16 168.5 -67.5t56.5 -148.5q0 -47 -18 -87t-53 -69t-87 -45.5t-120 -16.5z" glyph-name="S" horiz-adv-x="605" unicode="S"/>
<glyph d="M205 0h-3q-2 0 -5 3q-2 2 -2 4v3v508q0 4 -5 6h-1h-167h-3q-2 0 -4 2l-1 1l-1 1q-1 2 -1 6v136q0 8 7 10h3h522q4 0 7 -3l1 -2q2 -2 2 -5v-136q0 -5 -3 -8q-2 -2 -5 -2h-2h-167q-3 0 -4 -1l-2 -2v-3v-508v-3q-1 -3 -5 -6q-1 -1 -5 -1h-156z" glyph-name="T" horiz-adv-x="566" unicode="T"/>
<glyph d="M324 -12q-62 0 -112 17.5t-85.5 52t-54.5 86t-19 119.5v407q0 10 10 10h156q10 0 10 -10v-418q0 -51 26 -79t69 -28q45 0 69.5 28t24.5 79v418q0 10 10 10h156q10 0 10 -10v-407q0 -68 -19.5 -119.5t-55 -86t-85 -52t-110.5 -17.5z" glyph-name="U" horiz-adv-x="647" unicode="U"/>
<glyph d="M239 0q-10 0 -13 10l-217 659q-4 11 9 11h164q10 0 13 -10l121 -410h3l117 410q3 10 13 10h163q12 0 8 -11l-217 -659q-3 -10 -13 -10h-151z" glyph-name="V" horiz-adv-x="629" unicode="V"/>
<glyph d="M575 0q-10 0 -13 10l-107 380h-2l-108 -380q-3 -10 -13 -10h-125q-10 0 -13 10l-185 660q-2 10 8 10h164q11 0 13 -10l88 -396h2l106 396q3 10 13 10h103q10 0 13 -10l109 -396h2l85 396q2 10 12 10h164q10 0 7 -10l-184 -660q-3 -10 -14 -10h-125z" glyph-name="W" horiz-adv-x="907" unicode="W"/>
<glyph d="M432 0q-11 0 -17 10l-107 183h-2l-107 -183q-6 -10 -17 -10h-168q-12 0 -6 11l204 340l-191 318q-6 11 6 11h168q11 0 17 -10l94 -161h2l94 161q6 10 17 10h168q13 0 6 -11l-190 -318l203 -340q7 -11 -6 -11h-168z" glyph-name="X" horiz-adv-x="616" unicode="X"/>
<glyph d="M223 0q-10 0 -10 10v253l-206 406q-4 11 8 11h157q10 0 16 -10l114 -232h3l112 232q4 10 16 10h154q12 0 8 -11l-206 -406v-253q0 -10 -10 -10h-156z" glyph-name="Y" horiz-adv-x="602" unicode="Y"/>
<glyph d="M45 0q-10 0 -10 10v134q0 5 3 10l282 367v3h-264q-10 0 -10 10v136q0 10 10 10h460q10 0 10 -10v-134q0 -6 -3 -10l-282 -367v-3h275q10 0 10 -10v-136q0 -10 -10 -10h-471z" glyph-name="Z" unicode="Z"/>
<glyph d="M64 -84q-10 0 -10 10v804q0 10 10 10h213q10 0 10 -10v-104q0 -10 -10 -10h-73q-6 0 -6 -6v-564q0 -6 6 -6h73q10 0 10 -10v-104q0 -10 -10 -10h-213z" glyph-name="bracketleft" horiz-adv-x="312" unicode="["/>
<glyph d="M261 -12q-10 0 -13 10l-212 684q-3 10 7 10h143q10 0 13 -10l212 -684q3 -10 -7 -10h-143z" glyph-name="backslash" horiz-adv-x="446" unicode="\"/>
<glyph d="M35 -84q-10 0 -10 10v104q0 10 10 10h73q6 0 6 6v564q0 6 -6 6h-73q-10 0 -10 10v104q0 10 10 10h213q10 0 10 -10v-804q0 -10 -10 -10h-213z" glyph-name="bracketright" horiz-adv-x="312" unicode="]"/>
<glyph d="M376 243q-10 0 -14 10l-80 224h-2l-80 -224q-3 -10 -13 -10h-135q-10 0 -7 10l167 417q5 10 14 10h111q9 0 14 -10l166 -417q5 -10 -6 -10h-135z" glyph-name="asciicircum" unicode="^"/>
<glyph d="M0 -169v111h550v-111h-550z" glyph-name="underscore" horiz-adv-x="550" unicode="_"/>
<glyph d="M243 546q-10 0 -17 10l-103 136q-3 4 -1.5 7t6.5 3h139q11 0 17 -10l80 -136q5 -10 -5 -10h-116z" glyph-name="grave" horiz-adv-x="489" unicode="`"/>
<glyph d="M334 0q-10 0 -10 10v28h-1q-20 -23 -51.5 -36.5t-79.5 -13.5q-31 0 -59.5 8.5t-50.5 27t-35 47t-13 67.5q0 41 15.5 71t43 50t65.5 29.5t83 9.5h77q6 0 6 6v13q0 27 -19 39t-75 12q-33 0 -60.5 -8t-44.5 -20q-9 -5 -13 3l-52 92q-4 10 3 16q33 23 81 35.5t108 12.5 q64 0 108 -11t71 -33.5t39 -56.5t12 -81v-307q0 -10 -10 -10h-138zM248 108q76 0 76 52v30q0 6 -6 6h-59q-68 0 -68 -46q0 -42 57 -42z" glyph-name="a" horiz-adv-x="532" unicode="a"/>
<glyph d="M347 -12q-47 0 -77.5 16t-47.5 42h-1v-36q0 -10 -10 -10h-148q-10 0 -10 10v660q0 10 10 10h148q10 0 10 -10v-229h1q17 26 47.5 42t77.5 16q62 0 102 -30t59 -87q9 -29 13 -61t4 -78q0 -45 -4 -77t-13 -61q-19 -57 -59 -87t-102 -30zM288 126q45 0 60 41q4 12 5.5 28 t1.5 48t-1.5 48.5t-5.5 28.5q-15 41 -60 41q-46 0 -59 -41q-5 -12 -6.5 -28.5t-1.5 -48.5t1.5 -48t6.5 -28q13 -41 59 -41z" glyph-name="b" horiz-adv-x="557" unicode="b"/>
<glyph d="M263 -12q-79 0 -136.5 36t-80.5 107q-8 21 -11 47.5t-3 64.5t3 65t11 48q23 71 80.5 107t136.5 36q74 0 126.5 -32t75.5 -80q4 -9 -4 -14l-112 -58q-4 -2 -8.5 -2t-6.5 5q-13 23 -28 33t-38 10q-44 0 -59 -42q-4 -11 -5.5 -27.5t-1.5 -48.5q0 -31 1.5 -47.5t5.5 -27.5 q15 -42 59 -42q23 0 38 10t28 33q2 5 6.5 5t8.5 -2l112 -58q8 -5 4 -14q-23 -48 -75.5 -80t-126.5 -32z" glyph-name="c" horiz-adv-x="493" unicode="c"/>
<glyph d="M346 0q-10 0 -10 10v36h-1q-17 -26 -47.5 -42t-77.5 -16q-62 0 -102 30t-59 87q-9 29 -13 61t-4 77q0 46 4 78t13 61q19 57 59 87t102 30q47 0 77.5 -16t47.5 -42h1v229q0 10 10 10h148q10 0 10 -10v-660q0 -10 -10 -10h-148zM269 126q46 0 59 41q5 12 6.5 28t1.5 48 t-1.5 48.5t-6.5 28.5q-13 41 -59 41q-45 0 -60 -41q-4 -12 -5.5 -28.5t-1.5 -48.5t1.5 -48t5.5 -28q15 -41 60 -41z" glyph-name="d" horiz-adv-x="557" unicode="d"/>
<glyph d="M275 -12q-90 0 -147.5 37.5t-79.5 105.5q-8 22 -12 48t-4 64q0 39 4 65.5t11 47.5q23 69 79.5 106t138.5 37q88 0 143.5 -37t76.5 -104q4 -11 7 -24.5t5 -31t3 -41t1 -55.5q0 -10 -11 -10h-289q-6 0 -6 -6q1 -5 1.5 -10t2.5 -10q8 -26 33.5 -39.5t60.5 -13.5q61 0 109 39 q8 7 15 0l71 -73q4 -3 3.5 -7.5t-4.5 -7.5q-38 -37 -92 -58.5t-120 -21.5zM333 298q6 0 6 6q0 19 -4 30q-14 44 -68 44q-26 0 -43.5 -11.5t-24.5 -32.5q-2 -6 -3 -13t-1 -17q0 -6 6 -6h132z" glyph-name="e" horiz-adv-x="533" unicode="e"/>
<glyph d="M84 0q-10 0 -10 10v351q0 6 -6 6h-28q-10 0 -10 10v100q0 10 10 10h28q6 0 6 6v14q0 93 42.5 133t137.5 40h66q10 0 10 -10v-108q0 -10 -10 -10h-29q-30 0 -40 -9.5t-10 -34.5v-15q0 -6 6 -6h71q10 0 10 -10v-100q0 -10 -10 -10h-71q-6 0 -6 -6v-351q0 -10 -10 -10h-147z " glyph-name="f" horiz-adv-x="351" unicode="f"/>
<glyph d="M240 -192q-29 0 -57.5 6t-54 16.5t-46 24.5t-33.5 29q-6 7 1 15l84 86q7 7 15 0q22 -18 44.5 -28.5t51.5 -10.5q45 0 65.5 24t20.5 75v37h-1q-16 -26 -47.5 -41.5t-76.5 -15.5q-122 0 -160 117q-8 25 -12 53.5t-4 66.5t4 66t12 54q19 57 59.5 87t100.5 30q45 0 76.5 -16 t47.5 -42h1v36q0 10 10 10h148q10 0 10 -10v-402q0 -141 -66 -204t-193 -63zM265 162q46 0 59 43q3 11 5 23.5t2 33.5q0 20 -2 33t-5 24q-7 21 -21 31.5t-38 10.5q-45 0 -58 -42q-4 -11 -5.5 -24t-1.5 -33q0 -21 1.5 -33.5t5.5 -23.5q13 -43 58 -43z" glyph-name="g" horiz-adv-x="552" unicode="g"/>
<glyph d="M350 0q-10 0 -10 10v278q0 32 -14.5 51.5t-44.5 19.5q-29 0 -44.5 -19t-15.5 -52v-278q0 -10 -10 -10h-148q-10 0 -10 10v660q0 10 10 10h148q10 0 10 -10v-228h1q17 24 48 40.5t77 16.5q42 0 72 -13.5t50 -37.5t29.5 -57.5t9.5 -73.5v-307q0 -10 -10 -10h-148z" glyph-name="h" horiz-adv-x="558" unicode="h"/>
<glyph d="M63 550q-10 0 -10 10v110q0 10 10 10h148q10 0 10 -10v-110q0 -10 -10 -10h-148zM63 0q-10 0 -10 10v467q0 10 10 10h148q10 0 10 -10v-467q0 -10 -10 -10h-148z" glyph-name="i" horiz-adv-x="274" unicode="i"/>
<glyph d="M63 550q-10 0 -10 10v110q0 10 10 10h148q10 0 10 -10v-110q0 -10 -10 -10h-148zM-16 -180q-10 0 -10 10v118q0 10 10 10h15q30 0 42 10t12 45v464q0 10 10 10h148q10 0 10 -10v-464q0 -104 -51.5 -148.5t-147.5 -44.5h-38z" glyph-name="j" horiz-adv-x="274" unicode="j"/>
<glyph d="M366 0q-11 0 -15 10l-95 188l-36 -48v-140q0 -10 -10 -10h-147q-10 0 -10 10v660q0 10 10 10h147q10 0 10 -10v-342l114 149q9 10 19 10h153q5 0 6 -3.5t-2 -6.5l-143 -166l163 -301q2 -4 1 -7t-6 -3h-159z" glyph-name="k" horiz-adv-x="540" unicode="k"/>
<glyph d="M220 -6q-91 0 -130 39.5t-39 131.5v505q0 10 10 10h148q10 0 10 -10v-488q0 -48 41 -48h21q10 0 10 -10v-120q0 -10 -10 -10h-61z" glyph-name="l" horiz-adv-x="315" unicode="l"/>
<glyph d="M637 0q-10 0 -10 10v278q0 32 -15 51.5t-45 19.5q-28 0 -43.5 -19t-15.5 -52v-278q0 -10 -10 -10h-148q-10 0 -10 10v278q0 32 -14.5 51.5t-44.5 19.5q-29 0 -44.5 -19t-15.5 -52v-278q0 -10 -10 -10h-148q-10 0 -10 10v467q0 10 10 10h148q10 0 10 -10v-35h1 q17 24 48 40.5t77 16.5q45 0 76.5 -15.5t51.5 -44.5h1q25 27 61.5 43.5t87.5 16.5q87 0 128.5 -49t41.5 -133v-307q0 -10 -10 -10h-148z" glyph-name="m" horiz-adv-x="845" unicode="m"/>
<glyph d="M350 0q-10 0 -10 10v278q0 32 -14.5 51.5t-44.5 19.5q-29 0 -44.5 -19t-15.5 -52v-278q0 -10 -10 -10h-148q-10 0 -10 10v467q0 10 10 10h148q10 0 10 -10v-35h1q17 24 48 40.5t77 16.5q42 0 72 -13.5t50 -37.5t29.5 -57.5t9.5 -73.5v-307q0 -10 -10 -10h-148z" glyph-name="n" horiz-adv-x="558" unicode="n"/>
<glyph d="M269 -12q-81 0 -140 35.5t-82 105.5q-8 27 -11.5 54.5t-3.5 59.5q0 33 3.5 60.5t11.5 54.5q23 70 82 105.5t140 35.5t140 -35.5t82 -105.5q8 -27 11.5 -54.5t3.5 -60.5q0 -32 -3.5 -59.5t-11.5 -54.5q-23 -70 -82 -105.5t-140 -35.5zM269 126q45 0 60 41q4 14 5.5 29.5 t1.5 46.5t-1.5 47t-5.5 30q-15 41 -60 41t-60 -41q-4 -14 -5.5 -30t-1.5 -47t1.5 -46.5t5.5 -29.5q15 -41 60 -41z" glyph-name="o" horiz-adv-x="538" unicode="o"/>
<glyph d="M63 -180q-10 0 -10 10v647q0 10 10 10h148q10 0 10 -10v-36h1q17 26 47.5 42t77.5 16q62 0 102 -30t59 -87q9 -29 13 -61t4 -78q0 -45 -4 -77t-13 -61q-19 -57 -59 -87t-102 -30q-47 0 -77.5 16t-47.5 42h-1v-216q0 -10 -10 -10h-148zM288 126q45 0 60 41q4 12 5.5 28 t1.5 48t-1.5 48.5t-5.5 28.5q-15 41 -60 41q-46 0 -59 -41q-5 -12 -6.5 -28.5t-1.5 -48.5t1.5 -48t6.5 -28q13 -41 59 -41z" glyph-name="p" horiz-adv-x="557" unicode="p"/>
<glyph d="M346 -180q-10 0 -10 10v216h-1q-17 -26 -47.5 -42t-77.5 -16q-62 0 -102 30t-59 87q-9 29 -13 61t-4 77q0 46 4 78t13 61q19 57 59 87t102 30q47 0 77.5 -16t47.5 -42h1v36q0 10 10 10h148q10 0 10 -10v-647q0 -10 -10 -10h-148zM269 126q46 0 59 41q5 12 6.5 28t1.5 48 t-1.5 48.5t-6.5 28.5q-13 41 -59 41q-45 0 -60 -41q-4 -12 -5.5 -28.5t-1.5 -48.5t1.5 -48t5.5 -28q15 -41 60 -41z" glyph-name="q" horiz-adv-x="557" unicode="q"/>
<glyph d="M63 0q-10 0 -10 10v467q0 10 10 10h148q10 0 10 -10v-43h1q17 32 50 48.5t76 16.5t67 -19q8 -4 5 -13l-57 -141q-5 -6 -14 -1q-37 23 -71 19q-29 -2 -43 -24t-14 -61v-249q0 -10 -10 -10h-148z" glyph-name="r" horiz-adv-x="429" unicode="r"/>
<glyph d="M255 -12q-77 0 -135.5 21.5t-96.5 53.5q-8 7 -1 14l71 85q6 6 14 2q79 -52 158 -52q32 0 47 10t15 25q0 13 -11.5 20t-49.5 12l-54 5q-81 9 -124.5 47.5t-43.5 107.5q0 72 55 116t155 44q67 0 121 -17.5t89 -43.5q7 -6 2 -15l-63 -80q-6 -8 -15 -3q-27 17 -62 27.5 t-74 10.5q-26 0 -38.5 -8t-12.5 -22q0 -12 10.5 -19.5t45.5 -10.5l54 -6q95 -10 134.5 -51t38.5 -103q-1 -77 -60.5 -123.5t-168.5 -46.5z" glyph-name="s" horiz-adv-x="512" unicode="s"/>
<glyph d="M243 -6q-96 0 -136.5 43t-40.5 141v183q0 6 -6 6h-28q-10 0 -10 10v100q0 10 10 10h28q6 0 6 6v127q0 10 10 10h146q10 0 10 -10v-127q0 -6 6 -6h61q10 0 10 -10v-100q0 -10 -10 -10h-61q-6 0 -6 -6v-176q0 -29 10 -40t35 -11h22q10 0 10 -10v-120q0 -10 -10 -10h-56z " glyph-name="t" horiz-adv-x="341" unicode="t"/>
<glyph d="M344 0q-10 0 -10 10v35h-1q-18 -25 -48.5 -41t-75.5 -16q-42 0 -72 13.5t-49.5 37.5t-29 57.5t-9.5 73.5v307q0 10 10 10h148q10 0 10 -10v-278q0 -32 15 -51.5t44 -19.5t43.5 19t14.5 52v278q0 10 10 10h148q10 0 10 -10v-467q0 -10 -10 -10h-148z" glyph-name="u" horiz-adv-x="555" unicode="u"/>
<glyph d="M196 0q-9 0 -12 10l-174 467q-3 10 8 10h154q11 0 14 -10l81 -260h2l78 260q3 10 14 10h153q11 0 8 -10l-174 -467q-3 -10 -13 -10h-139z" glyph-name="v" horiz-adv-x="532" unicode="v"/>
<glyph d="M475 0q-9 0 -12 10l-75 250h-2l-76 -250q-3 -10 -12 -10h-116q-9 0 -12 10l-158 466q-4 11 8 11h149q11 0 14 -10l67 -257h2l75 257q3 10 13 10h95q11 0 14 -10l75 -257h2l63 257q3 10 15 10h149q11 0 7 -11l-157 -466q-3 -10 -12 -10h-116z" glyph-name="w" horiz-adv-x="772" unicode="w"/>
<glyph d="M356 0q-10 0 -16 9l-73 115h-1l-73 -115q-6 -9 -16 -9h-158q-5 0 -6.5 3t0.5 7l163 242l-151 225q-2 4 -0.5 7t7.5 3h159q11 0 16 -9l60 -97h1l61 97q6 9 16 9h157q6 0 7.5 -3t-0.5 -7l-151 -225l164 -242q2 -4 0 -7t-7 -3h-159z" glyph-name="x" horiz-adv-x="535" unicode="x"/>
<glyph d="M96 -180q-10 0 -10 10v118q0 10 10 10h25q24 0 38 9t22 32l11 31l-183 447q-4 10 7 10h157q9 0 12 -10l84 -244h2l78 244q3 10 13 10h153q11 0 7 -10l-211 -532q-14 -36 -30.5 -60.5t-37.5 -38.5t-48 -20t-62 -6h-37z" glyph-name="y" horiz-adv-x="531" unicode="y"/>
<glyph d="M50 0q-10 0 -10 10v108q0 5 3 10l215 223v3h-197q-10 0 -10 10v113q0 10 10 10h385q10 0 10 -10v-113q0 -6 -3 -10l-214 -218v-3h207q10 0 10 -10v-113q0 -10 -10 -10h-396z" glyph-name="z" horiz-adv-x="494" unicode="z"/>
<glyph d="M256 -84q-133 0 -133 126v138q0 44 -16.5 64.5t-52.5 20.5q-10 0 -10 10v109q0 10 10 10q36 0 52.5 20t16.5 64v136q0 126 133 126h74q10 0 10 -10v-104q0 -10 -10 -10h-24q-42 0 -42 -44v-113q0 -56 -16.5 -85t-55.5 -44v-1q39 -15 55.5 -44t16.5 -85v-116q0 -44 42 -44 h24q10 0 10 -10v-104q0 -10 -10 -10h-74z" glyph-name="braceleft" horiz-adv-x="367" unicode="{"/>
<glyph d="M106 -84q-10 0 -10 10v804q0 10 10 10h125q10 0 10 -10v-804q0 -10 -10 -10h-125z" glyph-name="bar" horiz-adv-x="337" unicode="|"/>
<glyph d="M37 -84q-10 0 -10 10v104q0 10 10 10h24q42 0 42 44v116q0 56 16.5 85t55.5 44v1q-39 15 -55.5 44t-16.5 85v113q0 44 -42 44h-24q-10 0 -10 10v104q0 10 10 10h74q133 0 133 -126v-136q0 -44 16.5 -64t52.5 -20q10 0 10 -10v-109q0 -10 -10 -10q-36 0 -52.5 -20.5 t-16.5 -64.5v-138q0 -126 -133 -126h-74z" glyph-name="braceright" horiz-adv-x="367" unicode="}"/>
<glyph d="M370 183q-33 0 -57 9.5t-45 22.5q-17 11 -31.5 18t-31.5 7q-22 0 -37 -13t-26 -33q-2 -4 -6 -5t-8 2l-81 51q-7 4 -4 14q22 48 61 80t88 32q34 0 57.5 -9.5t44.5 -23.5q17 -11 32 -18t32 -7q22 0 36.5 13t25.5 33q5 9 14 4l82 -52q8 -5 3 -14q-21 -48 -60.5 -79.5 t-88.5 -31.5z" glyph-name="asciitilde" unicode="~"/>
<glyph d="M211 277q10 0 10 -10l24 -450q0 -10 -10 -10h-153q-10 0 -10 10l24 450q0 10 10 10h105zM237 351q0 -10 -10 -10h-138q-10 0 -10 10v126q0 10 10 10h138q10 0 10 -10v-126z" glyph-name="exclamdown" horiz-adv-x="317" unicode="¡"/>
<glyph d="M230 243q0 -31 2 -47.5t6 -27.5q13 -42 64 -42q25 0 40.5 10t27.5 33q2 5 6.5 5t9.5 -2l112 -58q8 -5 4 -14q-20 -41 -61.5 -70.5t-99.5 -38.5v-78q0 -10 -10 -10h-79q-10 0 -10 10v80q-61 10 -104.5 44.5t-62.5 93.5q-7 21 -10.5 47.5t-3.5 64.5t3.5 65t10.5 48 q19 58 62.5 92.5t104.5 45.5v79q0 10 10 10h79q10 0 10 -10v-77q58 -9 99.5 -39t61.5 -70q4 -9 -4 -14l-112 -58q-5 -2 -9.5 -2t-6.5 5q-12 23 -27.5 33t-40.5 10q-51 0 -64 -42q-4 -11 -6 -27.5t-2 -48.5z" glyph-name="cent" unicode="¢"/>
<glyph d="M78 0q-10 0 -10 10v116q0 8 5 13q17 15 26 31.5t9 48.5v38q0 6 -6 6h-34q-10 0 -10 10v96q0 10 10 10h34q6 0 6 6v105q0 97 54.5 149.5t150.5 52.5q42 0 75.5 -11.5t58.5 -31.5t39.5 -47.5t19.5 -58.5q2 -10 -8 -12l-129 -27q-10 -2 -12 8q-8 42 -42 42q-40 0 -40 -52 v-117q0 -6 6 -6h125q10 0 10 -10v-96q0 -10 -10 -10h-125q-6 0 -6 -6v-27q0 -60 -29 -89v-2h251q10 0 10 -10v-119q0 -10 -10 -10h-419z" glyph-name="sterling" unicode="£"/>
<glyph d="M448 36q-8 -6 -14 0l-61 61q-42 -21 -92 -21q-51 0 -91 21l-60 -60q-7 -7 -14 0l-84 85q-6 6 0 14l60 59q-19 39 -19 89q0 46 19 89l-60 61q-8 6 0 14l83 84q8 6 14 0l61 -61q20 10 43 15.5t48 5.5t48 -5.5t43 -15.5l61 61q7 7 14 0l84 -84q7 -7 0 -14l-62 -62 q20 -42 20 -88t-19 -89l61 -60q8 -8 0 -14zM281 195q38 0 62.5 25.5t24.5 63.5t-24.5 63.5t-62.5 25.5t-62 -25.5t-24 -63.5t24 -63.5t62 -25.5z" glyph-name="currency" unicode="¤"/>
<glyph d="M208 0q-10 0 -10 10v112q0 6 -6 6h-112q-10 0 -10 10v62q0 10 10 10h112q6 0 6 6v29q0 6 -6 6h-112q-10 0 -10 10v62q0 10 10 10h87v2l-145 335q-4 10 7 10h156q11 0 15 -10l82 -237h3l81 237q3 10 15 10h153q11 0 7 -10l-145 -335v-2h87q10 0 10 -10v-62q0 -10 -10 -10 h-112q-6 0 -6 -6v-29q0 -6 6 -6h112q10 0 10 -10v-62q0 -10 -10 -10h-112q-6 0 -6 -6v-112q0 -10 -10 -10h-147z" glyph-name="yen" unicode="¥"/>
<glyph d="M106 388q-10 0 -10 10v332q0 10 10 10h125q10 0 10 -10v-332q0 -10 -10 -10h-125zM106 -84q-10 0 -10 10v336q0 10 10 10h125q10 0 10 -10v-336q0 -10 -10 -10h-125z" glyph-name="brokenbar" horiz-adv-x="337" unicode="¦"/>
<glyph d="M262 -194q-46 0 -81.5 12t-60.5 32.5t-39 47.5t-17 58q-2 10 7 11l124 19q10 2 11 -8q2 -20 14.5 -34t38.5 -14t39 12.5t13 33.5q0 26 -19.5 44t-77.5 34q-83 23 -123 70.5t-40 125.5q0 49 22.5 86.5t60.5 61.5v2q-61 44 -61 127q0 34 13.5 64.5t39 53t62 36t81.5 13.5 q46 0 81.5 -13t59.5 -34t37.5 -48.5t16.5 -56.5q2 -10 -7 -11l-122 -18q-9 -2 -11 7q-3 23 -16 36.5t-36 13.5t-36.5 -12.5t-13.5 -32.5q0 -26 21 -43t75 -32q80 -23 121 -70t41 -126q0 -51 -24.5 -89t-58.5 -59v-2q33 -23 48 -55.5t15 -77.5q0 -35 -14 -65t-39.5 -52.5 t-62 -35t-82.5 -12.5zM266 181q30 0 47.5 19.5t17.5 51.5t-17.5 51.5t-47.5 19.5q-31 0 -48.5 -19.5t-17.5 -51.5t17.5 -51.5t48.5 -19.5z" glyph-name="section" horiz-adv-x="531" unicode="§"/>
<glyph d="M293 550q-10 0 -10 10v110q0 10 10 10h108q10 0 10 -10v-110q0 -10 -10 -10h-108zM88 550q-10 0 -10 10v110q0 10 10 10h108q10 0 10 -10v-110q0 -10 -10 -10h-108z" glyph-name="dieresis" horiz-adv-x="489" unicode="¨"/>
<glyph d="M397 -13q-75 0 -139.5 26.5t-112 74t-74 112t-26.5 139.5q0 76 26.5 140.5t74 111.5t112 74t139.5 27t139.5 -27t112 -74t74 -111.5t26.5 -140.5q0 -75 -26.5 -139.5t-74 -112t-112 -74t-139.5 -26.5zM397 71q58 0 107 20t84 56t55 85t20 107t-20 107.5t-55 85.5t-84 56 t-107 20t-107 -20t-84 -56t-55 -85.5t-20 -107.5t20 -107t55 -85t84 -56t107 -20zM404 145q-62 0 -108.5 27.5t-64.5 84.5q-5 15 -7.5 34t-2.5 50q0 30 2.5 49t7.5 34q18 57 64.5 84.5t108.5 27.5q57 0 98.5 -23.5t59.5 -59.5q2 -4 1.5 -7.5t-5.5 -5.5l-85 -44q-9 -4 -14 4 q-10 17 -22 23.5t-29 6.5q-18 0 -31.5 -8.5t-18.5 -25.5q-2 -8 -3.5 -18.5t-1.5 -36.5t1.5 -37t3.5 -19q5 -17 18.5 -25.5t31.5 -8.5q17 0 29 7t22 24q5 7 14 3l85 -43q10 -5 4 -14q-18 -35 -59.5 -59t-98.5 -24z" glyph-name="copyright" horiz-adv-x="794" unicode="©"/>
<glyph d="M229 392q-10 0 -10 10v14h-2q-24 -30 -80 -30q-20 0 -38.5 5t-32.5 16t-22.5 27.5t-8.5 39.5q0 47 34.5 72t96.5 25h46q6 0 6 6v5q0 12 -12 18.5t-44 6.5q-19 0 -37.5 -5t-29.5 -13q-9 -6 -14 4l-31 53q-5 9 3 14q23 14 53.5 21.5t68.5 7.5q81 0 116 -25.5t35 -82.5v-179 q0 -10 -10 -10h-87zM171 461q47 0 47 29v10q0 6 -6 6h-38q-18 0 -26 -6.5t-8 -16.5q0 -22 31 -22z" glyph-name="ordfeminine" horiz-adv-x="367" unicode="ª"/>
<glyph d="M282 257q-7 7 0 14l237 234q3 3 6.5 2t3.5 -6v-138q0 -6 -2.5 -10t-7.5 -9l-77 -76q-4 -4 0 -8l77 -76q5 -5 7.5 -9t2.5 -10v-138q0 -5 -3.5 -6t-6.5 2zM22 257q-7 7 0 14l236 234q3 3 6.5 2t3.5 -6v-138q0 -10 -10 -19l-76 -76q-4 -4 0 -8l76 -76q10 -9 10 -19v-138 q0 -5 -3.5 -6t-6.5 2z" glyph-name="guillemotleft" horiz-adv-x="586" unicode="«"/>
<glyph d="M382 76q-10 0 -10 10v114q0 6 -6 6h-309q-10 0 -10 10v120q0 10 10 10h448q10 0 10 -10v-250q0 -10 -10 -10h-123z" glyph-name="logicalnot" unicode="¬"/>
<glyph d="M218 301q-41 0 -76.5 14.5t-61.5 40.5t-40.5 61t-14.5 76q0 40 14.5 75t40.5 61t61.5 40.5t76.5 14.5t76.5 -14.5t61.5 -40.5t41 -61t15 -75q0 -41 -15 -76t-41 -61t-61.5 -40.5t-76.5 -14.5zM218 342q32 0 59.5 11t47.5 31t31 48t11 61t-11 60.5t-31 47.5t-47.5 31 t-59.5 11t-59 -11t-47 -31t-31 -47.5t-11 -60.5t11 -61t31 -48t47 -31t59 -11zM140 388q-7 0 -7 7v198q0 7 7 7h93q41 0 62 -19t21 -51q0 -42 -37 -61l37 -74q2 -7 -5 -7h-55q-7 0 -10 7l-30 65h-15q-4 0 -4 -4v-61q0 -7 -7 -7h-50zM227 509q25 0 25 21q0 20 -25 20h-26 q-4 0 -4 -4v-32q0 -5 4 -5h26z" glyph-name="registered" horiz-adv-x="437" unicode="®"/>
<glyph d="M94 562q-10 0 -10 10v91q0 10 10 10h301q10 0 10 -10v-91q0 -10 -10 -10h-301z" glyph-name="macron" horiz-adv-x="489" unicode="¯"/>
<glyph d="M203 378q-34 0 -63 12t-50 33t-33 50t-12 63t12 63t33 50t50 33t63 12t63 -12t50.5 -33t33.5 -50t12 -63t-12 -63t-33.5 -50t-50.5 -33t-63 -12zM203 475q26 0 43 17t17 44t-17 44.5t-43 17.5t-42.5 -17.5t-16.5 -44.5t16.5 -44t42.5 -17z" glyph-name="degree" horiz-adv-x="407" unicode="°"/>
<glyph d="M219 184q-10 0 -10 10v147q0 6 -6 6h-146q-10 0 -10 10v119q0 10 10 10h146q6 0 6 6v147q0 10 10 10h124q10 0 10 -10v-147q0 -6 6 -6h146q10 0 10 -10v-119q0 -10 -10 -10h-146q-6 0 -6 -6v-147q0 -10 -10 -10h-124zM57 0q-10 0 -10 10v120q0 10 10 10h448q10 0 10 -10 v-120q0 -10 -10 -10h-448z" glyph-name="plusminus" unicode="±"/>
<glyph d="M45 430q-10 0 -10 10v76q0 11 8 18l146 137q11 11 17 21.5t6 23.5q0 14 -8 22.5t-23 8.5q-14 0 -23.5 -8.5t-11.5 -27.5q-2 -11 -11 -9l-91 13q-9 1 -9 11q1 23 11.5 44.5t30 37.5t47.5 25.5t64 9.5q30 0 56 -8.5t45.5 -24.5t31 -39.5t11.5 -53.5q0 -33 -13.5 -57.5 t-40.5 -49.5l-84 -78v-1h128q10 0 10 -10v-81q0 -10 -10 -10h-277z" glyph-name="uni00B2" horiz-adv-x="366" unicode="²"/>
<glyph d="M184 423q-62 0 -103 26t-50 76q-2 10 8 12l90 14q9 1 13 -7q5 -11 14.5 -18t23.5 -7q17 0 26.5 9t9.5 26q0 35 -43 35h-13q-10 0 -10 10v74q0 10 10 10h13q16 0 26 8.5t10 23.5q0 32 -32 32q-14 0 -21.5 -6t-12.5 -17q-3 -9 -12 -7l-90 14q-10 2 -8 11q9 44 46.5 72.5 t102.5 28.5q71 0 109 -32t38 -82q0 -23 -11 -44.5t-34 -37.5v-1q20 -9 36 -32t16 -62q0 -59 -41 -94t-111 -35z" glyph-name="uni00B3" horiz-adv-x="366" unicode="³"/>
<glyph d="M130 546q-10 0 -5 10l80 136q6 10 17 10h139q5 0 6.5 -3t-1.5 -7l-103 -136q-8 -10 -17 -10h-116z" glyph-name="acute" horiz-adv-x="489" unicode="´"/>
<glyph d="M348 0q-10 0 -10 10v37h-1q-11 -18 -30.5 -32.5t-46.5 -18.5q-13 -1 -22 1.5t-16 5.5h-1v-173q0 -10 -10 -10h-148q-10 0 -10 10v647q0 10 10 10h148q10 0 10 -10v-278q0 -33 15 -52t44 -19t43.5 19t14.5 52v278q0 10 10 10h148q10 0 10 -10v-467q0 -10 -10 -10h-148z " glyph-name="mu" horiz-adv-x="559" unicode="µ"/>
<glyph d="M486 -180q-10 0 -10 10v730q0 6 -6 6h-68q-6 0 -6 -6v-730q0 -10 -10 -10h-113q-10 0 -10 10v386q-46 3 -85 21t-67.5 48t-44.5 71.5t-16 91.5q0 51 17 93.5t48.5 73t77.5 48t103 17.5h304q10 0 10 -10v-840q0 -10 -10 -10h-114z" glyph-name="paragraph" horiz-adv-x="678" unicode="¶"/>
<glyph d="M62 186q-10 0 -10 10v138q0 10 10 10h139q10 0 10 -10v-138q0 -10 -10 -10h-139z" glyph-name="periodcentered" horiz-adv-x="263" unicode="·"/>
<glyph d="M161 -166q-10 0 -7 10l62 156q4 10 14 10h101q10 0 7 -10l-46 -156q-3 -10 -16 -10h-115z" glyph-name="cedilla" horiz-adv-x="489" unicode="¸"/>
<glyph d="M166 430q-10 0 -10 10v270h-2l-66 -38q-4 -2 -7 -0.5t-3 6.5v97q0 10 9 15l62 40q10 6 17 6h102q10 0 10 -10v-386q0 -10 -10 -10h-102z" glyph-name="uni00B9" horiz-adv-x="366" unicode="¹"/>
<glyph d="M194 383q-59 0 -97 23t-52 67q-4 12 -6 27t-2 36t2 36t6 27q14 44 52 67t97 23q58 0 96 -23t52 -67q4 -12 6 -27t2 -36t-2 -36t-6 -27q-14 -44 -52 -67t-96 -23zM194 473q27 0 37 26q2 5 2.5 13.5t0.5 23.5t-0.5 23.5t-2.5 13.5q-10 26 -37 26q-28 0 -38 -26 q-2 -5 -2.5 -13.5t-0.5 -23.5t0.5 -23.5t2.5 -13.5q10 -26 38 -26z" glyph-name="ordmasculine" horiz-adv-x="387" unicode="º"/>
<glyph d="M328 23q-3 -3 -6.5 -2t-3.5 6v138q0 10 10 19l76 76q4 4 0 8l-76 76q-10 9 -10 19v138q0 5 3.5 6t6.5 -2l236 -234q7 -7 0 -14zM67 23q-3 -3 -6.5 -2t-3.5 6v138q0 6 2.5 10t7.5 9l77 76q4 4 0 8l-77 76q-5 5 -7.5 9t-2.5 10v138q0 5 3.5 6t6.5 -2l236 -234q7 -7 0 -14z " glyph-name="guillemotright" horiz-adv-x="586" unicode="»"/>
<glyph d="M172 274q-10 0 -10 10v270h-2l-66 -38q-4 -2 -7 -0.5t-3 6.5v97q0 10 9 15l62 40q10 6 17 6h102q10 0 10 -10v-386q0 -10 -10 -10h-102zM691 0q-10 0 -10 10v36q0 6 -6 6h-166q-10 0 -10 10v85q0 10 4 18l107 231q4 10 15 10h107q11 0 7 -10l-111 -241v-2h47q6 0 6 6v57 q0 10 10 10h93q10 0 10 -10v-57q0 -6 5 -6h14q10 0 10 -10v-81q0 -10 -10 -10h-13q-6 0 -6 -6v-36q0 -10 -10 -10h-93zM185 -12q-5 0 -5.5 3t1.5 7l395 684q6 10 16 10h102q5 0 5.5 -3t-1.5 -7l-395 -684q-6 -10 -16 -10h-102z" glyph-name="onequarter" horiz-adv-x="908" unicode="¼"/>
<glyph d="M172 274q-10 0 -10 10v270h-2l-66 -38q-4 -2 -7 -0.5t-3 6.5v97q0 10 9 15l62 40q10 6 17 6h102q10 0 10 -10v-386q0 -10 -10 -10h-102zM563 0q-10 0 -10 10v76q0 11 8 18l146 137q11 11 17 21.5t6 23.5q0 14 -8 22.5t-23 8.5q-14 0 -23.5 -8.5t-11.5 -27.5 q-2 -11 -11 -9l-91 13q-9 1 -9 11q1 23 11.5 44.5t30 37.5t47.5 25.5t64 9.5q30 0 56 -8.5t45.5 -24.5t31 -39.5t11.5 -53.5q0 -33 -13.5 -57.5t-40.5 -49.5l-84 -78v-1h128q10 0 10 -10v-81q0 -10 -10 -10h-277zM185 -12q-5 0 -5.5 3t1.5 7l395 684q6 10 16 10h102 q5 0 5.5 -3t-1.5 -7l-395 -684q-6 -10 -16 -10h-102z" glyph-name="onehalf" horiz-adv-x="934" unicode="½"/>
<glyph d="M753 0q-10 0 -10 10v36q0 6 -6 6h-166q-10 0 -10 10v85q0 10 4 18l107 231q4 10 15 10h107q11 0 7 -10l-111 -241v-2h47q6 0 6 6v57q0 10 10 10h93q10 0 10 -10v-57q0 -6 5 -6h14q10 0 10 -10v-81q0 -10 -10 -10h-13q-6 0 -6 -6v-36q0 -10 -10 -10h-93zM248 -12 q-5 0 -5.5 3t1.5 7l395 684q6 10 16 10h102q5 0 5.5 -3t-1.5 -7l-395 -684q-6 -10 -16 -10h-102zM237 267q-62 0 -103 26t-50 76q-2 10 8 12l90 14q9 1 13 -7q5 -11 14.5 -18t23.5 -7q17 0 26.5 9t9.5 26q0 35 -43 35h-13q-10 0 -10 10v74q0 10 10 10h13q16 0 26 8.5 t10 23.5q0 32 -32 32q-14 0 -21.5 -6t-12.5 -17q-3 -9 -12 -7l-90 14q-10 2 -8 11q9 44 46.5 72.5t102.5 28.5q71 0 109 -32t38 -82q0 -23 -11 -44.5t-34 -37.5v-1q20 -9 36 -32t16 -62q0 -59 -41 -94t-111 -35z" glyph-name="threequarters" horiz-adv-x="970" unicode="¾"/>
<glyph d="M318 277q10 0 10 -10v-41q0 -27 -7 -46t-24 -38l-60 -71q-25 -26 -34.5 -43.5t-9.5 -36.5q0 -24 15 -40t41 -16q52 0 65 61q2 10 11 8l129 -18q10 -1 8 -11q-5 -40 -22.5 -73t-45 -57t-65.5 -37t-84 -13q-48 0 -88 15t-68 40.5t-43.5 59.5t-15.5 73q0 45 17.5 77.5 t50.5 67.5l53 64q13 14 17 26t4 32v17q0 10 10 10h136zM328 351q0 -10 -10 -10h-138q-10 0 -10 10v126q0 10 10 10h138q10 0 10 -10v-126z" glyph-name="questiondown" horiz-adv-x="483" unicode="¿"/>
<glyph d="M245 670q3 10 13 10h163q10 0 13 -10l230 -660q3 -10 -7 -10h-165q-10 0 -13 10l-32 105h-221l-32 -105q-3 -10 -13 -10h-164q-10 0 -7 10zM403 261l-63 212h-3l-66 -212h132zM285 747q-11 0 -20 9l-128 123q-3 4 -1.5 7t6.5 3h142q10 0 18 -10l102 -122q3 -4 2 -7t-6 -3 h-115z" glyph-name="Agrave" horiz-adv-x="674" unicode="À"/>
<glyph d="M245 670q3 10 13 10h163q10 0 13 -10l230 -660q3 -10 -7 -10h-165q-10 0 -13 10l-32 105h-221l-32 -105q-3 -10 -13 -10h-164q-10 0 -7 10zM403 261l-63 212h-3l-66 -212h132zM277 747q-5 0 -6 3t2 7l102 122q8 10 18 10h142q5 0 6.5 -3t-1.5 -7l-128 -123q-9 -9 -20 -9 h-115z" glyph-name="Aacute" horiz-adv-x="674" unicode="Á"/>
<glyph d="M245 670q3 10 13 10h163q10 0 13 -10l230 -660q3 -10 -7 -10h-165q-10 0 -13 10l-32 105h-221l-32 -105q-3 -10 -13 -10h-164q-10 0 -7 10zM403 261l-63 212h-3l-66 -212h132zM409 741q-13 0 -23 10l-48 50h-2l-49 -50q-6 -6 -10.5 -8t-12.5 -2h-95q-5 0 -6 3t2 7 l108 137q7 10 19 10h90q12 0 19 -10l108 -137q3 -4 1.5 -7t-6.5 -3h-95z" glyph-name="Acircumflex" horiz-adv-x="674" unicode="Â"/>
<glyph d="M245 670q3 10 13 10h163q10 0 13 -10l230 -660q3 -10 -7 -10h-165q-10 0 -13 10l-32 105h-221l-32 -105q-3 -10 -13 -10h-164q-10 0 -7 10zM403 261l-63 212h-3l-66 -212h132zM405 740q-27 0 -46 7t-37 16q-15 8 -29 13t-31 5q-23 0 -39.5 -9t-36.5 -24q-4 -3 -7 -2t-3 6 v81q0 8 2 12t7 10q17 17 37 27t44 10q28 0 47 -7.5t37 -16.5q15 -7 29 -12t31 -5q22 0 39 9t36 23q11 7 11 -3v-81q0 -13 -10 -22q-17 -17 -37 -27t-44 -10z" glyph-name="Atilde" horiz-adv-x="674" unicode="Ã"/>
<glyph d="M245 670q3 10 13 10h163q10 0 13 -10l230 -660q3 -10 -7 -10h-165q-10 0 -13 10l-32 105h-221l-32 -105q-3 -10 -13 -10h-164q-10 0 -7 10zM403 261l-63 212h-3l-66 -212h132zM386 750q-10 0 -10 10v110q0 10 10 10h107q10 0 10 -10v-110q0 -10 -10 -10h-107zM180 750 q-10 0 -10 10v110q0 10 10 10h107q10 0 10 -10v-110q0 -10 -10 -10h-107z" glyph-name="Adieresis" horiz-adv-x="674" unicode="Ä"/>
<glyph d="M245 670q3 10 13 10h163q10 0 13 -10l230 -660q3 -10 -7 -10h-165q-10 0 -13 10l-32 105h-221l-32 -105q-3 -10 -13 -10h-164q-10 0 -7 10zM403 261l-63 212h-3l-66 -212h132zM336 704q-49 0 -81.5 32t-32.5 82q0 49 32.5 81t81.5 32q50 0 82.5 -32t32.5 -81 q0 -50 -32.5 -82t-82.5 -32zM336 773q19 0 31.5 12.5t12.5 32.5q0 19 -12.5 31.5t-31.5 12.5q-18 0 -30.5 -12.5t-12.5 -31.5q0 -20 12.5 -32.5t30.5 -12.5z" glyph-name="Aring" horiz-adv-x="674" unicode="Å"/>
<glyph d="M439 0q-10 0 -10 10v99q0 6 -6 6h-178l-45 -105q-4 -10 -14 -10h-168q-12 0 -7 10l303 660q5 10 14 10h556q10 0 10 -10v-129q0 -10 -10 -10h-273q-6 0 -6 -6v-103q0 -6 6 -6h224q10 0 10 -10v-126q0 -10 -10 -10h-224q-6 0 -6 -6v-109q0 -6 6 -6h273q10 0 10 -10v-129 q0 -10 -10 -10h-445zM309 261h114q6 0 6 6v264h-3z" glyph-name="AE" horiz-adv-x="931" unicode="Æ"/>
<glyph d="M192 -166q-10 0 -7 10l59 149q-69 12 -116 53t-69 110q-6 17 -9.5 34t-6 37.5t-3.5 47.5t-1 65t1 65t3.5 47.5t6 37.5t9.5 34q27 84 90.5 126t156.5 42q91 0 153 -40.5t91 -114.5q4 -10 -5 -14l-133 -58q-10 -4 -14 6q-14 30 -34 47t-55 17q-63 0 -82 -59q-3 -8 -4.5 -17 t-3 -23.5t-2 -37.5t-0.5 -58t0.5 -58t2 -37.5t3 -23.5t4.5 -17q19 -59 82 -59q35 0 55 17t34 47q4 10 14 6l133 -58q9 -4 5 -14q-23 -61 -70 -99.5t-113 -50.5l-44 -149q-3 -10 -16 -10h-115z" glyph-name="Ccedilla" horiz-adv-x="574" unicode="Ç"/>
<glyph d="M252 747q-11 0 -20 9l-128 123q-3 4 -1.5 7t6.5 3h142q10 0 18 -10l102 -122q3 -4 2 -7t-6 -3h-115zM55 670q0 10 10 10h445q10 0 10 -10v-129q0 -10 -10 -10h-273q-6 0 -6 -6v-103q0 -6 6 -6h224q10 0 10 -10v-126q0 -10 -10 -10h-224q-6 0 -6 -6v-109q0 -6 6 -6h273 q10 0 10 -10v-129q0 -10 -10 -10h-445q-10 0 -10 10v660z" glyph-name="Egrave" horiz-adv-x="557" unicode="È"/>
<glyph d="M195 747q-5 0 -6 3t2 7l102 122q8 10 18 10h142q5 0 6.5 -3t-1.5 -7l-128 -123q-9 -9 -20 -9h-115zM55 670q0 10 10 10h445q10 0 10 -10v-129q0 -10 -10 -10h-273q-6 0 -6 -6v-103q0 -6 6 -6h224q10 0 10 -10v-126q0 -10 -10 -10h-224q-6 0 -6 -6v-109q0 -6 6 -6h273 q10 0 10 -10v-129q0 -10 -10 -10h-445q-10 0 -10 10v660z" glyph-name="Eacute" horiz-adv-x="557" unicode="É"/>
<glyph d="M55 670q0 10 10 10h445q10 0 10 -10v-129q0 -10 -10 -10h-273q-6 0 -6 -6v-103q0 -6 6 -6h224q10 0 10 -10v-126q0 -10 -10 -10h-224q-6 0 -6 -6v-109q0 -6 6 -6h273q10 0 10 -10v-129q0 -10 -10 -10h-445q-10 0 -10 10v660zM361 741q-13 0 -23 10l-48 50h-2l-49 -50 q-6 -6 -10.5 -8t-12.5 -2h-95q-5 0 -6 3t2 7l108 137q7 10 19 10h90q12 0 19 -10l108 -137q3 -4 1.5 -7t-6.5 -3h-95z" glyph-name="Ecircumflex" horiz-adv-x="557" unicode="Ê"/>
<glyph d="M336 750q-10 0 -10 10v110q0 10 10 10h107q10 0 10 -10v-110q0 -10 -10 -10h-107zM130 750q-10 0 -10 10v110q0 10 10 10h107q10 0 10 -10v-110q0 -10 -10 -10h-107zM55 670q0 10 10 10h445q10 0 10 -10v-129q0 -10 -10 -10h-273q-6 0 -6 -6v-103q0 -6 6 -6h224 q10 0 10 -10v-126q0 -10 -10 -10h-224q-6 0 -6 -6v-109q0 -6 6 -6h273q10 0 10 -10v-129q0 -10 -10 -10h-445q-10 0 -10 10v660z" glyph-name="Edieresis" horiz-adv-x="557" unicode="Ë"/>
<glyph d="M55 670q0 10 10 10h156q10 0 10 -10v-660q0 -10 -10 -10h-156q-10 0 -10 10v660zM94 747q-11 0 -20 9l-128 123q-3 4 -1.5 7t6.5 3h142q10 0 18 -10l102 -122q3 -4 2 -7t-6 -3h-115z" glyph-name="Igrave" horiz-adv-x="286" unicode="Ì"/>
<glyph d="M55 670q0 10 10 10h156q10 0 10 -10v-660q0 -10 -10 -10h-156q-10 0 -10 10v660zM79 747q-5 0 -6 3t2 7l102 122q8 10 18 10h142q5 0 6.5 -3t-1.5 -7l-128 -123q-9 -9 -20 -9h-115z" glyph-name="Iacute" horiz-adv-x="286" unicode="Í"/>
<glyph d="M55 670q0 10 10 10h156q10 0 10 -10v-660q0 -10 -10 -10h-156q-10 0 -10 10v660zM216 741q-13 0 -23 10l-48 50h-2l-49 -50q-6 -6 -10.5 -8t-12.5 -2h-95q-5 0 -6 3t2 7l108 137q7 10 19 10h90q12 0 19 -10l108 -137q3 -4 1.5 -7t-6.5 -3h-95z" glyph-name="Icircumflex" horiz-adv-x="286" unicode="Î"/>
<glyph d="M55 670q0 10 10 10h156q10 0 10 -10v-660q0 -10 -10 -10h-156q-10 0 -10 10v660zM193 750q-10 0 -10 10v110q0 10 10 10h107q10 0 10 -10v-110q0 -10 -10 -10h-107zM-13 750q-10 0 -10 10v110q0 10 10 10h107q10 0 10 -10v-110q0 -10 -10 -10h-107z" glyph-name="Idieresis" horiz-adv-x="286" unicode="Ï"/>
<glyph d="M65 0q-10 0 -10 10v266q0 6 -6 6h-25q-10 0 -10 10v102q0 10 10 10h25q6 0 6 6v260q0 10 10 10h263q91 0 153.5 -38t88.5 -117q5 -17 9 -33t6.5 -37t3.5 -48.5t1 -66.5q0 -38 -1 -65.5t-3.5 -48.5t-6.5 -38t-9 -33q-26 -79 -88.5 -117t-153.5 -38h-263zM290 156 q47 0 73.5 14.5t38.5 50.5q2 7 4 16t3.5 22.5t2 32.5t0.5 48q0 28 -0.5 47.5t-2 33t-3.5 22t-4 16.5q-12 36 -38.5 50.5t-73.5 14.5h-53q-6 0 -6 -6v-108q0 -6 6 -6h70q10 0 10 -10v-102q0 -10 -10 -10h-70q-6 0 -6 -6v-114q0 -6 6 -6h53z" glyph-name="Eth" horiz-adv-x="631" unicode="Ð"/>
<glyph d="M395 740q-27 0 -46 7t-37 16q-15 8 -29 13t-31 5q-23 0 -39.5 -9t-36.5 -24q-4 -3 -7 -2t-3 6v81q0 8 2 12t7 10q17 17 37 27t44 10q28 0 47 -7.5t37 -16.5q15 -7 29 -12t31 -5q22 0 39 9t36 23q11 7 11 -3v-81q0 -13 -10 -22q-17 -17 -37 -27t-44 -10zM55 670 q0 10 10 10h147q13 0 17 -10l205 -385h4v385q0 10 10 10h140q10 0 10 -10v-660q0 -10 -10 -10h-147q-13 0 -17 10l-203 384h-6v-384q0 -10 -10 -10h-140q-10 0 -10 10v660z" glyph-name="Ntilde" horiz-adv-x="653" unicode="Ñ"/>
<glyph d="M270 747q-11 0 -20 9l-128 123q-3 4 -1.5 7t6.5 3h142q10 0 18 -10l102 -122q3 -4 2 -7t-6 -3h-115zM314 -12q-90 0 -159 42t-96 125q-6 19 -10 37.5t-6 39.5t-3 47t-1 61t1 61t3 47t6 39t10 38q27 83 96 125t159 42t159 -42t96 -125q6 -20 10 -38t6.5 -39t3 -47t0.5 -61 t-0.5 -61t-3 -47t-6.5 -39.5t-10 -37.5q-27 -83 -96 -125t-159 -42zM314 145q33 0 55.5 15.5t31.5 44.5q3 9 5 19.5t3 26t1.5 37.5t0.5 52t-0.5 52t-1.5 37.5t-3 26t-5 19.5q-9 29 -31.5 44.5t-55.5 15.5t-55.5 -15.5t-31.5 -44.5q-3 -9 -5 -19.5t-3 -26t-1.5 -37.5 t-0.5 -52t0.5 -52t1.5 -37.5t3 -26t5 -19.5q9 -29 31.5 -44.5t55.5 -15.5z" glyph-name="Ograve" horiz-adv-x="628" unicode="Ò"/>
<glyph d="M242 747q-5 0 -6 3t2 7l102 122q8 10 18 10h142q5 0 6.5 -3t-1.5 -7l-128 -123q-9 -9 -20 -9h-115zM314 -12q-90 0 -159 42t-96 125q-6 19 -10 37.5t-6 39.5t-3 47t-1 61t1 61t3 47t6 39t10 38q27 83 96 125t159 42t159 -42t96 -125q6 -20 10 -38t6.5 -39t3 -47t0.5 -61 t-0.5 -61t-3 -47t-6.5 -39.5t-10 -37.5q-27 -83 -96 -125t-159 -42zM314 145q33 0 55.5 15.5t31.5 44.5q3 9 5 19.5t3 26t1.5 37.5t0.5 52t-0.5 52t-1.5 37.5t-3 26t-5 19.5q-9 29 -31.5 44.5t-55.5 15.5t-55.5 -15.5t-31.5 -44.5q-3 -9 -5 -19.5t-3 -26t-1.5 -37.5 t-0.5 -52t0.5 -52t1.5 -37.5t3 -26t5 -19.5q9 -29 31.5 -44.5t55.5 -15.5z" glyph-name="Oacute" horiz-adv-x="628" unicode="Ó"/>
<glyph d="M314 -12q-90 0 -159 42t-96 125q-6 19 -10 37.5t-6 39.5t-3 47t-1 61t1 61t3 47t6 39t10 38q27 83 96 125t159 42t159 -42t96 -125q6 -20 10 -38t6.5 -39t3 -47t0.5 -61t-0.5 -61t-3 -47t-6.5 -39.5t-10 -37.5q-27 -83 -96 -125t-159 -42zM314 145q33 0 55.5 15.5 t31.5 44.5q3 9 5 19.5t3 26t1.5 37.5t0.5 52t-0.5 52t-1.5 37.5t-3 26t-5 19.5q-9 29 -31.5 44.5t-55.5 15.5t-55.5 -15.5t-31.5 -44.5q-3 -9 -5 -19.5t-3 -26t-1.5 -37.5t-0.5 -52t0.5 -52t1.5 -37.5t3 -26t5 -19.5q9 -29 31.5 -44.5t55.5 -15.5zM386 741q-13 0 -23 10 l-48 50h-2l-49 -50q-6 -6 -10.5 -8t-12.5 -2h-95q-5 0 -6 3t2 7l108 137q7 10 19 10h90q12 0 19 -10l108 -137q3 -4 1.5 -7t-6.5 -3h-95z" glyph-name="Ocircumflex" horiz-adv-x="628" unicode="Ô"/>
<glyph d="M382 740q-27 0 -46 7t-37 16q-15 8 -29 13t-31 5q-23 0 -39.5 -9t-36.5 -24q-4 -3 -7 -2t-3 6v81q0 8 2 12t7 10q17 17 37 27t44 10q28 0 47 -7.5t37 -16.5q15 -7 29 -12t31 -5q22 0 39 9t36 23q11 7 11 -3v-81q0 -13 -10 -22q-17 -17 -37 -27t-44 -10zM314 -12 q-90 0 -159 42t-96 125q-6 19 -10 37.5t-6 39.5t-3 47t-1 61t1 61t3 47t6 39t10 38q27 83 96 125t159 42t159 -42t96 -125q6 -20 10 -38t6.5 -39t3 -47t0.5 -61t-0.5 -61t-3 -47t-6.5 -39.5t-10 -37.5q-27 -83 -96 -125t-159 -42zM314 145q33 0 55.5 15.5t31.5 44.5 q3 9 5 19.5t3 26t1.5 37.5t0.5 52t-0.5 52t-1.5 37.5t-3 26t-5 19.5q-9 29 -31.5 44.5t-55.5 15.5t-55.5 -15.5t-31.5 -44.5q-3 -9 -5 -19.5t-3 -26t-1.5 -37.5t-0.5 -52t0.5 -52t1.5 -37.5t3 -26t5 -19.5q9 -29 31.5 -44.5t55.5 -15.5z" glyph-name="Otilde" horiz-adv-x="628" unicode="Õ"/>
<glyph d="M363 750q-10 0 -10 10v110q0 10 10 10h107q10 0 10 -10v-110q0 -10 -10 -10h-107zM157 750q-10 0 -10 10v110q0 10 10 10h107q10 0 10 -10v-110q0 -10 -10 -10h-107zM314 -12q-90 0 -159 42t-96 125q-6 19 -10 37.5t-6 39.5t-3 47t-1 61t1 61t3 47t6 39t10 38 q27 83 96 125t159 42t159 -42t96 -125q6 -20 10 -38t6.5 -39t3 -47t0.5 -61t-0.5 -61t-3 -47t-6.5 -39.5t-10 -37.5q-27 -83 -96 -125t-159 -42zM314 145q33 0 55.5 15.5t31.5 44.5q3 9 5 19.5t3 26t1.5 37.5t0.5 52t-0.5 52t-1.5 37.5t-3 26t-5 19.5q-9 29 -31.5 44.5 t-55.5 15.5t-55.5 -15.5t-31.5 -44.5q-3 -9 -5 -19.5t-3 -26t-1.5 -37.5t-0.5 -52t0.5 -52t1.5 -37.5t3 -26t5 -19.5q9 -29 31.5 -44.5t55.5 -15.5z" glyph-name="Odieresis" horiz-adv-x="628" unicode="Ö"/>
<glyph d="M416 60q-7 -9 -14 0l-117 117q-4 4 -8 0l-118 -117q-7 -9 -14 0l-80 80q-7 7 0 14l116 117q4 4 0 9l-116 117q-7 7 0 14l81 82q7 7 14 0l117 -118q4 -3 9 0l117 118q7 7 14 0l80 -81q9 -7 0 -14l-116 -117q-5 -5 0 -8l116 -118q9 -7 0 -14z" glyph-name="multiply" unicode="×"/>
<glyph d="M27 -30q-5 0 -6 3t1 7l70 109q-21 28 -33 66q-6 19 -10 37.5t-6 39.5t-3 47t-1 61t1 61t3 47t6 39t10 38q27 83 96 125t159 42q80 0 142 -32l26 40q7 10 17 10h101q5 0 6.5 -3t-0.5 -7l-70 -110q10 -14 18.5 -30.5t14.5 -34.5q6 -20 10 -38t6.5 -39t3 -47t0.5 -61 t-0.5 -61t-3 -47t-6.5 -39.5t-10 -37.5q-27 -83 -96 -125t-159 -42q-80 0 -142 32l-26 -40q-7 -10 -17 -10h-102zM314 145q33 0 55.5 15.5t31.5 44.5q3 9 5 19.5t3 26t1.5 37.5t0.5 52t-0.5 52t-1.5 37.5t-3 26t-5 19.5q-9 29 -31.5 44.5t-55.5 15.5t-55.5 -15.5 t-31.5 -44.5q-3 -9 -5 -19.5t-3 -26t-1.5 -37.5t-0.5 -52t0.5 -52t1.5 -37.5t3 -26t5 -19.5q9 -29 31.5 -44.5t55.5 -15.5z" glyph-name="Oslash" horiz-adv-x="628" unicode="Ø"/>
<glyph d="M280 747q-11 0 -20 9l-128 123q-3 4 -1.5 7t6.5 3h142q10 0 18 -10l102 -122q3 -4 2 -7t-6 -3h-115zM324 -12q-62 0 -112 17.5t-85.5 52t-54.5 86t-19 119.5v407q0 10 10 10h156q10 0 10 -10v-418q0 -51 26 -79t69 -28q45 0 69.5 28t24.5 79v418q0 10 10 10h156 q10 0 10 -10v-407q0 -68 -19.5 -119.5t-55 -86t-85 -52t-110.5 -17.5z" glyph-name="Ugrave" horiz-adv-x="647" unicode="Ù"/>
<glyph d="M256 747q-5 0 -6 3t2 7l102 122q8 10 18 10h142q5 0 6.5 -3t-1.5 -7l-128 -123q-9 -9 -20 -9h-115zM324 -12q-62 0 -112 17.5t-85.5 52t-54.5 86t-19 119.5v407q0 10 10 10h156q10 0 10 -10v-418q0 -51 26 -79t69 -28q45 0 69.5 28t24.5 79v418q0 10 10 10h156 q10 0 10 -10v-407q0 -68 -19.5 -119.5t-55 -86t-85 -52t-110.5 -17.5z" glyph-name="Uacute" horiz-adv-x="647" unicode="Ú"/>
<glyph d="M324 -12q-62 0 -112 17.5t-85.5 52t-54.5 86t-19 119.5v407q0 10 10 10h156q10 0 10 -10v-418q0 -51 26 -79t69 -28q45 0 69.5 28t24.5 79v418q0 10 10 10h156q10 0 10 -10v-407q0 -68 -19.5 -119.5t-55 -86t-85 -52t-110.5 -17.5zM395 741q-13 0 -23 10l-48 50h-2 l-49 -50q-6 -6 -10.5 -8t-12.5 -2h-95q-5 0 -6 3t2 7l108 137q7 10 19 10h90q12 0 19 -10l108 -137q3 -4 1.5 -7t-6.5 -3h-95z" glyph-name="Ucircumflex" horiz-adv-x="647" unicode="Û"/>
<glyph d="M373 750q-10 0 -10 10v110q0 10 10 10h107q10 0 10 -10v-110q0 -10 -10 -10h-107zM167 750q-10 0 -10 10v110q0 10 10 10h107q10 0 10 -10v-110q0 -10 -10 -10h-107zM324 -12q-62 0 -112 17.5t-85.5 52t-54.5 86t-19 119.5v407q0 10 10 10h156q10 0 10 -10v-418 q0 -51 26 -79t69 -28q45 0 69.5 28t24.5 79v418q0 10 10 10h156q10 0 10 -10v-407q0 -68 -19.5 -119.5t-55 -86t-85 -52t-110.5 -17.5z" glyph-name="Udieresis" horiz-adv-x="647" unicode="Ü"/>
<glyph d="M223 0q-10 0 -10 10v253l-206 406q-4 11 8 11h157q10 0 16 -10l114 -232h3l112 232q4 10 16 10h154q12 0 8 -11l-206 -406v-253q0 -10 -10 -10h-156zM237 747q-5 0 -6 3t2 7l102 122q8 10 18 10h142q5 0 6.5 -3t-1.5 -7l-128 -123q-9 -9 -20 -9h-115z" glyph-name="Yacute" horiz-adv-x="602" unicode="Ý"/>
<glyph d="M65 0q-10 0 -10 10v660q0 10 10 10h156q10 0 10 -10v-87q0 -6 6 -6h100q62 0 109.5 -17t79 -47t47.5 -71.5t16 -90.5t-16 -90.5t-48 -72t-79 -47.5t-109 -17h-100q-6 0 -6 -6v-108q0 -10 -10 -10h-156zM327 273q42 0 64 21.5t22 56.5t-22 56t-64 21h-90q-6 0 -6 -6v-143 q0 -6 6 -6h90z" glyph-name="Thorn" horiz-adv-x="612" unicode="Þ"/>
<glyph d="M288 -5q-10 0 -10 10v110q0 10 10 10h24q50 0 62 39q2 7 3.5 19.5t1.5 44.5t-1.5 45t-3.5 21q-14 41 -67 41h-17q-10 0 -10 10v108q0 10 10 10h25q53 0 53 48q0 23 -16.5 35t-53.5 12q-42 0 -60.5 -18.5t-18.5 -57.5v-472q0 -10 -10 -10h-146q-10 0 -10 10v470 q0 102 57 157t187 55q114 0 174.5 -46.5t60.5 -124.5q0 -79 -57 -117v-2q20 -11 35 -28t24 -43q5 -17 7.5 -39.5t2.5 -67.5q0 -27 -1 -46t-2.5 -33.5t-3.5 -25t-5 -19.5q-19 -57 -69 -81t-135 -24h-40z" glyph-name="germandbls" horiz-adv-x="579" unicode="ß"/>
<glyph d="M334 0q-10 0 -10 10v28h-1q-20 -23 -51.5 -36.5t-79.5 -13.5q-31 0 -59.5 8.5t-50.5 27t-35 47t-13 67.5q0 41 15.5 71t43 50t65.5 29.5t83 9.5h77q6 0 6 6v13q0 27 -19 39t-75 12q-33 0 -60.5 -8t-44.5 -20q-9 -5 -13 3l-52 92q-4 10 3 16q33 23 81 35.5t108 12.5 q64 0 108 -11t71 -33.5t39 -56.5t12 -81v-307q0 -10 -10 -10h-138zM248 108q76 0 76 52v30q0 6 -6 6h-59q-68 0 -68 -46q0 -42 57 -42zM244 546q-10 0 -17 10l-103 136q-3 4 -1.5 7t6.5 3h139q11 0 17 -10l80 -136q5 -10 -5 -10h-116z" glyph-name="agrave" horiz-adv-x="532" unicode="à"/>
<glyph d="M334 0q-10 0 -10 10v28h-1q-20 -23 -51.5 -36.5t-79.5 -13.5q-31 0 -59.5 8.5t-50.5 27t-35 47t-13 67.5q0 41 15.5 71t43 50t65.5 29.5t83 9.5h77q6 0 6 6v13q0 27 -19 39t-75 12q-33 0 -60.5 -8t-44.5 -20q-9 -5 -13 3l-52 92q-4 10 3 16q33 23 81 35.5t108 12.5 q64 0 108 -11t71 -33.5t39 -56.5t12 -81v-307q0 -10 -10 -10h-138zM248 108q76 0 76 52v30q0 6 -6 6h-59q-68 0 -68 -46q0 -42 57 -42zM199 546q-10 0 -5 10l80 136q6 10 17 10h139q5 0 6.5 -3t-1.5 -7l-103 -136q-8 -10 -17 -10h-116z" glyph-name="aacute" horiz-adv-x="532" unicode="á"/>
<glyph d="M334 0q-10 0 -10 10v28h-1q-20 -23 -51.5 -36.5t-79.5 -13.5q-31 0 -59.5 8.5t-50.5 27t-35 47t-13 67.5q0 41 15.5 71t43 50t65.5 29.5t83 9.5h77q6 0 6 6v13q0 27 -19 39t-75 12q-33 0 -60.5 -8t-44.5 -20q-9 -5 -13 3l-52 92q-4 10 3 16q33 23 81 35.5t108 12.5 q64 0 108 -11t71 -33.5t39 -56.5t12 -81v-307q0 -10 -10 -10h-138zM248 108q76 0 76 52v30q0 6 -6 6h-59q-68 0 -68 -46q0 -42 57 -42zM338 544q-13 0 -23 10l-49 50h-2l-48 -50q-10 -10 -23 -10h-95q-5 0 -6.5 3t1.5 7l109 137q7 10 18 10h91q11 0 18 -10l109 -137 q3 -4 1.5 -7t-6.5 -3h-95z" glyph-name="acircumflex" horiz-adv-x="532" unicode="â"/>
<glyph d="M334 0q-10 0 -10 10v28h-1q-20 -23 -51.5 -36.5t-79.5 -13.5q-31 0 -59.5 8.5t-50.5 27t-35 47t-13 67.5q0 41 15.5 71t43 50t65.5 29.5t83 9.5h77q6 0 6 6v13q0 27 -19 39t-75 12q-33 0 -60.5 -8t-44.5 -20q-9 -5 -13 3l-52 92q-4 10 3 16q33 23 81 35.5t108 12.5 q64 0 108 -11t71 -33.5t39 -56.5t12 -81v-307q0 -10 -10 -10h-138zM248 108q76 0 76 52v30q0 6 -6 6h-59q-68 0 -68 -46q0 -42 57 -42zM335 545q-27 0 -46 7t-37 16q-15 8 -29 13t-31 5q-23 0 -39.5 -9t-36.5 -23q-4 -3 -7 -2t-3 5v81q0 13 9 22q17 17 37 27t44 10 q28 0 47 -7t37 -16q15 -8 29 -13t31 -5q22 0 39 9t36 24q11 7 11 -4v-81q0 -13 -10 -22q-17 -17 -37 -27t-44 -10z" glyph-name="atilde" horiz-adv-x="532" unicode="ã"/>
<glyph d="M334 0q-10 0 -10 10v28h-1q-20 -23 -51.5 -36.5t-79.5 -13.5q-31 0 -59.5 8.5t-50.5 27t-35 47t-13 67.5q0 41 15.5 71t43 50t65.5 29.5t83 9.5h77q6 0 6 6v13q0 27 -19 39t-75 12q-33 0 -60.5 -8t-44.5 -20q-9 -5 -13 3l-52 92q-4 10 3 16q33 23 81 35.5t108 12.5 q64 0 108 -11t71 -33.5t39 -56.5t12 -81v-307q0 -10 -10 -10h-138zM248 108q76 0 76 52v30q0 6 -6 6h-59q-68 0 -68 -46q0 -42 57 -42zM313 550q-10 0 -10 10v110q0 10 10 10h108q10 0 10 -10v-110q0 -10 -10 -10h-108zM108 550q-10 0 -10 10v110q0 10 10 10h108 q10 0 10 -10v-110q0 -10 -10 -10h-108z" glyph-name="adieresis" horiz-adv-x="532" unicode="ä"/>
<glyph d="M334 0q-10 0 -10 10v28h-1q-20 -23 -51.5 -36.5t-79.5 -13.5q-31 0 -59.5 8.5t-50.5 27t-35 47t-13 67.5q0 41 15.5 71t43 50t65.5 29.5t83 9.5h77q6 0 6 6v13q0 27 -19 39t-75 12q-33 0 -60.5 -8t-44.5 -20q-9 -5 -13 3l-52 92q-4 10 3 16q33 23 81 35.5t108 12.5 q64 0 108 -11t71 -33.5t39 -56.5t12 -81v-307q0 -10 -10 -10h-138zM248 108q76 0 76 52v30q0 6 -6 6h-59q-68 0 -68 -46q0 -42 57 -42zM267 518q-49 0 -81.5 32t-32.5 82t32.5 82t81.5 32q50 0 82.5 -32t32.5 -82t-32.5 -82t-82.5 -32zM267 587q19 0 31.5 12.5t12.5 32.5 t-12.5 32.5t-31.5 12.5q-18 0 -30.5 -12.5t-12.5 -32.5t12.5 -32.5t30.5 -12.5z" glyph-name="aring" horiz-adv-x="532" unicode="å"/>
<glyph d="M562 -12q-52 0 -95.5 18.5t-69.5 50.5h-1q-28 -36 -72.5 -52.5t-110.5 -16.5q-84 0 -131.5 37.5t-47.5 112.5q0 41 15.5 71t43 50t65.5 29.5t83 9.5h77q6 0 6 6v13q0 27 -19 39t-75 12q-33 0 -60.5 -8t-44.5 -20q-9 -5 -13 3l-52 92q-4 10 3 16q33 23 81 35.5t108 12.5 q55 0 95.5 -11.5t68.5 -31.5h2q22 17 56 30t78 13q88 0 143 -37t77 -104q4 -11 6.5 -24.5t4.5 -31t3 -41t1 -55.5q0 -10 -10 -10h-289q-6 0 -6 -6q0 -12 4 -20q8 -26 33 -39.5t61 -13.5q32 0 58.5 10t50.5 29q8 8 14 0l72 -73q7 -7 -1 -15q-38 -37 -92 -58.5t-120 -21.5z M620 298q6 0 6 6q0 17 -5 30q-6 21 -23.5 32.5t-43.5 11.5q-54 0 -68 -44q-4 -11 -4 -30q0 -6 6 -6h132zM248 108q76 0 76 52v30q0 6 -6 6h-59q-68 0 -68 -46q0 -42 57 -42z" glyph-name="ae" horiz-adv-x="819" unicode="æ"/>
<glyph d="M143 -166q-10 0 -7 10l60 151q-57 17 -94.5 48t-55.5 88q-8 21 -11 47.5t-3 64.5t3 65t11 48q23 71 80.5 107t136.5 36q74 0 126.5 -32t75.5 -80q4 -9 -4 -14l-112 -58q-4 -2 -8.5 -2t-6.5 5q-13 23 -28 33t-38 10q-44 0 -59 -42q-4 -11 -5.5 -27.5t-1.5 -48.5 q0 -31 1.5 -47.5t5.5 -27.5q15 -42 59 -42q23 0 38 10t28 33q2 5 6.5 5t8.5 -2l112 -58q8 -5 4 -14q-18 -36 -55 -65.5t-92 -40.5l-44 -150q-3 -10 -16 -10h-115z" glyph-name="ccedilla" horiz-adv-x="493" unicode="ç"/>
<glyph d="M275 -12q-90 0 -147.5 37.5t-79.5 105.5q-8 22 -12 48t-4 64q0 39 4 65.5t11 47.5q23 69 79.5 106t138.5 37q88 0 143.5 -37t76.5 -104q4 -11 7 -24.5t5 -31t3 -41t1 -55.5q0 -10 -11 -10h-289q-6 0 -6 -6q1 -5 1.5 -10t2.5 -10q8 -26 33.5 -39.5t60.5 -13.5q61 0 109 39 q8 7 15 0l71 -73q4 -3 3.5 -7.5t-4.5 -7.5q-38 -37 -92 -58.5t-120 -21.5zM333 298q6 0 6 6q0 19 -4 30q-14 44 -68 44q-26 0 -43.5 -11.5t-24.5 -32.5q-2 -6 -3 -13t-1 -17q0 -6 6 -6h132zM222 546q-10 0 -17 10l-103 136q-3 4 -1.5 7t6.5 3h139q11 0 17 -10l80 -136 q5 -10 -5 -10h-116z" glyph-name="egrave" horiz-adv-x="533" unicode="è"/>
<glyph d="M193 546q-10 0 -5 10l80 136q6 10 17 10h139q5 0 6.5 -3t-1.5 -7l-103 -136q-8 -10 -17 -10h-116zM275 -12q-90 0 -147.5 37.5t-79.5 105.5q-8 22 -12 48t-4 64q0 39 4 65.5t11 47.5q23 69 79.5 106t138.5 37q88 0 143.5 -37t76.5 -104q4 -11 7 -24.5t5 -31t3 -41 t1 -55.5q0 -10 -11 -10h-289q-6 0 -6 -6q1 -5 1.5 -10t2.5 -10q8 -26 33.5 -39.5t60.5 -13.5q61 0 109 39q8 7 15 0l71 -73q4 -3 3.5 -7.5t-4.5 -7.5q-38 -37 -92 -58.5t-120 -21.5zM333 298q6 0 6 6q0 19 -4 30q-14 44 -68 44q-26 0 -43.5 -11.5t-24.5 -32.5q-2 -6 -3 -13 t-1 -17q0 -6 6 -6h132z" glyph-name="eacute" horiz-adv-x="533" unicode="é"/>
<glyph d="M338 544q-13 0 -23 10l-49 50h-2l-48 -50q-10 -10 -23 -10h-95q-5 0 -6.5 3t1.5 7l109 137q7 10 18 10h91q11 0 18 -10l109 -137q3 -4 1.5 -7t-6.5 -3h-95zM275 -12q-90 0 -147.5 37.5t-79.5 105.5q-8 22 -12 48t-4 64q0 39 4 65.5t11 47.5q23 69 79.5 106t138.5 37 q88 0 143.5 -37t76.5 -104q4 -11 7 -24.5t5 -31t3 -41t1 -55.5q0 -10 -11 -10h-289q-6 0 -6 -6q1 -5 1.5 -10t2.5 -10q8 -26 33.5 -39.5t60.5 -13.5q61 0 109 39q8 7 15 0l71 -73q4 -3 3.5 -7.5t-4.5 -7.5q-38 -37 -92 -58.5t-120 -21.5zM333 298q6 0 6 6q0 19 -4 30 q-14 44 -68 44q-26 0 -43.5 -11.5t-24.5 -32.5q-2 -6 -3 -13t-1 -17q0 -6 6 -6h132z" glyph-name="ecircumflex" horiz-adv-x="533" unicode="ê"/>
<glyph d="M314 550q-10 0 -10 10v110q0 10 10 10h108q10 0 10 -10v-110q0 -10 -10 -10h-108zM109 550q-10 0 -10 10v110q0 10 10 10h108q10 0 10 -10v-110q0 -10 -10 -10h-108zM275 -12q-90 0 -147.5 37.5t-79.5 105.5q-8 22 -12 48t-4 64q0 39 4 65.5t11 47.5q23 69 79.5 106 t138.5 37q88 0 143.5 -37t76.5 -104q4 -11 7 -24.5t5 -31t3 -41t1 -55.5q0 -10 -11 -10h-289q-6 0 -6 -6q1 -5 1.5 -10t2.5 -10q8 -26 33.5 -39.5t60.5 -13.5q61 0 109 39q8 7 15 0l71 -73q4 -3 3.5 -7.5t-4.5 -7.5q-38 -37 -92 -58.5t-120 -21.5zM333 298q6 0 6 6 q0 19 -4 30q-14 44 -68 44q-26 0 -43.5 -11.5t-24.5 -32.5q-2 -6 -3 -13t-1 -17q0 -6 6 -6h132z" glyph-name="edieresis" horiz-adv-x="533" unicode="ë"/>
<glyph d="M63 0q-10 0 -10 10v467q0 10 10 10h148q10 0 10 -10v-467q0 -10 -10 -10h-148zM83 546q-10 0 -17 10l-103 136q-3 4 -1.5 7t6.5 3h139q11 0 17 -10l80 -136q5 -10 -5 -10h-116z" glyph-name="igrave" horiz-adv-x="274" unicode="ì"/>
<glyph d="M77 546q-10 0 -5 10l80 136q6 10 17 10h139q5 0 6.5 -3t-1.5 -7l-103 -136q-8 -10 -17 -10h-116zM63 0q-10 0 -10 10v467q0 10 10 10h148q10 0 10 -10v-467q0 -10 -10 -10h-148z" glyph-name="iacute" horiz-adv-x="274" unicode="í"/>
<glyph d="M210 544q-13 0 -23 10l-49 50h-2l-48 -50q-10 -10 -23 -10h-95q-5 0 -6.5 3t1.5 7l109 137q7 10 18 10h91q11 0 18 -10l109 -137q3 -4 1.5 -7t-6.5 -3h-95zM63 0q-10 0 -10 10v467q0 10 10 10h148q10 0 10 -10v-467q0 -10 -10 -10h-148z" glyph-name="icircumflex" horiz-adv-x="274" unicode="î"/>
<glyph d="M186 550q-10 0 -10 10v110q0 10 10 10h108q10 0 10 -10v-110q0 -10 -10 -10h-108zM-19 550q-10 0 -10 10v110q0 10 10 10h108q10 0 10 -10v-110q0 -10 -10 -10h-108zM63 0q-10 0 -10 10v467q0 10 10 10h148q10 0 10 -10v-467q0 -10 -10 -10h-148z" glyph-name="idieresis" horiz-adv-x="274" unicode="ï"/>
<glyph d="M368 549l23 -31q31 -42 53 -78t36 -69.5t20.5 -67.5t6.5 -72q0 -31 -4 -54.5t-10 -43.5q-23 -69 -81 -107t-143 -38q-88 0 -144.5 37.5t-77.5 100.5q-7 22 -11 45t-4 48q0 52 14 97q19 57 63 91.5t109 34.5q23 0 39.5 -5.5t27.5 -12.5h2l-61 83l-98 -29q-10 -2 -13 7 l-21 73q-3 10 7 13l64 19l-58 80q-3 4 -1.5 7t6.5 3h148q11 0 19 -9l28 -39l88 26q10 2 13 -7l22 -72q2 -10 -7 -13zM269 125q23 0 39 11t23 31q6 21 6 52t-6 52q-14 42 -61 42q-23 0 -39 -11t-23 -31q-3 -11 -5 -23.5t-2 -28.5t2 -28.5t5 -23.5q7 -20 23 -31t38 -11z" glyph-name="eth" horiz-adv-x="538" unicode="ð"/>
<glyph d="M350 0q-10 0 -10 10v278q0 32 -14.5 51.5t-44.5 19.5q-29 0 -44.5 -19t-15.5 -52v-278q0 -10 -10 -10h-148q-10 0 -10 10v467q0 10 10 10h148q10 0 10 -10v-35h1q17 24 48 40.5t77 16.5q42 0 72 -13.5t50 -37.5t29.5 -57.5t9.5 -73.5v-307q0 -10 -10 -10h-148zM347 545 q-27 0 -46 7t-37 16q-15 8 -29 13t-31 5q-23 0 -39.5 -9t-36.5 -23q-4 -3 -7 -2t-3 5v81q0 13 9 22q17 17 37 27t44 10q28 0 47 -7t37 -16q15 -8 29 -13t31 -5q22 0 39 9t36 24q11 7 11 -4v-81q0 -13 -10 -22q-17 -17 -37 -27t-44 -10z" glyph-name="ntilde" horiz-adv-x="558" unicode="ñ"/>
<glyph d="M269 -12q-81 0 -140 35.5t-82 105.5q-8 27 -11.5 54.5t-3.5 59.5q0 33 3.5 60.5t11.5 54.5q23 70 82 105.5t140 35.5t140 -35.5t82 -105.5q8 -27 11.5 -54.5t3.5 -60.5q0 -32 -3.5 -59.5t-11.5 -54.5q-23 -70 -82 -105.5t-140 -35.5zM269 126q45 0 60 41q4 14 5.5 29.5 t1.5 46.5t-1.5 47t-5.5 30q-15 41 -60 41t-60 -41q-4 -14 -5.5 -30t-1.5 -47t1.5 -46.5t5.5 -29.5q15 -41 60 -41zM222 546q-10 0 -17 10l-103 136q-3 4 -1.5 7t6.5 3h139q11 0 17 -10l80 -136q5 -10 -5 -10h-116z" glyph-name="ograve" horiz-adv-x="538" unicode="ò"/>
<glyph d="M201 546q-10 0 -5 10l80 136q6 10 17 10h139q5 0 6.5 -3t-1.5 -7l-103 -136q-8 -10 -17 -10h-116zM269 -12q-81 0 -140 35.5t-82 105.5q-8 27 -11.5 54.5t-3.5 59.5q0 33 3.5 60.5t11.5 54.5q23 70 82 105.5t140 35.5t140 -35.5t82 -105.5q8 -27 11.5 -54.5t3.5 -60.5 q0 -32 -3.5 -59.5t-11.5 -54.5q-23 -70 -82 -105.5t-140 -35.5zM269 126q45 0 60 41q4 14 5.5 29.5t1.5 46.5t-1.5 47t-5.5 30q-15 41 -60 41t-60 -41q-4 -14 -5.5 -30t-1.5 -47t1.5 -46.5t5.5 -29.5q15 -41 60 -41z" glyph-name="oacute" horiz-adv-x="538" unicode="ó"/>
<glyph d="M341 544q-13 0 -23 10l-49 50h-2l-48 -50q-10 -10 -23 -10h-95q-5 0 -6.5 3t1.5 7l109 137q7 10 18 10h91q11 0 18 -10l109 -137q3 -4 1.5 -7t-6.5 -3h-95zM269 -12q-81 0 -140 35.5t-82 105.5q-8 27 -11.5 54.5t-3.5 59.5q0 33 3.5 60.5t11.5 54.5q23 70 82 105.5 t140 35.5t140 -35.5t82 -105.5q8 -27 11.5 -54.5t3.5 -60.5q0 -32 -3.5 -59.5t-11.5 -54.5q-23 -70 -82 -105.5t-140 -35.5zM269 126q45 0 60 41q4 14 5.5 29.5t1.5 46.5t-1.5 47t-5.5 30q-15 41 -60 41t-60 -41q-4 -14 -5.5 -30t-1.5 -47t1.5 -46.5t5.5 -29.5 q15 -41 60 -41z" glyph-name="ocircumflex" horiz-adv-x="538" unicode="ô"/>
<glyph d="M269 -12q-81 0 -140 35.5t-82 105.5q-8 27 -11.5 54.5t-3.5 59.5q0 33 3.5 60.5t11.5 54.5q23 70 82 105.5t140 35.5t140 -35.5t82 -105.5q8 -27 11.5 -54.5t3.5 -60.5q0 -32 -3.5 -59.5t-11.5 -54.5q-23 -70 -82 -105.5t-140 -35.5zM269 126q45 0 60 41q4 14 5.5 29.5 t1.5 46.5t-1.5 47t-5.5 30q-15 41 -60 41t-60 -41q-4 -14 -5.5 -30t-1.5 -47t1.5 -46.5t5.5 -29.5q15 -41 60 -41zM337 545q-27 0 -46 7t-37 16q-15 8 -29 13t-31 5q-23 0 -39.5 -9t-36.5 -23q-4 -3 -7 -2t-3 5v81q0 13 9 22q17 17 37 27t44 10q28 0 47 -7t37 -16 q15 -8 29 -13t31 -5q22 0 39 9t36 24q11 7 11 -4v-81q0 -13 -10 -22q-17 -17 -37 -27t-44 -10z" glyph-name="otilde" horiz-adv-x="538" unicode="õ"/>
<glyph d="M316 550q-10 0 -10 10v110q0 10 10 10h108q10 0 10 -10v-110q0 -10 -10 -10h-108zM111 550q-10 0 -10 10v110q0 10 10 10h108q10 0 10 -10v-110q0 -10 -10 -10h-108zM269 -12q-81 0 -140 35.5t-82 105.5q-8 27 -11.5 54.5t-3.5 59.5q0 33 3.5 60.5t11.5 54.5 q23 70 82 105.5t140 35.5t140 -35.5t82 -105.5q8 -27 11.5 -54.5t3.5 -60.5q0 -32 -3.5 -59.5t-11.5 -54.5q-23 -70 -82 -105.5t-140 -35.5zM269 126q45 0 60 41q4 14 5.5 29.5t1.5 46.5t-1.5 47t-5.5 30q-15 41 -60 41t-60 -41q-4 -14 -5.5 -30t-1.5 -47t1.5 -46.5 t5.5 -29.5q15 -41 60 -41z" glyph-name="odieresis" horiz-adv-x="538" unicode="ö"/>
<glyph d="M281 389q-35 0 -60 24.5t-25 59.5q0 36 25 60.5t60 24.5q36 0 60.5 -24.5t24.5 -60.5q0 -35 -24.5 -59.5t-60.5 -24.5zM57 206q-10 0 -10 10v120q0 10 10 10h448q10 0 10 -10v-120q0 -10 -10 -10h-448zM281 -6q-35 0 -60 24.5t-25 60.5q0 35 25 59.5t60 24.5 q36 0 60.5 -24.5t24.5 -59.5q0 -36 -24.5 -60.5t-60.5 -24.5z" glyph-name="divide" unicode="÷"/>
<glyph d="M269 -12q-67 0 -118 24l-24 -32q-7 -10 -19 -10h-82q-5 0 -6 3t2 7l62 82q-12 14 -21.5 30.5t-15.5 36.5q-8 27 -11.5 54.5t-3.5 59.5q0 33 3.5 60.5t11.5 54.5q23 70 82 105.5t140 35.5q67 0 118 -24l24 32q7 10 19 10h81q5 0 6 -3t-1 -7l-62 -83q12 -14 21 -30.5 t16 -35.5q8 -27 11.5 -54.5t3.5 -60.5q0 -32 -3.5 -59.5t-11.5 -54.5q-23 -70 -82 -105.5t-140 -35.5zM269 126q45 0 60 41q4 14 5.5 29.5t1.5 46.5t-1.5 47t-5.5 30q-15 41 -60 41t-60 -41q-4 -14 -5.5 -30t-1.5 -47t1.5 -46.5t5.5 -29.5q15 -41 60 -41z" glyph-name="oslash" horiz-adv-x="538" unicode="ø"/>
<glyph d="M344 0q-10 0 -10 10v35h-1q-18 -25 -48.5 -41t-75.5 -16q-42 0 -72 13.5t-49.5 37.5t-29 57.5t-9.5 73.5v307q0 10 10 10h148q10 0 10 -10v-278q0 -32 15 -51.5t44 -19.5t43.5 19t14.5 52v278q0 10 10 10h148q10 0 10 -10v-467q0 -10 -10 -10h-148zM231 546q-10 0 -17 10 l-103 136q-3 4 -1.5 7t6.5 3h139q11 0 17 -10l80 -136q5 -10 -5 -10h-116z" glyph-name="ugrave" horiz-adv-x="555" unicode="ù"/>
<glyph d="M208 546q-10 0 -5 10l80 136q6 10 17 10h139q5 0 6.5 -3t-1.5 -7l-103 -136q-8 -10 -17 -10h-116zM344 0q-10 0 -10 10v35h-1q-18 -25 -48.5 -41t-75.5 -16q-42 0 -72 13.5t-49.5 37.5t-29 57.5t-9.5 73.5v307q0 10 10 10h148q10 0 10 -10v-278q0 -32 15 -51.5t44 -19.5 t43.5 19t14.5 52v278q0 10 10 10h148q10 0 10 -10v-467q0 -10 -10 -10h-148z" glyph-name="uacute" horiz-adv-x="555" unicode="ú"/>
<glyph d="M350 544q-13 0 -23 10l-49 50h-2l-48 -50q-10 -10 -23 -10h-95q-5 0 -6.5 3t1.5 7l109 137q7 10 18 10h91q11 0 18 -10l109 -137q3 -4 1.5 -7t-6.5 -3h-95zM344 0q-10 0 -10 10v35h-1q-18 -25 -48.5 -41t-75.5 -16q-42 0 -72 13.5t-49.5 37.5t-29 57.5t-9.5 73.5v307 q0 10 10 10h148q10 0 10 -10v-278q0 -32 15 -51.5t44 -19.5t43.5 19t14.5 52v278q0 10 10 10h148q10 0 10 -10v-467q0 -10 -10 -10h-148z" glyph-name="ucircumflex" horiz-adv-x="555" unicode="û"/>
<glyph d="M325 550q-10 0 -10 10v110q0 10 10 10h108q10 0 10 -10v-110q0 -10 -10 -10h-108zM120 550q-10 0 -10 10v110q0 10 10 10h108q10 0 10 -10v-110q0 -10 -10 -10h-108zM344 0q-10 0 -10 10v35h-1q-18 -25 -48.5 -41t-75.5 -16q-42 0 -72 13.5t-49.5 37.5t-29 57.5 t-9.5 73.5v307q0 10 10 10h148q10 0 10 -10v-278q0 -32 15 -51.5t44 -19.5t43.5 19t14.5 52v278q0 10 10 10h148q10 0 10 -10v-467q0 -10 -10 -10h-148z" glyph-name="udieresis" horiz-adv-x="555" unicode="ü"/>
<glyph d="M96 -180q-10 0 -10 10v118q0 10 10 10h25q24 0 38 9t22 32l11 31l-183 447q-4 10 7 10h157q9 0 12 -10l84 -244h2l78 244q3 10 13 10h153q11 0 7 -10l-211 -532q-14 -36 -30.5 -60.5t-37.5 -38.5t-48 -20t-62 -6h-37zM202 546q-10 0 -5 10l80 136q6 10 17 10h139 q5 0 6.5 -3t-1.5 -7l-103 -136q-8 -10 -17 -10h-116z" glyph-name="yacute" horiz-adv-x="531" unicode="ý"/>
<glyph d="M63 -180q-10 0 -10 10v840q0 10 10 10h148q10 0 10 -10v-229h1q17 26 47.5 42t77.5 16q62 0 102 -30t59 -87q9 -29 13 -61t4 -78q0 -45 -4 -77t-13 -61q-19 -57 -59 -87t-102 -30q-47 0 -77.5 16t-47.5 42h-1v-216q0 -10 -10 -10h-148zM288 126q45 0 60 41q4 12 5.5 28 t1.5 48t-1.5 48.5t-5.5 28.5q-15 41 -60 41q-46 0 -59 -41q-5 -12 -6.5 -28.5t-1.5 -48.5t1.5 -48t6.5 -28q13 -41 59 -41z" glyph-name="thorn" horiz-adv-x="557" unicode="þ"/>
</font>
</defs>
</svg>
