{
    "Agencies": [
        {
            "AgencyCode": "AGY20373",
            "AgencyFolderName": "Nirvana",
            "Domain": "127.0.0.12"
        },
        {
            "AgencyCode": "AGY397",
            "AgencyFolderName": "easy2go",
            "Domain": "127.0.0.2"
        },
        {
            "AgencyCode": "AGY20429",
            "AgencyFolderName": "A2Z",
            "Domain": "127.0.0.1"
        },
        {
            "AgencyCode": "AGY20342",
            "AgencyFolderName": "Biscordint",
            "Domain": "127.0.0.4"
        },
        {
            "AgencyCode": "AGY20427",
            "AgencyFolderName": "Dartex",
            "Domain": "127.0.0.12"
        },
        {
            "AgencyCode": "AGY20438",
            "AgencyFolderName": "Alwafra",
            "Domain": "127.0.0.6"
        },
        {
            "AgencyCode": "AGY20453",
            "AgencyFolderName": "Aaliaholidays",
            "Domain": "127.0.0.12"
        },
        {
            "AgencyCode": "AGY20510",
            "AgencyFolderName": "CompareTicket",
            "Domain": "127.0.0.9"
        },
        {
            "AgencyCode": "AGY20512",
            "AgencyFolderName": "flyonline",
            "Domain": "127.0.0.10"
        },
        {
            "AgencyCode": "AGY20152",
            "AgencyFolderName": "Elitetravel",
            "Domain": "127.0.0.11"
        },
        {
            "AgencyCode": "AGY1652",
            "AgencyFolderName": "A2Z_India",
            "Domain": "127.0.0.25"
        },
        {
            "AgencyCode": "AGY20534",
            "AgencyFolderName": "EuroAfrica",
            "Domain": "127.0.0.12"
        },
        {
            "AgencyCode": "AGY20544",
            "AgencyFolderName": "FlyKey",
            "Domain": "127.0.0.29"
        },
        {
            "AgencyCode": "AGY20565",
            "AgencyFolderName": "KhartoumTKT",
            "Domain": "127.0.0.17"
        },
        {
            "AgencyCode": "AGY20570",
            "AgencyFolderName": "Yone",
            "Domain": "127.0.0.14"
        },
        {
            "AgencyCode": "AGY20575",
            "AgencyFolderName": "Vamidzo",
            "Domain": "127.0.0.15"
        },
        {
            "AgencyCode": "AGY20483",
            "AgencyFolderName": "ICA",
            "Domain": "127.0.0.16"
        },
        {
            "AgencyCode": "AGY3143",
            "AgencyFolderName": "SGS_Demo",
            "Domain": "127.0.0.27"
        },
        {
            "AgencyCode": "AGY3143",
            "AgencyFolderName": "SGS_Demo1",
            "Domain": "127.0.0.28"
        },
        {
            "AgencyCode": "AGY20621",
            "AgencyFolderName": "Spartan",
            "Domain": "127.0.0.12"
        },
        {
            "AgencyCode": "AGY20624",
            "AgencyFolderName": "TarcoAviation",
            "Domain": "127.0.0.12"
        },
        {
            "AgencyCode": "AGY20630",
            "AgencyFolderName": "WTAD",
            "Domain": "127.0.0.12"
        },
        {
            "AgencyCode": "AGY20633",
            "AgencyFolderName": "TDRA",
            "Domain": "127.0.0.12"
        },
        {
            "AgencyCode": "AGY20637",
            "AgencyFolderName": "World-Sailing",
            "Domain": "127.0.0.12"
        },
        {
            "AgencyCode": "AGY22",
            "AgencyFolderName": "nirvanab2c",
            "Domain": "127.0.0.30"
        }
    ]
}