{
    "Agencies": [
        {
            "AgencyCode": "AGY20570",
            "AgencyFolderName": "Yone",
            "UserName": "admin.yone",
            "Password": "admin.yone",
            "Domain": "127.0.0.14"
        }
    ]
}