{
    "Agencies": [
        {
            "AgencyCode": "AGY20427",
            "AgencyFolderName": "Dartex",
            "UserName": "dartex",
            "Password": "dartex@123",
            "Domain": "stag-dartex.oneviewitsolutions.com"
        },
        {
            "AgencyCode": "AGY20427",
            "AgencyFolderName": "Dartex",
            "UserName": "dartex",
            "Password": "dartex@123",
            "Domain": "127.0.0.1"
        }
    ]
}