{
    "Agencies": [
        {
            "AgencyCode": "AGY20373",
            "AgencyFolderName": "Nirvana",
            "UserName": "nirvana",
            "Password": "nirvana123",
            "Domain": "127.0.0.1"
        }
    ]
}