﻿{
  "roles": {
    "flights": [
      {
        "id": 37,
        "roleName": "searchBooking"
      },
      {
        "id": 38,
        "roleName": "showSuppliers"
      },
      {
        "id": 39,
        "roleName": "dashboard"
      },
      {
        "id": 40,
        "roleName": "actionRequired"
      },
      {
        "id": 41,
        "roleName": "quotation"
      },
      {
        "id": 42,
        "roleName": "book"
      },
      {
        "id": 92,
        "roleName": "farecalendar"
      }
    ],
    "hotel": [
      {
        "id": 85,
        "roleName": "Supplier Filter"
      },
      {
        "id": 86,
        "roleName": "Suppliers"
      },
      {
        "id": 87,
        "roleName": "Quotation"
      },
      {
        "id": 88,
        "roleName": "Book"
      },
      {
        "id": 89,
        "roleName": "Dashboard"
      },
      {
        "id": 90,
        "roleName": "Action Required"
      },
      {
        "id": 91,
        "roleName": "Search Bookings"
      }
    ],
    "insurance": [
      {
        "id": 43,
        "roleName": "quotation"
      },
      {
        "id": 44,
        "roleName": "book"
      },
      {
        "id": 45,
        "roleName": "actionRequired"
      }
    ]
  }
}
