<?xml version="1.0" encoding="utf-8"?>
<!-- Generator: Adobe Illustrator 25.0.0, SVG Export Plug-In . SVG Version: 6.00 Build 0)  -->
<svg version="1.1" id="Capa_1" xmlns="http://www.w3.org/2000/svg" xmlns:xlink="http://www.w3.org/1999/xlink" x="0px" y="0px"
	 viewBox="0 0 26.5 26.5" style="enable-background:new 0 0 26.5 26.5;" xml:space="preserve">
<style type="text/css">
	.st0{fill:#07A7E0;}
</style>
<g>
	<path class="st0" d="M26,24l-0.8-4.5c-0.2-1.2-1.3-2.4-2.5-2.6l-4.1-0.9l-0.8-1.7c-0.1-0.1-0.2-0.2-0.3-0.3c0.2-0.5,0.4-1,0.6-1.5
		c0.3-0.1,0.5-0.4,0.6-0.5c0.1-0.2,0.2-0.3,0.3-0.5c0.2-0.5,0.3-1,0.4-1.5c0-0.2,0.1-0.4,0.2-0.6l0.1-0.4c0.1-0.4,0.1-0.9-0.2-1.2
		c0-0.1-0.1-0.1-0.2-0.2c0.3-1.4,0.1-2.7-0.4-3.9c-0.7-1.6-1.8-2.6-3.4-3c-0.6-0.2-1.1-0.3-1.7-0.3l0-0.2l-0.2,0c-0.3,0-0.7,0-1,0
		l-0.4,0c-0.2,0-0.4,0-0.7,0.1L11.2,0l-0.9,0.6c-0.2,0.1-0.4,0.2-0.5,0.3C9.5,1.1,9.4,1.3,9.2,1.5C8.8,1.7,8.3,1.9,7.9,2.3
		C7.8,2.3,7.8,2.4,7.7,2.5L7.2,3.1l0.2,0.2C7.2,3.7,7.2,4,7.3,4.3C7,5.4,7,6.6,7.4,7.9C7.2,8.1,7.1,8.3,7,8.6C7,9,6.9,9.6,7.2,10.1
		c0.1,0.3,0.2,0.5,0.3,0.9l0.1,0.2c0.1,0.2,0.2,0.4,0.3,0.7C7.9,12,8,12.2,8.1,12.3c0.1,0.1,0.2,0.2,0.4,0.3c0.1,0.5,0.3,1,0.6,1.4
		l0,0.1l-0.1,0l0,0c-0.1,0-0.3,0.1-0.3,0.3l-0.8,1.7L3.8,17c-1.2,0.2-2.3,1.4-2.5,2.6L0.5,24c-0.1,0.6,0,1.2,0.4,1.7
		c0.4,0.5,1,0.7,1.6,0.7H24c0.6,0,1.2-0.3,1.6-0.7S26.1,24.7,26,24z M17.7,16.6L17.7,16.6l-3.2,1.9l-0.6-1.2l3.2-1.9L17.7,16.6z
		 M9,11.7c0,0-0.1,0-0.1-0.1c-0.1-0.1-0.1-0.2-0.2-0.3c-0.1-0.2-0.1-0.3-0.2-0.5l-0.1-0.2c-0.1-0.3-0.2-0.7-0.4-1C8,9.4,8,9,8.1,8.8
		c0-0.1,0-0.2,0.3-0.2l0.2,0L8.6,8.3C8.1,6.6,8,5.3,8.4,4.1l-0.1,0c0-0.2,0.2-0.6,0.5-1L8.7,3c0.3-0.3,0.7-0.4,1-0.4
		c0.1,0,0.3-0.1,0.3-0.2c0.1-0.2,0.2-0.4,0.4-0.5c0.1-0.1,0.3-0.2,0.4-0.3l0.1,0.1c0.4-0.2,0.8-0.2,1.2-0.3l0.1,0.1l0.2,0
		c0.9,0,1.9,0.1,2.7,0.4c1.2,0.3,2.1,1.1,2.7,2.4c0.5,1.2,0.6,2.4,0.2,3.8l0,0.1l0,0.2l0.2,0.1l0.2,0c0.1,0,0.1,0,0.2,0.1
		c0,0.1,0.1,0.1,0,0.3l-0.1,0.3c-0.1,0.2-0.1,0.5-0.2,0.8c-0.1,0.4-0.2,0.9-0.3,1.2c-0.1,0.1-0.1,0.2-0.2,0.4
		c-0.1,0.1-0.1,0.1-0.1,0.1c0,0,0,0-0.1-0.1l-0.3-0.1l-0.1,0.4c-0.1,0.6-0.3,1.2-0.6,1.8c-0.1,0.3-0.2,0.5-0.2,0.9l-3.1,1.8
		l-3.1-1.8c0,0,0-0.4,0-0.6c0-0.1,0-0.3-0.1-0.4c-0.3-0.6-0.5-1.2-0.7-1.8l-0.2,0.1l0.2-0.1l-0.1-0.2L9,11.7z M8.9,16.4l0.3-0.5
		l-0.1,0l0.2-0.5l3.2,1.9L12,18.4l-3.2-1.9L8.9,16.4z M24.8,25.1c-0.2,0.2-0.5,0.3-0.8,0.3h-4.1v-2.4c0-0.3-0.2-0.5-0.5-0.5
		s-0.5,0.2-0.5,0.5v2.4H7.7v-2.4c0-0.3-0.2-0.5-0.5-0.5s-0.5,0.2-0.5,0.5v2.4H2.5c-0.3,0-0.6-0.1-0.8-0.3c-0.2-0.2-0.3-0.5-0.2-0.8
		l0.8-4.5C2.4,19,3.2,18.2,4,18l3.8-0.8l0,0l4.2,2.4c0.1,0,0.2,0.1,0.3,0.1l0.1,0l0,0c0.1,0,0.3-0.1,0.3-0.3l0.5-1.1l0.5,1.1
		c0.1,0.1,0.2,0.2,0.3,0.3l0.1,0h0c0.1,0,0.2,0,0.3-0.1l4.1-2.4c0,0,0,0,0.1,0l3.8,0.8c0.8,0.2,1.6,1,1.7,1.8l0.8,4.4
		C25,24.6,25,24.9,24.8,25.1z"/>
</g>
</svg>
