<?xml version="1.0" encoding="utf-8"?>
<!-- Generator: Adobe Illustrator 25.0.0, SVG Export Plug-In . SVG Version: 6.00 Build 0)  -->
<svg version="1.1" id="Layer_1" xmlns="http://www.w3.org/2000/svg" xmlns:xlink="http://www.w3.org/1999/xlink" x="0px" y="0px"
	 viewBox="0 0 476.5 476.5" style="enable-background:new 0 0 476.5 476.5;" xml:space="preserve">
<style type="text/css">
	.st0{fill:#969696;}
</style>
<polygon class="st0" points="476.5,223.2 136.5,223.2 136.5,101.7 0,238.2 136.5,374.8 136.5,253.2 476.5,253.2 "/>
</svg>
