<?xml version="1.0" encoding="utf-8"?>
<!-- Generator: Adobe Illustrator 25.3.0, SVG Export Plug-In . SVG Version: 6.00 Build 0)  -->
<svg version="1.1" id="Layer_1" xmlns="http://www.w3.org/2000/svg" xmlns:xlink="http://www.w3.org/1999/xlink" x="0px" y="0px"
	 viewBox="0 0 64 64" style="enable-background:new 0 0 64 64;" xml:space="preserve">
<style type="text/css">
	.st0{fill:none;stroke:#07A7E0;stroke-width:1.9027;stroke-linejoin:round;stroke-miterlimit:10;}
	.st1{fill-rule:evenodd;clip-rule:evenodd;fill:#07A7E0;}
</style>
<g>
	<path class="st0" d="M32.5,2.7c-11.7,0-21.2,9.5-21.2,21.2c0,14.5,19,35.9,19.8,36.8c0.8,0.8,2.1,0.8,2.8,0
		c0.8-0.9,19.8-22.2,19.8-36.8C53.7,12.3,44.2,2.7,32.5,2.7z"/>
	<path class="st1" d="M32.5,21.7c3.9,0,7,3.1,7,7s-3.1,7-7,7c-3.9,0-7-3.1-7-7S28.6,21.7,32.5,21.7z"/>
</g>
</svg>
