{
    "Agencies": [
        {
            "AgencyCode": "AGY20637",
            "AgencyFolderName": "World-Sailing",
            "UserName": "admin.worldsailing",
            "Password": "admin.worldsailing",
            "Domain": "127.0.0.1"
        }
    ],
    "file_upload_Spartan": [
        {
            "UserName": "AGY20630",
            "Password": "5Tgb6Yhn%"
        }
    ]
}